{
  "arch": "x86_64",
  "auth": null,
  "build": "py36h1a776d2_1",
  "build_number": 1,
  "channel": null,
  "depends": [
    "python >=3.6,<3.7.0a0"
  ],
  "files": [
    "Lib/site-packages/boto-2.48.0-py3.6.egg-info",
    "Lib/site-packages/boto/__init__.py",
    "Lib/site-packages/boto/__pycache__/__init__.cpython-36.pyc",
    "Lib/site-packages/boto/__pycache__/auth.cpython-36.pyc",
    "Lib/site-packages/boto/__pycache__/auth_handler.cpython-36.pyc",
    "Lib/site-packages/boto/__pycache__/compat.cpython-36.pyc",
    "Lib/site-packages/boto/__pycache__/connection.cpython-36.pyc",
    "Lib/site-packages/boto/__pycache__/endpoints.cpython-36.pyc",
    "Lib/site-packages/boto/__pycache__/exception.cpython-36.pyc",
    "Lib/site-packages/boto/__pycache__/handler.cpython-36.pyc",
    "Lib/site-packages/boto/__pycache__/https_connection.cpython-36.pyc",
    "Lib/site-packages/boto/__pycache__/jsonresponse.cpython-36.pyc",
    "Lib/site-packages/boto/__pycache__/plugin.cpython-36.pyc",
    "Lib/site-packages/boto/__pycache__/provider.cpython-36.pyc",
    "Lib/site-packages/boto/__pycache__/regioninfo.cpython-36.pyc",
    "Lib/site-packages/boto/__pycache__/requestlog.cpython-36.pyc",
    "Lib/site-packages/boto/__pycache__/resultset.cpython-36.pyc",
    "Lib/site-packages/boto/__pycache__/storage_uri.cpython-36.pyc",
    "Lib/site-packages/boto/__pycache__/utils.cpython-36.pyc",
    "Lib/site-packages/boto/auth.py",
    "Lib/site-packages/boto/auth_handler.py",
    "Lib/site-packages/boto/awslambda/__init__.py",
    "Lib/site-packages/boto/awslambda/__pycache__/__init__.cpython-36.pyc",
    "Lib/site-packages/boto/awslambda/__pycache__/exceptions.cpython-36.pyc",
    "Lib/site-packages/boto/awslambda/__pycache__/layer1.cpython-36.pyc",
    "Lib/site-packages/boto/awslambda/exceptions.py",
    "Lib/site-packages/boto/awslambda/layer1.py",
    "Lib/site-packages/boto/beanstalk/__init__.py",
    "Lib/site-packages/boto/beanstalk/__pycache__/__init__.cpython-36.pyc",
    "Lib/site-packages/boto/beanstalk/__pycache__/exception.cpython-36.pyc",
    "Lib/site-packages/boto/beanstalk/__pycache__/layer1.cpython-36.pyc",
    "Lib/site-packages/boto/beanstalk/__pycache__/response.cpython-36.pyc",
    "Lib/site-packages/boto/beanstalk/__pycache__/wrapper.cpython-36.pyc",
    "Lib/site-packages/boto/beanstalk/exception.py",
    "Lib/site-packages/boto/beanstalk/layer1.py",
    "Lib/site-packages/boto/beanstalk/response.py",
    "Lib/site-packages/boto/beanstalk/wrapper.py",
    "Lib/site-packages/boto/cacerts/__init__.py",
    "Lib/site-packages/boto/cacerts/__pycache__/__init__.cpython-36.pyc",
    "Lib/site-packages/boto/cacerts/cacerts.txt",
    "Lib/site-packages/boto/cloudformation/__init__.py",
    "Lib/site-packages/boto/cloudformation/__pycache__/__init__.cpython-36.pyc",
    "Lib/site-packages/boto/cloudformation/__pycache__/connection.cpython-36.pyc",
    "Lib/site-packages/boto/cloudformation/__pycache__/stack.cpython-36.pyc",
    "Lib/site-packages/boto/cloudformation/__pycache__/template.cpython-36.pyc",
    "Lib/site-packages/boto/cloudformation/connection.py",
    "Lib/site-packages/boto/cloudformation/stack.py",
    "Lib/site-packages/boto/cloudformation/template.py",
    "Lib/site-packages/boto/cloudfront/__init__.py",
    "Lib/site-packages/boto/cloudfront/__pycache__/__init__.cpython-36.pyc",
    "Lib/site-packages/boto/cloudfront/__pycache__/distribution.cpython-36.pyc",
    "Lib/site-packages/boto/cloudfront/__pycache__/exception.cpython-36.pyc",
    "Lib/site-packages/boto/cloudfront/__pycache__/identity.cpython-36.pyc",
    "Lib/site-packages/boto/cloudfront/__pycache__/invalidation.cpython-36.pyc",
    "Lib/site-packages/boto/cloudfront/__pycache__/logging.cpython-36.pyc",
    "Lib/site-packages/boto/cloudfront/__pycache__/object.cpython-36.pyc",
    "Lib/site-packages/boto/cloudfront/__pycache__/origin.cpython-36.pyc",
    "Lib/site-packages/boto/cloudfront/__pycache__/signers.cpython-36.pyc",
    "Lib/site-packages/boto/cloudfront/distribution.py",
    "Lib/site-packages/boto/cloudfront/exception.py",
    "Lib/site-packages/boto/cloudfront/identity.py",
    "Lib/site-packages/boto/cloudfront/invalidation.py",
    "Lib/site-packages/boto/cloudfront/logging.py",
    "Lib/site-packages/boto/cloudfront/object.py",
    "Lib/site-packages/boto/cloudfront/origin.py",
    "Lib/site-packages/boto/cloudfront/signers.py",
    "Lib/site-packages/boto/cloudhsm/__init__.py",
    "Lib/site-packages/boto/cloudhsm/__pycache__/__init__.cpython-36.pyc",
    "Lib/site-packages/boto/cloudhsm/__pycache__/exceptions.cpython-36.pyc",
    "Lib/site-packages/boto/cloudhsm/__pycache__/layer1.cpython-36.pyc",
    "Lib/site-packages/boto/cloudhsm/exceptions.py",
    "Lib/site-packages/boto/cloudhsm/layer1.py",
    "Lib/site-packages/boto/cloudsearch/__init__.py",
    "Lib/site-packages/boto/cloudsearch/__pycache__/__init__.cpython-36.pyc",
    "Lib/site-packages/boto/cloudsearch/__pycache__/document.cpython-36.pyc",
    "Lib/site-packages/boto/cloudsearch/__pycache__/domain.cpython-36.pyc",
    "Lib/site-packages/boto/cloudsearch/__pycache__/layer1.cpython-36.pyc",
    "Lib/site-packages/boto/cloudsearch/__pycache__/layer2.cpython-36.pyc",
    "Lib/site-packages/boto/cloudsearch/__pycache__/optionstatus.cpython-36.pyc",
    "Lib/site-packages/boto/cloudsearch/__pycache__/search.cpython-36.pyc",
    "Lib/site-packages/boto/cloudsearch/__pycache__/sourceattribute.cpython-36.pyc",
    "Lib/site-packages/boto/cloudsearch/document.py",
    "Lib/site-packages/boto/cloudsearch/domain.py",
    "Lib/site-packages/boto/cloudsearch/layer1.py",
    "Lib/site-packages/boto/cloudsearch/layer2.py",
    "Lib/site-packages/boto/cloudsearch/optionstatus.py",
    "Lib/site-packages/boto/cloudsearch/search.py",
    "Lib/site-packages/boto/cloudsearch/sourceattribute.py",
    "Lib/site-packages/boto/cloudsearch2/__init__.py",
    "Lib/site-packages/boto/cloudsearch2/__pycache__/__init__.cpython-36.pyc",
    "Lib/site-packages/boto/cloudsearch2/__pycache__/document.cpython-36.pyc",
    "Lib/site-packages/boto/cloudsearch2/__pycache__/domain.cpython-36.pyc",
    "Lib/site-packages/boto/cloudsearch2/__pycache__/exceptions.cpython-36.pyc",
    "Lib/site-packages/boto/cloudsearch2/__pycache__/layer1.cpython-36.pyc",
    "Lib/site-packages/boto/cloudsearch2/__pycache__/layer2.cpython-36.pyc",
    "Lib/site-packages/boto/cloudsearch2/__pycache__/optionstatus.cpython-36.pyc",
    "Lib/site-packages/boto/cloudsearch2/__pycache__/search.cpython-36.pyc",
    "Lib/site-packages/boto/cloudsearch2/document.py",
    "Lib/site-packages/boto/cloudsearch2/domain.py",
    "Lib/site-packages/boto/cloudsearch2/exceptions.py",
    "Lib/site-packages/boto/cloudsearch2/layer1.py",
    "Lib/site-packages/boto/cloudsearch2/layer2.py",
    "Lib/site-packages/boto/cloudsearch2/optionstatus.py",
    "Lib/site-packages/boto/cloudsearch2/search.py",
    "Lib/site-packages/boto/cloudsearchdomain/__init__.py",
    "Lib/site-packages/boto/cloudsearchdomain/__pycache__/__init__.cpython-36.pyc",
    "Lib/site-packages/boto/cloudsearchdomain/__pycache__/exceptions.cpython-36.pyc",
    "Lib/site-packages/boto/cloudsearchdomain/__pycache__/layer1.cpython-36.pyc",
    "Lib/site-packages/boto/cloudsearchdomain/exceptions.py",
    "Lib/site-packages/boto/cloudsearchdomain/layer1.py",
    "Lib/site-packages/boto/cloudtrail/__init__.py",
    "Lib/site-packages/boto/cloudtrail/__pycache__/__init__.cpython-36.pyc",
    "Lib/site-packages/boto/cloudtrail/__pycache__/exceptions.cpython-36.pyc",
    "Lib/site-packages/boto/cloudtrail/__pycache__/layer1.cpython-36.pyc",
    "Lib/site-packages/boto/cloudtrail/exceptions.py",
    "Lib/site-packages/boto/cloudtrail/layer1.py",
    "Lib/site-packages/boto/codedeploy/__init__.py",
    "Lib/site-packages/boto/codedeploy/__pycache__/__init__.cpython-36.pyc",
    "Lib/site-packages/boto/codedeploy/__pycache__/exceptions.cpython-36.pyc",
    "Lib/site-packages/boto/codedeploy/__pycache__/layer1.cpython-36.pyc",
    "Lib/site-packages/boto/codedeploy/exceptions.py",
    "Lib/site-packages/boto/codedeploy/layer1.py",
    "Lib/site-packages/boto/cognito/__init__.py",
    "Lib/site-packages/boto/cognito/__pycache__/__init__.cpython-36.pyc",
    "Lib/site-packages/boto/cognito/identity/__init__.py",
    "Lib/site-packages/boto/cognito/identity/__pycache__/__init__.cpython-36.pyc",
    "Lib/site-packages/boto/cognito/identity/__pycache__/exceptions.cpython-36.pyc",
    "Lib/site-packages/boto/cognito/identity/__pycache__/layer1.cpython-36.pyc",
    "Lib/site-packages/boto/cognito/identity/exceptions.py",
    "Lib/site-packages/boto/cognito/identity/layer1.py",
    "Lib/site-packages/boto/cognito/sync/__init__.py",
    "Lib/site-packages/boto/cognito/sync/__pycache__/__init__.cpython-36.pyc",
    "Lib/site-packages/boto/cognito/sync/__pycache__/exceptions.cpython-36.pyc",
    "Lib/site-packages/boto/cognito/sync/__pycache__/layer1.cpython-36.pyc",
    "Lib/site-packages/boto/cognito/sync/exceptions.py",
    "Lib/site-packages/boto/cognito/sync/layer1.py",
    "Lib/site-packages/boto/compat.py",
    "Lib/site-packages/boto/configservice/__init__.py",
    "Lib/site-packages/boto/configservice/__pycache__/__init__.cpython-36.pyc",
    "Lib/site-packages/boto/configservice/__pycache__/exceptions.cpython-36.pyc",
    "Lib/site-packages/boto/configservice/__pycache__/layer1.cpython-36.pyc",
    "Lib/site-packages/boto/configservice/exceptions.py",
    "Lib/site-packages/boto/configservice/layer1.py",
    "Lib/site-packages/boto/connection.py",
    "Lib/site-packages/boto/contrib/__init__.py",
    "Lib/site-packages/boto/contrib/__pycache__/__init__.cpython-36.pyc",
    "Lib/site-packages/boto/contrib/__pycache__/ymlmessage.cpython-36.pyc",
    "Lib/site-packages/boto/contrib/ymlmessage.py",
    "Lib/site-packages/boto/datapipeline/__init__.py",
    "Lib/site-packages/boto/datapipeline/__pycache__/__init__.cpython-36.pyc",
    "Lib/site-packages/boto/datapipeline/__pycache__/exceptions.cpython-36.pyc",
    "Lib/site-packages/boto/datapipeline/__pycache__/layer1.cpython-36.pyc",
    "Lib/site-packages/boto/datapipeline/exceptions.py",
    "Lib/site-packages/boto/datapipeline/layer1.py",
    "Lib/site-packages/boto/directconnect/__init__.py",
    "Lib/site-packages/boto/directconnect/__pycache__/__init__.cpython-36.pyc",
    "Lib/site-packages/boto/directconnect/__pycache__/exceptions.cpython-36.pyc",
    "Lib/site-packages/boto/directconnect/__pycache__/layer1.cpython-36.pyc",
    "Lib/site-packages/boto/directconnect/exceptions.py",
    "Lib/site-packages/boto/directconnect/layer1.py",
    "Lib/site-packages/boto/dynamodb/__init__.py",
    "Lib/site-packages/boto/dynamodb/__pycache__/__init__.cpython-36.pyc",
    "Lib/site-packages/boto/dynamodb/__pycache__/batch.cpython-36.pyc",
    "Lib/site-packages/boto/dynamodb/__pycache__/condition.cpython-36.pyc",
    "Lib/site-packages/boto/dynamodb/__pycache__/exceptions.cpython-36.pyc",
    "Lib/site-packages/boto/dynamodb/__pycache__/item.cpython-36.pyc",
    "Lib/site-packages/boto/dynamodb/__pycache__/layer1.cpython-36.pyc",
    "Lib/site-packages/boto/dynamodb/__pycache__/layer2.cpython-36.pyc",
    "Lib/site-packages/boto/dynamodb/__pycache__/schema.cpython-36.pyc",
    "Lib/site-packages/boto/dynamodb/__pycache__/table.cpython-36.pyc",
    "Lib/site-packages/boto/dynamodb/__pycache__/types.cpython-36.pyc",
    "Lib/site-packages/boto/dynamodb/batch.py",
    "Lib/site-packages/boto/dynamodb/condition.py",
    "Lib/site-packages/boto/dynamodb/exceptions.py",
    "Lib/site-packages/boto/dynamodb/item.py",
    "Lib/site-packages/boto/dynamodb/layer1.py",
    "Lib/site-packages/boto/dynamodb/layer2.py",
    "Lib/site-packages/boto/dynamodb/schema.py",
    "Lib/site-packages/boto/dynamodb/table.py",
    "Lib/site-packages/boto/dynamodb/types.py",
    "Lib/site-packages/boto/dynamodb2/__init__.py",
    "Lib/site-packages/boto/dynamodb2/__pycache__/__init__.cpython-36.pyc",
    "Lib/site-packages/boto/dynamodb2/__pycache__/exceptions.cpython-36.pyc",
    "Lib/site-packages/boto/dynamodb2/__pycache__/fields.cpython-36.pyc",
    "Lib/site-packages/boto/dynamodb2/__pycache__/items.cpython-36.pyc",
    "Lib/site-packages/boto/dynamodb2/__pycache__/layer1.cpython-36.pyc",
    "Lib/site-packages/boto/dynamodb2/__pycache__/results.cpython-36.pyc",
    "Lib/site-packages/boto/dynamodb2/__pycache__/table.cpython-36.pyc",
    "Lib/site-packages/boto/dynamodb2/__pycache__/types.cpython-36.pyc",
    "Lib/site-packages/boto/dynamodb2/exceptions.py",
    "Lib/site-packages/boto/dynamodb2/fields.py",
    "Lib/site-packages/boto/dynamodb2/items.py",
    "Lib/site-packages/boto/dynamodb2/layer1.py",
    "Lib/site-packages/boto/dynamodb2/results.py",
    "Lib/site-packages/boto/dynamodb2/table.py",
    "Lib/site-packages/boto/dynamodb2/types.py",
    "Lib/site-packages/boto/ec2/__init__.py",
    "Lib/site-packages/boto/ec2/__pycache__/__init__.cpython-36.pyc",
    "Lib/site-packages/boto/ec2/__pycache__/address.cpython-36.pyc",
    "Lib/site-packages/boto/ec2/__pycache__/attributes.cpython-36.pyc",
    "Lib/site-packages/boto/ec2/__pycache__/blockdevicemapping.cpython-36.pyc",
    "Lib/site-packages/boto/ec2/__pycache__/bundleinstance.cpython-36.pyc",
    "Lib/site-packages/boto/ec2/__pycache__/buyreservation.cpython-36.pyc",
    "Lib/site-packages/boto/ec2/__pycache__/connection.cpython-36.pyc",
    "Lib/site-packages/boto/ec2/__pycache__/ec2object.cpython-36.pyc",
    "Lib/site-packages/boto/ec2/__pycache__/group.cpython-36.pyc",
    "Lib/site-packages/boto/ec2/__pycache__/image.cpython-36.pyc",
    "Lib/site-packages/boto/ec2/__pycache__/instance.cpython-36.pyc",
    "Lib/site-packages/boto/ec2/__pycache__/instanceinfo.cpython-36.pyc",
    "Lib/site-packages/boto/ec2/__pycache__/instancestatus.cpython-36.pyc",
    "Lib/site-packages/boto/ec2/__pycache__/instancetype.cpython-36.pyc",
    "Lib/site-packages/boto/ec2/__pycache__/keypair.cpython-36.pyc",
    "Lib/site-packages/boto/ec2/__pycache__/launchspecification.cpython-36.pyc",
    "Lib/site-packages/boto/ec2/__pycache__/networkinterface.cpython-36.pyc",
    "Lib/site-packages/boto/ec2/__pycache__/placementgroup.cpython-36.pyc",
    "Lib/site-packages/boto/ec2/__pycache__/regioninfo.cpython-36.pyc",
    "Lib/site-packages/boto/ec2/__pycache__/reservedinstance.cpython-36.pyc",
    "Lib/site-packages/boto/ec2/__pycache__/securitygroup.cpython-36.pyc",
    "Lib/site-packages/boto/ec2/__pycache__/snapshot.cpython-36.pyc",
    "Lib/site-packages/boto/ec2/__pycache__/spotdatafeedsubscription.cpython-36.pyc",
    "Lib/site-packages/boto/ec2/__pycache__/spotinstancerequest.cpython-36.pyc",
    "Lib/site-packages/boto/ec2/__pycache__/spotpricehistory.cpython-36.pyc",
    "Lib/site-packages/boto/ec2/__pycache__/tag.cpython-36.pyc",
    "Lib/site-packages/boto/ec2/__pycache__/volume.cpython-36.pyc",
    "Lib/site-packages/boto/ec2/__pycache__/volumestatus.cpython-36.pyc",
    "Lib/site-packages/boto/ec2/__pycache__/zone.cpython-36.pyc",
    "Lib/site-packages/boto/ec2/address.py",
    "Lib/site-packages/boto/ec2/attributes.py",
    "Lib/site-packages/boto/ec2/autoscale/__init__.py",
    "Lib/site-packages/boto/ec2/autoscale/__pycache__/__init__.cpython-36.pyc",
    "Lib/site-packages/boto/ec2/autoscale/__pycache__/activity.cpython-36.pyc",
    "Lib/site-packages/boto/ec2/autoscale/__pycache__/group.cpython-36.pyc",
    "Lib/site-packages/boto/ec2/autoscale/__pycache__/instance.cpython-36.pyc",
    "Lib/site-packages/boto/ec2/autoscale/__pycache__/launchconfig.cpython-36.pyc",
    "Lib/site-packages/boto/ec2/autoscale/__pycache__/limits.cpython-36.pyc",
    "Lib/site-packages/boto/ec2/autoscale/__pycache__/policy.cpython-36.pyc",
    "Lib/site-packages/boto/ec2/autoscale/__pycache__/request.cpython-36.pyc",
    "Lib/site-packages/boto/ec2/autoscale/__pycache__/scheduled.cpython-36.pyc",
    "Lib/site-packages/boto/ec2/autoscale/__pycache__/tag.cpython-36.pyc",
    "Lib/site-packages/boto/ec2/autoscale/activity.py",
    "Lib/site-packages/boto/ec2/autoscale/group.py",
    "Lib/site-packages/boto/ec2/autoscale/instance.py",
    "Lib/site-packages/boto/ec2/autoscale/launchconfig.py",
    "Lib/site-packages/boto/ec2/autoscale/limits.py",
    "Lib/site-packages/boto/ec2/autoscale/policy.py",
    "Lib/site-packages/boto/ec2/autoscale/request.py",
    "Lib/site-packages/boto/ec2/autoscale/scheduled.py",
    "Lib/site-packages/boto/ec2/autoscale/tag.py",
    "Lib/site-packages/boto/ec2/blockdevicemapping.py",
    "Lib/site-packages/boto/ec2/bundleinstance.py",
    "Lib/site-packages/boto/ec2/buyreservation.py",
    "Lib/site-packages/boto/ec2/cloudwatch/__init__.py",
    "Lib/site-packages/boto/ec2/cloudwatch/__pycache__/__init__.cpython-36.pyc",
    "Lib/site-packages/boto/ec2/cloudwatch/__pycache__/alarm.cpython-36.pyc",
    "Lib/site-packages/boto/ec2/cloudwatch/__pycache__/datapoint.cpython-36.pyc",
    "Lib/site-packages/boto/ec2/cloudwatch/__pycache__/dimension.cpython-36.pyc",
    "Lib/site-packages/boto/ec2/cloudwatch/__pycache__/listelement.cpython-36.pyc",
    "Lib/site-packages/boto/ec2/cloudwatch/__pycache__/metric.cpython-36.pyc",
    "Lib/site-packages/boto/ec2/cloudwatch/alarm.py",
    "Lib/site-packages/boto/ec2/cloudwatch/datapoint.py",
    "Lib/site-packages/boto/ec2/cloudwatch/dimension.py",
    "Lib/site-packages/boto/ec2/cloudwatch/listelement.py",
    "Lib/site-packages/boto/ec2/cloudwatch/metric.py",
    "Lib/site-packages/boto/ec2/connection.py",
    "Lib/site-packages/boto/ec2/ec2object.py",
    "Lib/site-packages/boto/ec2/elb/__init__.py",
    "Lib/site-packages/boto/ec2/elb/__pycache__/__init__.cpython-36.pyc",
    "Lib/site-packages/boto/ec2/elb/__pycache__/attributes.cpython-36.pyc",
    "Lib/site-packages/boto/ec2/elb/__pycache__/healthcheck.cpython-36.pyc",
    "Lib/site-packages/boto/ec2/elb/__pycache__/instancestate.cpython-36.pyc",
    "Lib/site-packages/boto/ec2/elb/__pycache__/listelement.cpython-36.pyc",
    "Lib/site-packages/boto/ec2/elb/__pycache__/listener.cpython-36.pyc",
    "Lib/site-packages/boto/ec2/elb/__pycache__/loadbalancer.cpython-36.pyc",
    "Lib/site-packages/boto/ec2/elb/__pycache__/policies.cpython-36.pyc",
    "Lib/site-packages/boto/ec2/elb/__pycache__/securitygroup.cpython-36.pyc",
    "Lib/site-packages/boto/ec2/elb/attributes.py",
    "Lib/site-packages/boto/ec2/elb/healthcheck.py",
    "Lib/site-packages/boto/ec2/elb/instancestate.py",
    "Lib/site-packages/boto/ec2/elb/listelement.py",
    "Lib/site-packages/boto/ec2/elb/listener.py",
    "Lib/site-packages/boto/ec2/elb/loadbalancer.py",
    "Lib/site-packages/boto/ec2/elb/policies.py",
    "Lib/site-packages/boto/ec2/elb/securitygroup.py",
    "Lib/site-packages/boto/ec2/group.py",
    "Lib/site-packages/boto/ec2/image.py",
    "Lib/site-packages/boto/ec2/instance.py",
    "Lib/site-packages/boto/ec2/instanceinfo.py",
    "Lib/site-packages/boto/ec2/instancestatus.py",
    "Lib/site-packages/boto/ec2/instancetype.py",
    "Lib/site-packages/boto/ec2/keypair.py",
    "Lib/site-packages/boto/ec2/launchspecification.py",
    "Lib/site-packages/boto/ec2/networkinterface.py",
    "Lib/site-packages/boto/ec2/placementgroup.py",
    "Lib/site-packages/boto/ec2/regioninfo.py",
    "Lib/site-packages/boto/ec2/reservedinstance.py",
    "Lib/site-packages/boto/ec2/securitygroup.py",
    "Lib/site-packages/boto/ec2/snapshot.py",
    "Lib/site-packages/boto/ec2/spotdatafeedsubscription.py",
    "Lib/site-packages/boto/ec2/spotinstancerequest.py",
    "Lib/site-packages/boto/ec2/spotpricehistory.py",
    "Lib/site-packages/boto/ec2/tag.py",
    "Lib/site-packages/boto/ec2/volume.py",
    "Lib/site-packages/boto/ec2/volumestatus.py",
    "Lib/site-packages/boto/ec2/zone.py",
    "Lib/site-packages/boto/ec2containerservice/__init__.py",
    "Lib/site-packages/boto/ec2containerservice/__pycache__/__init__.cpython-36.pyc",
    "Lib/site-packages/boto/ec2containerservice/__pycache__/exceptions.cpython-36.pyc",
    "Lib/site-packages/boto/ec2containerservice/__pycache__/layer1.cpython-36.pyc",
    "Lib/site-packages/boto/ec2containerservice/exceptions.py",
    "Lib/site-packages/boto/ec2containerservice/layer1.py",
    "Lib/site-packages/boto/ecs/__init__.py",
    "Lib/site-packages/boto/ecs/__pycache__/__init__.cpython-36.pyc",
    "Lib/site-packages/boto/ecs/__pycache__/item.cpython-36.pyc",
    "Lib/site-packages/boto/ecs/item.py",
    "Lib/site-packages/boto/elasticache/__init__.py",
    "Lib/site-packages/boto/elasticache/__pycache__/__init__.cpython-36.pyc",
    "Lib/site-packages/boto/elasticache/__pycache__/layer1.cpython-36.pyc",
    "Lib/site-packages/boto/elasticache/layer1.py",
    "Lib/site-packages/boto/elastictranscoder/__init__.py",
    "Lib/site-packages/boto/elastictranscoder/__pycache__/__init__.cpython-36.pyc",
    "Lib/site-packages/boto/elastictranscoder/__pycache__/exceptions.cpython-36.pyc",
    "Lib/site-packages/boto/elastictranscoder/__pycache__/layer1.cpython-36.pyc",
    "Lib/site-packages/boto/elastictranscoder/exceptions.py",
    "Lib/site-packages/boto/elastictranscoder/layer1.py",
    "Lib/site-packages/boto/emr/__init__.py",
    "Lib/site-packages/boto/emr/__pycache__/__init__.cpython-36.pyc",
    "Lib/site-packages/boto/emr/__pycache__/bootstrap_action.cpython-36.pyc",
    "Lib/site-packages/boto/emr/__pycache__/connection.cpython-36.pyc",
    "Lib/site-packages/boto/emr/__pycache__/emrobject.cpython-36.pyc",
    "Lib/site-packages/boto/emr/__pycache__/instance_group.cpython-36.pyc",
    "Lib/site-packages/boto/emr/__pycache__/step.cpython-36.pyc",
    "Lib/site-packages/boto/emr/bootstrap_action.py",
    "Lib/site-packages/boto/emr/connection.py",
    "Lib/site-packages/boto/emr/emrobject.py",
    "Lib/site-packages/boto/emr/instance_group.py",
    "Lib/site-packages/boto/emr/step.py",
    "Lib/site-packages/boto/endpoints.json",
    "Lib/site-packages/boto/endpoints.py",
    "Lib/site-packages/boto/exception.py",
    "Lib/site-packages/boto/file/__init__.py",
    "Lib/site-packages/boto/file/__pycache__/__init__.cpython-36.pyc",
    "Lib/site-packages/boto/file/__pycache__/bucket.cpython-36.pyc",
    "Lib/site-packages/boto/file/__pycache__/connection.cpython-36.pyc",
    "Lib/site-packages/boto/file/__pycache__/key.cpython-36.pyc",
    "Lib/site-packages/boto/file/__pycache__/simpleresultset.cpython-36.pyc",
    "Lib/site-packages/boto/file/bucket.py",
    "Lib/site-packages/boto/file/connection.py",
    "Lib/site-packages/boto/file/key.py",
    "Lib/site-packages/boto/file/simpleresultset.py",
    "Lib/site-packages/boto/fps/__init__.py",
    "Lib/site-packages/boto/fps/__pycache__/__init__.cpython-36.pyc",
    "Lib/site-packages/boto/fps/__pycache__/connection.cpython-36.pyc",
    "Lib/site-packages/boto/fps/__pycache__/exception.cpython-36.pyc",
    "Lib/site-packages/boto/fps/__pycache__/response.cpython-36.pyc",
    "Lib/site-packages/boto/fps/connection.py",
    "Lib/site-packages/boto/fps/exception.py",
    "Lib/site-packages/boto/fps/response.py",
    "Lib/site-packages/boto/glacier/__init__.py",
    "Lib/site-packages/boto/glacier/__pycache__/__init__.cpython-36.pyc",
    "Lib/site-packages/boto/glacier/__pycache__/concurrent.cpython-36.pyc",
    "Lib/site-packages/boto/glacier/__pycache__/exceptions.cpython-36.pyc",
    "Lib/site-packages/boto/glacier/__pycache__/job.cpython-36.pyc",
    "Lib/site-packages/boto/glacier/__pycache__/layer1.cpython-36.pyc",
    "Lib/site-packages/boto/glacier/__pycache__/layer2.cpython-36.pyc",
    "Lib/site-packages/boto/glacier/__pycache__/response.cpython-36.pyc",
    "Lib/site-packages/boto/glacier/__pycache__/utils.cpython-36.pyc",
    "Lib/site-packages/boto/glacier/__pycache__/vault.cpython-36.pyc",
    "Lib/site-packages/boto/glacier/__pycache__/writer.cpython-36.pyc",
    "Lib/site-packages/boto/glacier/concurrent.py",
    "Lib/site-packages/boto/glacier/exceptions.py",
    "Lib/site-packages/boto/glacier/job.py",
    "Lib/site-packages/boto/glacier/layer1.py",
    "Lib/site-packages/boto/glacier/layer2.py",
    "Lib/site-packages/boto/glacier/response.py",
    "Lib/site-packages/boto/glacier/utils.py",
    "Lib/site-packages/boto/glacier/vault.py",
    "Lib/site-packages/boto/glacier/writer.py",
    "Lib/site-packages/boto/gs/__init__.py",
    "Lib/site-packages/boto/gs/__pycache__/__init__.cpython-36.pyc",
    "Lib/site-packages/boto/gs/__pycache__/acl.cpython-36.pyc",
    "Lib/site-packages/boto/gs/__pycache__/bucket.cpython-36.pyc",
    "Lib/site-packages/boto/gs/__pycache__/bucketlistresultset.cpython-36.pyc",
    "Lib/site-packages/boto/gs/__pycache__/connection.cpython-36.pyc",
    "Lib/site-packages/boto/gs/__pycache__/cors.cpython-36.pyc",
    "Lib/site-packages/boto/gs/__pycache__/key.cpython-36.pyc",
    "Lib/site-packages/boto/gs/__pycache__/lifecycle.cpython-36.pyc",
    "Lib/site-packages/boto/gs/__pycache__/resumable_upload_handler.cpython-36.pyc",
    "Lib/site-packages/boto/gs/__pycache__/user.cpython-36.pyc",
    "Lib/site-packages/boto/gs/acl.py",
    "Lib/site-packages/boto/gs/bucket.py",
    "Lib/site-packages/boto/gs/bucketlistresultset.py",
    "Lib/site-packages/boto/gs/connection.py",
    "Lib/site-packages/boto/gs/cors.py",
    "Lib/site-packages/boto/gs/key.py",
    "Lib/site-packages/boto/gs/lifecycle.py",
    "Lib/site-packages/boto/gs/resumable_upload_handler.py",
    "Lib/site-packages/boto/gs/user.py",
    "Lib/site-packages/boto/handler.py",
    "Lib/site-packages/boto/https_connection.py",
    "Lib/site-packages/boto/iam/__init__.py",
    "Lib/site-packages/boto/iam/__pycache__/__init__.cpython-36.pyc",
    "Lib/site-packages/boto/iam/__pycache__/connection.cpython-36.pyc",
    "Lib/site-packages/boto/iam/__pycache__/summarymap.cpython-36.pyc",
    "Lib/site-packages/boto/iam/connection.py",
    "Lib/site-packages/boto/iam/summarymap.py",
    "Lib/site-packages/boto/jsonresponse.py",
    "Lib/site-packages/boto/kinesis/__init__.py",
    "Lib/site-packages/boto/kinesis/__pycache__/__init__.cpython-36.pyc",
    "Lib/site-packages/boto/kinesis/__pycache__/exceptions.cpython-36.pyc",
    "Lib/site-packages/boto/kinesis/__pycache__/layer1.cpython-36.pyc",
    "Lib/site-packages/boto/kinesis/exceptions.py",
    "Lib/site-packages/boto/kinesis/layer1.py",
    "Lib/site-packages/boto/kms/__init__.py",
    "Lib/site-packages/boto/kms/__pycache__/__init__.cpython-36.pyc",
    "Lib/site-packages/boto/kms/__pycache__/exceptions.cpython-36.pyc",
    "Lib/site-packages/boto/kms/__pycache__/layer1.cpython-36.pyc",
    "Lib/site-packages/boto/kms/exceptions.py",
    "Lib/site-packages/boto/kms/layer1.py",
    "Lib/site-packages/boto/logs/__init__.py",
    "Lib/site-packages/boto/logs/__pycache__/__init__.cpython-36.pyc",
    "Lib/site-packages/boto/logs/__pycache__/exceptions.cpython-36.pyc",
    "Lib/site-packages/boto/logs/__pycache__/layer1.cpython-36.pyc",
    "Lib/site-packages/boto/logs/exceptions.py",
    "Lib/site-packages/boto/logs/layer1.py",
    "Lib/site-packages/boto/machinelearning/__init__.py",
    "Lib/site-packages/boto/machinelearning/__pycache__/__init__.cpython-36.pyc",
    "Lib/site-packages/boto/machinelearning/__pycache__/exceptions.cpython-36.pyc",
    "Lib/site-packages/boto/machinelearning/__pycache__/layer1.cpython-36.pyc",
    "Lib/site-packages/boto/machinelearning/exceptions.py",
    "Lib/site-packages/boto/machinelearning/layer1.py",
    "Lib/site-packages/boto/manage/__init__.py",
    "Lib/site-packages/boto/manage/__pycache__/__init__.cpython-36.pyc",
    "Lib/site-packages/boto/manage/__pycache__/cmdshell.cpython-36.pyc",
    "Lib/site-packages/boto/manage/__pycache__/propget.cpython-36.pyc",
    "Lib/site-packages/boto/manage/__pycache__/server.cpython-36.pyc",
    "Lib/site-packages/boto/manage/__pycache__/task.cpython-36.pyc",
    "Lib/site-packages/boto/manage/__pycache__/test_manage.cpython-36.pyc",
    "Lib/site-packages/boto/manage/__pycache__/volume.cpython-36.pyc",
    "Lib/site-packages/boto/manage/cmdshell.py",
    "Lib/site-packages/boto/manage/propget.py",
    "Lib/site-packages/boto/manage/server.py",
    "Lib/site-packages/boto/manage/task.py",
    "Lib/site-packages/boto/manage/test_manage.py",
    "Lib/site-packages/boto/manage/volume.py",
    "Lib/site-packages/boto/mashups/__init__.py",
    "Lib/site-packages/boto/mashups/__pycache__/__init__.cpython-36.pyc",
    "Lib/site-packages/boto/mashups/__pycache__/interactive.cpython-36.pyc",
    "Lib/site-packages/boto/mashups/__pycache__/iobject.cpython-36.pyc",
    "Lib/site-packages/boto/mashups/__pycache__/order.cpython-36.pyc",
    "Lib/site-packages/boto/mashups/__pycache__/server.cpython-36.pyc",
    "Lib/site-packages/boto/mashups/interactive.py",
    "Lib/site-packages/boto/mashups/iobject.py",
    "Lib/site-packages/boto/mashups/order.py",
    "Lib/site-packages/boto/mashups/server.py",
    "Lib/site-packages/boto/mturk/__init__.py",
    "Lib/site-packages/boto/mturk/__pycache__/__init__.cpython-36.pyc",
    "Lib/site-packages/boto/mturk/__pycache__/connection.cpython-36.pyc",
    "Lib/site-packages/boto/mturk/__pycache__/layoutparam.cpython-36.pyc",
    "Lib/site-packages/boto/mturk/__pycache__/notification.cpython-36.pyc",
    "Lib/site-packages/boto/mturk/__pycache__/price.cpython-36.pyc",
    "Lib/site-packages/boto/mturk/__pycache__/qualification.cpython-36.pyc",
    "Lib/site-packages/boto/mturk/__pycache__/question.cpython-36.pyc",
    "Lib/site-packages/boto/mturk/connection.py",
    "Lib/site-packages/boto/mturk/layoutparam.py",
    "Lib/site-packages/boto/mturk/notification.py",
    "Lib/site-packages/boto/mturk/price.py",
    "Lib/site-packages/boto/mturk/qualification.py",
    "Lib/site-packages/boto/mturk/question.py",
    "Lib/site-packages/boto/mws/__init__.py",
    "Lib/site-packages/boto/mws/__pycache__/__init__.cpython-36.pyc",
    "Lib/site-packages/boto/mws/__pycache__/connection.cpython-36.pyc",
    "Lib/site-packages/boto/mws/__pycache__/exception.cpython-36.pyc",
    "Lib/site-packages/boto/mws/__pycache__/response.cpython-36.pyc",
    "Lib/site-packages/boto/mws/connection.py",
    "Lib/site-packages/boto/mws/exception.py",
    "Lib/site-packages/boto/mws/response.py",
    "Lib/site-packages/boto/opsworks/__init__.py",
    "Lib/site-packages/boto/opsworks/__pycache__/__init__.cpython-36.pyc",
    "Lib/site-packages/boto/opsworks/__pycache__/exceptions.cpython-36.pyc",
    "Lib/site-packages/boto/opsworks/__pycache__/layer1.cpython-36.pyc",
    "Lib/site-packages/boto/opsworks/exceptions.py",
    "Lib/site-packages/boto/opsworks/layer1.py",
    "Lib/site-packages/boto/plugin.py",
    "Lib/site-packages/boto/provider.py",
    "Lib/site-packages/boto/pyami/__init__.py",
    "Lib/site-packages/boto/pyami/__pycache__/__init__.cpython-36.pyc",
    "Lib/site-packages/boto/pyami/__pycache__/bootstrap.cpython-36.pyc",
    "Lib/site-packages/boto/pyami/__pycache__/config.cpython-36.pyc",
    "Lib/site-packages/boto/pyami/__pycache__/copybot.cpython-36.pyc",
    "Lib/site-packages/boto/pyami/__pycache__/helloworld.cpython-36.pyc",
    "Lib/site-packages/boto/pyami/__pycache__/launch_ami.cpython-36.pyc",
    "Lib/site-packages/boto/pyami/__pycache__/scriptbase.cpython-36.pyc",
    "Lib/site-packages/boto/pyami/__pycache__/startup.cpython-36.pyc",
    "Lib/site-packages/boto/pyami/bootstrap.py",
    "Lib/site-packages/boto/pyami/config.py",
    "Lib/site-packages/boto/pyami/copybot.py",
    "Lib/site-packages/boto/pyami/helloworld.py",
    "Lib/site-packages/boto/pyami/installers/__init__.py",
    "Lib/site-packages/boto/pyami/installers/__pycache__/__init__.cpython-36.pyc",
    "Lib/site-packages/boto/pyami/installers/ubuntu/__init__.py",
    "Lib/site-packages/boto/pyami/installers/ubuntu/__pycache__/__init__.cpython-36.pyc",
    "Lib/site-packages/boto/pyami/installers/ubuntu/__pycache__/apache.cpython-36.pyc",
    "Lib/site-packages/boto/pyami/installers/ubuntu/__pycache__/ebs.cpython-36.pyc",
    "Lib/site-packages/boto/pyami/installers/ubuntu/__pycache__/installer.cpython-36.pyc",
    "Lib/site-packages/boto/pyami/installers/ubuntu/__pycache__/mysql.cpython-36.pyc",
    "Lib/site-packages/boto/pyami/installers/ubuntu/__pycache__/trac.cpython-36.pyc",
    "Lib/site-packages/boto/pyami/installers/ubuntu/apache.py",
    "Lib/site-packages/boto/pyami/installers/ubuntu/ebs.py",
    "Lib/site-packages/boto/pyami/installers/ubuntu/installer.py",
    "Lib/site-packages/boto/pyami/installers/ubuntu/mysql.py",
    "Lib/site-packages/boto/pyami/installers/ubuntu/trac.py",
    "Lib/site-packages/boto/pyami/launch_ami.py",
    "Lib/site-packages/boto/pyami/scriptbase.py",
    "Lib/site-packages/boto/pyami/startup.py",
    "Lib/site-packages/boto/rds/__init__.py",
    "Lib/site-packages/boto/rds/__pycache__/__init__.cpython-36.pyc",
    "Lib/site-packages/boto/rds/__pycache__/dbinstance.cpython-36.pyc",
    "Lib/site-packages/boto/rds/__pycache__/dbsecuritygroup.cpython-36.pyc",
    "Lib/site-packages/boto/rds/__pycache__/dbsnapshot.cpython-36.pyc",
    "Lib/site-packages/boto/rds/__pycache__/dbsubnetgroup.cpython-36.pyc",
    "Lib/site-packages/boto/rds/__pycache__/event.cpython-36.pyc",
    "Lib/site-packages/boto/rds/__pycache__/logfile.cpython-36.pyc",
    "Lib/site-packages/boto/rds/__pycache__/optiongroup.cpython-36.pyc",
    "Lib/site-packages/boto/rds/__pycache__/parametergroup.cpython-36.pyc",
    "Lib/site-packages/boto/rds/__pycache__/regioninfo.cpython-36.pyc",
    "Lib/site-packages/boto/rds/__pycache__/statusinfo.cpython-36.pyc",
    "Lib/site-packages/boto/rds/__pycache__/vpcsecuritygroupmembership.cpython-36.pyc",
    "Lib/site-packages/boto/rds/dbinstance.py",
    "Lib/site-packages/boto/rds/dbsecuritygroup.py",
    "Lib/site-packages/boto/rds/dbsnapshot.py",
    "Lib/site-packages/boto/rds/dbsubnetgroup.py",
    "Lib/site-packages/boto/rds/event.py",
    "Lib/site-packages/boto/rds/logfile.py",
    "Lib/site-packages/boto/rds/optiongroup.py",
    "Lib/site-packages/boto/rds/parametergroup.py",
    "Lib/site-packages/boto/rds/regioninfo.py",
    "Lib/site-packages/boto/rds/statusinfo.py",
    "Lib/site-packages/boto/rds/vpcsecuritygroupmembership.py",
    "Lib/site-packages/boto/rds2/__init__.py",
    "Lib/site-packages/boto/rds2/__pycache__/__init__.cpython-36.pyc",
    "Lib/site-packages/boto/rds2/__pycache__/exceptions.cpython-36.pyc",
    "Lib/site-packages/boto/rds2/__pycache__/layer1.cpython-36.pyc",
    "Lib/site-packages/boto/rds2/exceptions.py",
    "Lib/site-packages/boto/rds2/layer1.py",
    "Lib/site-packages/boto/redshift/__init__.py",
    "Lib/site-packages/boto/redshift/__pycache__/__init__.cpython-36.pyc",
    "Lib/site-packages/boto/redshift/__pycache__/exceptions.cpython-36.pyc",
    "Lib/site-packages/boto/redshift/__pycache__/layer1.cpython-36.pyc",
    "Lib/site-packages/boto/redshift/exceptions.py",
    "Lib/site-packages/boto/redshift/layer1.py",
    "Lib/site-packages/boto/regioninfo.py",
    "Lib/site-packages/boto/requestlog.py",
    "Lib/site-packages/boto/resultset.py",
    "Lib/site-packages/boto/roboto/__init__.py",
    "Lib/site-packages/boto/roboto/__pycache__/__init__.cpython-36.pyc",
    "Lib/site-packages/boto/roboto/__pycache__/awsqueryrequest.cpython-36.pyc",
    "Lib/site-packages/boto/roboto/__pycache__/awsqueryservice.cpython-36.pyc",
    "Lib/site-packages/boto/roboto/__pycache__/param.cpython-36.pyc",
    "Lib/site-packages/boto/roboto/awsqueryrequest.py",
    "Lib/site-packages/boto/roboto/awsqueryservice.py",
    "Lib/site-packages/boto/roboto/param.py",
    "Lib/site-packages/boto/route53/__init__.py",
    "Lib/site-packages/boto/route53/__pycache__/__init__.cpython-36.pyc",
    "Lib/site-packages/boto/route53/__pycache__/connection.cpython-36.pyc",
    "Lib/site-packages/boto/route53/__pycache__/exception.cpython-36.pyc",
    "Lib/site-packages/boto/route53/__pycache__/healthcheck.cpython-36.pyc",
    "Lib/site-packages/boto/route53/__pycache__/hostedzone.cpython-36.pyc",
    "Lib/site-packages/boto/route53/__pycache__/record.cpython-36.pyc",
    "Lib/site-packages/boto/route53/__pycache__/status.cpython-36.pyc",
    "Lib/site-packages/boto/route53/__pycache__/zone.cpython-36.pyc",
    "Lib/site-packages/boto/route53/connection.py",
    "Lib/site-packages/boto/route53/domains/__init__.py",
    "Lib/site-packages/boto/route53/domains/__pycache__/__init__.cpython-36.pyc",
    "Lib/site-packages/boto/route53/domains/__pycache__/exceptions.cpython-36.pyc",
    "Lib/site-packages/boto/route53/domains/__pycache__/layer1.cpython-36.pyc",
    "Lib/site-packages/boto/route53/domains/exceptions.py",
    "Lib/site-packages/boto/route53/domains/layer1.py",
    "Lib/site-packages/boto/route53/exception.py",
    "Lib/site-packages/boto/route53/healthcheck.py",
    "Lib/site-packages/boto/route53/hostedzone.py",
    "Lib/site-packages/boto/route53/record.py",
    "Lib/site-packages/boto/route53/status.py",
    "Lib/site-packages/boto/route53/zone.py",
    "Lib/site-packages/boto/s3/__init__.py",
    "Lib/site-packages/boto/s3/__pycache__/__init__.cpython-36.pyc",
    "Lib/site-packages/boto/s3/__pycache__/acl.cpython-36.pyc",
    "Lib/site-packages/boto/s3/__pycache__/bucket.cpython-36.pyc",
    "Lib/site-packages/boto/s3/__pycache__/bucketlistresultset.cpython-36.pyc",
    "Lib/site-packages/boto/s3/__pycache__/bucketlogging.cpython-36.pyc",
    "Lib/site-packages/boto/s3/__pycache__/connection.cpython-36.pyc",
    "Lib/site-packages/boto/s3/__pycache__/cors.cpython-36.pyc",
    "Lib/site-packages/boto/s3/__pycache__/deletemarker.cpython-36.pyc",
    "Lib/site-packages/boto/s3/__pycache__/key.cpython-36.pyc",
    "Lib/site-packages/boto/s3/__pycache__/keyfile.cpython-36.pyc",
    "Lib/site-packages/boto/s3/__pycache__/lifecycle.cpython-36.pyc",
    "Lib/site-packages/boto/s3/__pycache__/multidelete.cpython-36.pyc",
    "Lib/site-packages/boto/s3/__pycache__/multipart.cpython-36.pyc",
    "Lib/site-packages/boto/s3/__pycache__/prefix.cpython-36.pyc",
    "Lib/site-packages/boto/s3/__pycache__/resumable_download_handler.cpython-36.pyc",
    "Lib/site-packages/boto/s3/__pycache__/tagging.cpython-36.pyc",
    "Lib/site-packages/boto/s3/__pycache__/user.cpython-36.pyc",
    "Lib/site-packages/boto/s3/__pycache__/website.cpython-36.pyc",
    "Lib/site-packages/boto/s3/acl.py",
    "Lib/site-packages/boto/s3/bucket.py",
    "Lib/site-packages/boto/s3/bucketlistresultset.py",
    "Lib/site-packages/boto/s3/bucketlogging.py",
    "Lib/site-packages/boto/s3/connection.py",
    "Lib/site-packages/boto/s3/cors.py",
    "Lib/site-packages/boto/s3/deletemarker.py",
    "Lib/site-packages/boto/s3/key.py",
    "Lib/site-packages/boto/s3/keyfile.py",
    "Lib/site-packages/boto/s3/lifecycle.py",
    "Lib/site-packages/boto/s3/multidelete.py",
    "Lib/site-packages/boto/s3/multipart.py",
    "Lib/site-packages/boto/s3/prefix.py",
    "Lib/site-packages/boto/s3/resumable_download_handler.py",
    "Lib/site-packages/boto/s3/tagging.py",
    "Lib/site-packages/boto/s3/user.py",
    "Lib/site-packages/boto/s3/website.py",
    "Lib/site-packages/boto/sdb/__init__.py",
    "Lib/site-packages/boto/sdb/__pycache__/__init__.cpython-36.pyc",
    "Lib/site-packages/boto/sdb/__pycache__/connection.cpython-36.pyc",
    "Lib/site-packages/boto/sdb/__pycache__/domain.cpython-36.pyc",
    "Lib/site-packages/boto/sdb/__pycache__/item.cpython-36.pyc",
    "Lib/site-packages/boto/sdb/__pycache__/queryresultset.cpython-36.pyc",
    "Lib/site-packages/boto/sdb/__pycache__/regioninfo.cpython-36.pyc",
    "Lib/site-packages/boto/sdb/connection.py",
    "Lib/site-packages/boto/sdb/db/__init__.py",
    "Lib/site-packages/boto/sdb/db/__pycache__/__init__.cpython-36.pyc",
    "Lib/site-packages/boto/sdb/db/__pycache__/blob.cpython-36.pyc",
    "Lib/site-packages/boto/sdb/db/__pycache__/key.cpython-36.pyc",
    "Lib/site-packages/boto/sdb/db/__pycache__/model.cpython-36.pyc",
    "Lib/site-packages/boto/sdb/db/__pycache__/property.cpython-36.pyc",
    "Lib/site-packages/boto/sdb/db/__pycache__/query.cpython-36.pyc",
    "Lib/site-packages/boto/sdb/db/__pycache__/sequence.cpython-36.pyc",
    "Lib/site-packages/boto/sdb/db/__pycache__/test_db.cpython-36.pyc",
    "Lib/site-packages/boto/sdb/db/blob.py",
    "Lib/site-packages/boto/sdb/db/key.py",
    "Lib/site-packages/boto/sdb/db/manager/__init__.py",
    "Lib/site-packages/boto/sdb/db/manager/__pycache__/__init__.cpython-36.pyc",
    "Lib/site-packages/boto/sdb/db/manager/__pycache__/sdbmanager.cpython-36.pyc",
    "Lib/site-packages/boto/sdb/db/manager/__pycache__/xmlmanager.cpython-36.pyc",
    "Lib/site-packages/boto/sdb/db/manager/sdbmanager.py",
    "Lib/site-packages/boto/sdb/db/manager/xmlmanager.py",
    "Lib/site-packages/boto/sdb/db/model.py",
    "Lib/site-packages/boto/sdb/db/property.py",
    "Lib/site-packages/boto/sdb/db/query.py",
    "Lib/site-packages/boto/sdb/db/sequence.py",
    "Lib/site-packages/boto/sdb/db/test_db.py",
    "Lib/site-packages/boto/sdb/domain.py",
    "Lib/site-packages/boto/sdb/item.py",
    "Lib/site-packages/boto/sdb/queryresultset.py",
    "Lib/site-packages/boto/sdb/regioninfo.py",
    "Lib/site-packages/boto/services/__init__.py",
    "Lib/site-packages/boto/services/__pycache__/__init__.cpython-36.pyc",
    "Lib/site-packages/boto/services/__pycache__/bs.cpython-36.pyc",
    "Lib/site-packages/boto/services/__pycache__/message.cpython-36.pyc",
    "Lib/site-packages/boto/services/__pycache__/result.cpython-36.pyc",
    "Lib/site-packages/boto/services/__pycache__/service.cpython-36.pyc",
    "Lib/site-packages/boto/services/__pycache__/servicedef.cpython-36.pyc",
    "Lib/site-packages/boto/services/__pycache__/sonofmmm.cpython-36.pyc",
    "Lib/site-packages/boto/services/__pycache__/submit.cpython-36.pyc",
    "Lib/site-packages/boto/services/bs.py",
    "Lib/site-packages/boto/services/message.py",
    "Lib/site-packages/boto/services/result.py",
    "Lib/site-packages/boto/services/service.py",
    "Lib/site-packages/boto/services/servicedef.py",
    "Lib/site-packages/boto/services/sonofmmm.py",
    "Lib/site-packages/boto/services/submit.py",
    "Lib/site-packages/boto/ses/__init__.py",
    "Lib/site-packages/boto/ses/__pycache__/__init__.cpython-36.pyc",
    "Lib/site-packages/boto/ses/__pycache__/connection.cpython-36.pyc",
    "Lib/site-packages/boto/ses/__pycache__/exceptions.cpython-36.pyc",
    "Lib/site-packages/boto/ses/connection.py",
    "Lib/site-packages/boto/ses/exceptions.py",
    "Lib/site-packages/boto/sns/__init__.py",
    "Lib/site-packages/boto/sns/__pycache__/__init__.cpython-36.pyc",
    "Lib/site-packages/boto/sns/__pycache__/connection.cpython-36.pyc",
    "Lib/site-packages/boto/sns/connection.py",
    "Lib/site-packages/boto/sqs/__init__.py",
    "Lib/site-packages/boto/sqs/__pycache__/__init__.cpython-36.pyc",
    "Lib/site-packages/boto/sqs/__pycache__/attributes.cpython-36.pyc",
    "Lib/site-packages/boto/sqs/__pycache__/batchresults.cpython-36.pyc",
    "Lib/site-packages/boto/sqs/__pycache__/bigmessage.cpython-36.pyc",
    "Lib/site-packages/boto/sqs/__pycache__/connection.cpython-36.pyc",
    "Lib/site-packages/boto/sqs/__pycache__/jsonmessage.cpython-36.pyc",
    "Lib/site-packages/boto/sqs/__pycache__/message.cpython-36.pyc",
    "Lib/site-packages/boto/sqs/__pycache__/messageattributes.cpython-36.pyc",
    "Lib/site-packages/boto/sqs/__pycache__/queue.cpython-36.pyc",
    "Lib/site-packages/boto/sqs/__pycache__/regioninfo.cpython-36.pyc",
    "Lib/site-packages/boto/sqs/attributes.py",
    "Lib/site-packages/boto/sqs/batchresults.py",
    "Lib/site-packages/boto/sqs/bigmessage.py",
    "Lib/site-packages/boto/sqs/connection.py",
    "Lib/site-packages/boto/sqs/jsonmessage.py",
    "Lib/site-packages/boto/sqs/message.py",
    "Lib/site-packages/boto/sqs/messageattributes.py",
    "Lib/site-packages/boto/sqs/queue.py",
    "Lib/site-packages/boto/sqs/regioninfo.py",
    "Lib/site-packages/boto/storage_uri.py",
    "Lib/site-packages/boto/sts/__init__.py",
    "Lib/site-packages/boto/sts/__pycache__/__init__.cpython-36.pyc",
    "Lib/site-packages/boto/sts/__pycache__/connection.cpython-36.pyc",
    "Lib/site-packages/boto/sts/__pycache__/credentials.cpython-36.pyc",
    "Lib/site-packages/boto/sts/connection.py",
    "Lib/site-packages/boto/sts/credentials.py",
    "Lib/site-packages/boto/support/__init__.py",
    "Lib/site-packages/boto/support/__pycache__/__init__.cpython-36.pyc",
    "Lib/site-packages/boto/support/__pycache__/exceptions.cpython-36.pyc",
    "Lib/site-packages/boto/support/__pycache__/layer1.cpython-36.pyc",
    "Lib/site-packages/boto/support/exceptions.py",
    "Lib/site-packages/boto/support/layer1.py",
    "Lib/site-packages/boto/swf/__init__.py",
    "Lib/site-packages/boto/swf/__pycache__/__init__.cpython-36.pyc",
    "Lib/site-packages/boto/swf/__pycache__/exceptions.cpython-36.pyc",
    "Lib/site-packages/boto/swf/__pycache__/layer1.cpython-36.pyc",
    "Lib/site-packages/boto/swf/__pycache__/layer1_decisions.cpython-36.pyc",
    "Lib/site-packages/boto/swf/__pycache__/layer2.cpython-36.pyc",
    "Lib/site-packages/boto/swf/exceptions.py",
    "Lib/site-packages/boto/swf/layer1.py",
    "Lib/site-packages/boto/swf/layer1_decisions.py",
    "Lib/site-packages/boto/swf/layer2.py",
    "Lib/site-packages/boto/utils.py",
    "Lib/site-packages/boto/vendored/__init__.py",
    "Lib/site-packages/boto/vendored/__pycache__/__init__.cpython-36.pyc",
    "Lib/site-packages/boto/vendored/__pycache__/six.cpython-36.pyc",
    "Lib/site-packages/boto/vendored/regions/__init__.py",
    "Lib/site-packages/boto/vendored/regions/__pycache__/__init__.cpython-36.pyc",
    "Lib/site-packages/boto/vendored/regions/__pycache__/exceptions.cpython-36.pyc",
    "Lib/site-packages/boto/vendored/regions/__pycache__/regions.cpython-36.pyc",
    "Lib/site-packages/boto/vendored/regions/exceptions.py",
    "Lib/site-packages/boto/vendored/regions/regions.py",
    "Lib/site-packages/boto/vendored/six.py",
    "Lib/site-packages/boto/vpc/__init__.py",
    "Lib/site-packages/boto/vpc/__pycache__/__init__.cpython-36.pyc",
    "Lib/site-packages/boto/vpc/__pycache__/customergateway.cpython-36.pyc",
    "Lib/site-packages/boto/vpc/__pycache__/dhcpoptions.cpython-36.pyc",
    "Lib/site-packages/boto/vpc/__pycache__/internetgateway.cpython-36.pyc",
    "Lib/site-packages/boto/vpc/__pycache__/networkacl.cpython-36.pyc",
    "Lib/site-packages/boto/vpc/__pycache__/routetable.cpython-36.pyc",
    "Lib/site-packages/boto/vpc/__pycache__/subnet.cpython-36.pyc",
    "Lib/site-packages/boto/vpc/__pycache__/vpc.cpython-36.pyc",
    "Lib/site-packages/boto/vpc/__pycache__/vpc_peering_connection.cpython-36.pyc",
    "Lib/site-packages/boto/vpc/__pycache__/vpnconnection.cpython-36.pyc",
    "Lib/site-packages/boto/vpc/__pycache__/vpngateway.cpython-36.pyc",
    "Lib/site-packages/boto/vpc/customergateway.py",
    "Lib/site-packages/boto/vpc/dhcpoptions.py",
    "Lib/site-packages/boto/vpc/internetgateway.py",
    "Lib/site-packages/boto/vpc/networkacl.py",
    "Lib/site-packages/boto/vpc/routetable.py",
    "Lib/site-packages/boto/vpc/subnet.py",
    "Lib/site-packages/boto/vpc/vpc.py",
    "Lib/site-packages/boto/vpc/vpc_peering_connection.py",
    "Lib/site-packages/boto/vpc/vpnconnection.py",
    "Lib/site-packages/boto/vpc/vpngateway.py",
    "Scripts/asadmin-script.py",
    "Scripts/asadmin.exe",
    "Scripts/bundle_image-script.py",
    "Scripts/bundle_image.exe",
    "Scripts/cfadmin-script.py",
    "Scripts/cfadmin.exe",
    "Scripts/cq-script.py",
    "Scripts/cq.exe",
    "Scripts/cwutil-script.py",
    "Scripts/cwutil.exe",
    "Scripts/dynamodb_dump-script.py",
    "Scripts/dynamodb_dump.exe",
    "Scripts/dynamodb_load-script.py",
    "Scripts/dynamodb_load.exe",
    "Scripts/elbadmin-script.py",
    "Scripts/elbadmin.exe",
    "Scripts/fetch_file-script.py",
    "Scripts/fetch_file.exe",
    "Scripts/glacier-script.py",
    "Scripts/glacier.exe",
    "Scripts/instance_events-script.py",
    "Scripts/instance_events.exe",
    "Scripts/kill_instance-script.py",
    "Scripts/kill_instance.exe",
    "Scripts/launch_instance-script.py",
    "Scripts/launch_instance.exe",
    "Scripts/list_instances-script.py",
    "Scripts/list_instances.exe",
    "Scripts/lss3-script.py",
    "Scripts/lss3.exe",
    "Scripts/mturk-script.py",
    "Scripts/mturk.exe",
    "Scripts/pyami_sendmail-script.py",
    "Scripts/pyami_sendmail.exe",
    "Scripts/route53-script.py",
    "Scripts/route53.exe",
    "Scripts/s3put-script.py",
    "Scripts/s3put.exe",
    "Scripts/sdbadmin-script.py",
    "Scripts/sdbadmin.exe",
    "Scripts/taskadmin-script.py",
    "Scripts/taskadmin.exe"
  ],
  "fn": "boto-2.48.0-py36h1a776d2_1.tar.bz2",
  "license": "MIT",
  "link": {
    "source": "C:\\Program Files\\Anaconda3\\pkgs\\boto-2.48.0-py36h1a776d2_1",
    "type": 1
  },
  "md5": null,
  "name": "boto",
  "noarch": null,
  "platform": "win32",
  "preferred_env": null,
  "priority": 1,
  "schannel": "defaults",
  "subdir": "win-64",
  "timestamp": 1505957178620,
  "url": "https://repo.continuum.io/pkgs/main/win-64/boto-2.48.0-py36h1a776d2_1.tar.bz2",
  "version": "2.48.0",
  "with_features_depends": {}
}