{
  "arch": "x86_64",
  "auth": null,
  "build": "vc14_3",
  "build_number": 3,
  "channel": null,
  "depends": [],
  "features": "vc14",
  "files": [
    "Library/bin/bzip2.dll",
    "Library/bin/libbz2.dll",
    "Library/include/bzlib.h",
    "Library/lib/bzip2.lib",
    "Library/lib/bzip2_static.lib",
    "Library/lib/libbz2.lib",
    "Library/lib/libbz2_static.lib"
  ],
  "fn": "bzip2-1.0.6-vc14_3.tar.bz2",
  "license": "BSD",
  "link": {
    "source": "C:\\Program Files\\Anaconda3\\pkgs\\bzip2-1.0.6-vc14_3",
    "type": 1
  },
  "md5": null,
  "name": "bzip2",
  "noarch": null,
  "platform": "win32",
  "preferred_env": null,
  "priority": 1,
  "schannel": "anaconda",
  "subdir": "win-64",
  "url": "https://conda.anaconda.org/anaconda/win-64/bzip2-1.0.6-vc14_3.tar.bz2",
  "version": "1.0.6",
  "with_features_depends": {}
}