{
  "arch": "x86_64",
  "auth": null,
  "build": "py36h420ce6e_1",
  "build_number": 1,
  "channel": null,
  "depends": [
    "python >=3.6,<3.7.0a0"
  ],
  "files": [
    "Lib/site-packages/chardet-3.0.4-py3.6.egg-info/PKG-INFO",
    "Lib/site-packages/chardet-3.0.4-py3.6.egg-info/SOURCES.txt",
    "Lib/site-packages/chardet-3.0.4-py3.6.egg-info/dependency_links.txt",
    "Lib/site-packages/chardet-3.0.4-py3.6.egg-info/entry_points.txt",
    "Lib/site-packages/chardet-3.0.4-py3.6.egg-info/top_level.txt",
    "Lib/site-packages/chardet/__init__.py",
    "Lib/site-packages/chardet/__pycache__/__init__.cpython-36.pyc",
    "Lib/site-packages/chardet/__pycache__/big5freq.cpython-36.pyc",
    "Lib/site-packages/chardet/__pycache__/big5prober.cpython-36.pyc",
    "Lib/site-packages/chardet/__pycache__/chardistribution.cpython-36.pyc",
    "Lib/site-packages/chardet/__pycache__/charsetgroupprober.cpython-36.pyc",
    "Lib/site-packages/chardet/__pycache__/charsetprober.cpython-36.pyc",
    "Lib/site-packages/chardet/__pycache__/codingstatemachine.cpython-36.pyc",
    "Lib/site-packages/chardet/__pycache__/compat.cpython-36.pyc",
    "Lib/site-packages/chardet/__pycache__/cp949prober.cpython-36.pyc",
    "Lib/site-packages/chardet/__pycache__/enums.cpython-36.pyc",
    "Lib/site-packages/chardet/__pycache__/escprober.cpython-36.pyc",
    "Lib/site-packages/chardet/__pycache__/escsm.cpython-36.pyc",
    "Lib/site-packages/chardet/__pycache__/eucjpprober.cpython-36.pyc",
    "Lib/site-packages/chardet/__pycache__/euckrfreq.cpython-36.pyc",
    "Lib/site-packages/chardet/__pycache__/euckrprober.cpython-36.pyc",
    "Lib/site-packages/chardet/__pycache__/euctwfreq.cpython-36.pyc",
    "Lib/site-packages/chardet/__pycache__/euctwprober.cpython-36.pyc",
    "Lib/site-packages/chardet/__pycache__/gb2312freq.cpython-36.pyc",
    "Lib/site-packages/chardet/__pycache__/gb2312prober.cpython-36.pyc",
    "Lib/site-packages/chardet/__pycache__/hebrewprober.cpython-36.pyc",
    "Lib/site-packages/chardet/__pycache__/jisfreq.cpython-36.pyc",
    "Lib/site-packages/chardet/__pycache__/jpcntx.cpython-36.pyc",
    "Lib/site-packages/chardet/__pycache__/langbulgarianmodel.cpython-36.pyc",
    "Lib/site-packages/chardet/__pycache__/langcyrillicmodel.cpython-36.pyc",
    "Lib/site-packages/chardet/__pycache__/langgreekmodel.cpython-36.pyc",
    "Lib/site-packages/chardet/__pycache__/langhebrewmodel.cpython-36.pyc",
    "Lib/site-packages/chardet/__pycache__/langhungarianmodel.cpython-36.pyc",
    "Lib/site-packages/chardet/__pycache__/langthaimodel.cpython-36.pyc",
    "Lib/site-packages/chardet/__pycache__/langturkishmodel.cpython-36.pyc",
    "Lib/site-packages/chardet/__pycache__/latin1prober.cpython-36.pyc",
    "Lib/site-packages/chardet/__pycache__/mbcharsetprober.cpython-36.pyc",
    "Lib/site-packages/chardet/__pycache__/mbcsgroupprober.cpython-36.pyc",
    "Lib/site-packages/chardet/__pycache__/mbcssm.cpython-36.pyc",
    "Lib/site-packages/chardet/__pycache__/sbcharsetprober.cpython-36.pyc",
    "Lib/site-packages/chardet/__pycache__/sbcsgroupprober.cpython-36.pyc",
    "Lib/site-packages/chardet/__pycache__/sjisprober.cpython-36.pyc",
    "Lib/site-packages/chardet/__pycache__/universaldetector.cpython-36.pyc",
    "Lib/site-packages/chardet/__pycache__/utf8prober.cpython-36.pyc",
    "Lib/site-packages/chardet/__pycache__/version.cpython-36.pyc",
    "Lib/site-packages/chardet/big5freq.py",
    "Lib/site-packages/chardet/big5prober.py",
    "Lib/site-packages/chardet/chardistribution.py",
    "Lib/site-packages/chardet/charsetgroupprober.py",
    "Lib/site-packages/chardet/charsetprober.py",
    "Lib/site-packages/chardet/cli/__init__.py",
    "Lib/site-packages/chardet/cli/__pycache__/__init__.cpython-36.pyc",
    "Lib/site-packages/chardet/cli/__pycache__/chardetect.cpython-36.pyc",
    "Lib/site-packages/chardet/cli/chardetect.py",
    "Lib/site-packages/chardet/codingstatemachine.py",
    "Lib/site-packages/chardet/compat.py",
    "Lib/site-packages/chardet/cp949prober.py",
    "Lib/site-packages/chardet/enums.py",
    "Lib/site-packages/chardet/escprober.py",
    "Lib/site-packages/chardet/escsm.py",
    "Lib/site-packages/chardet/eucjpprober.py",
    "Lib/site-packages/chardet/euckrfreq.py",
    "Lib/site-packages/chardet/euckrprober.py",
    "Lib/site-packages/chardet/euctwfreq.py",
    "Lib/site-packages/chardet/euctwprober.py",
    "Lib/site-packages/chardet/gb2312freq.py",
    "Lib/site-packages/chardet/gb2312prober.py",
    "Lib/site-packages/chardet/hebrewprober.py",
    "Lib/site-packages/chardet/jisfreq.py",
    "Lib/site-packages/chardet/jpcntx.py",
    "Lib/site-packages/chardet/langbulgarianmodel.py",
    "Lib/site-packages/chardet/langcyrillicmodel.py",
    "Lib/site-packages/chardet/langgreekmodel.py",
    "Lib/site-packages/chardet/langhebrewmodel.py",
    "Lib/site-packages/chardet/langhungarianmodel.py",
    "Lib/site-packages/chardet/langthaimodel.py",
    "Lib/site-packages/chardet/langturkishmodel.py",
    "Lib/site-packages/chardet/latin1prober.py",
    "Lib/site-packages/chardet/mbcharsetprober.py",
    "Lib/site-packages/chardet/mbcsgroupprober.py",
    "Lib/site-packages/chardet/mbcssm.py",
    "Lib/site-packages/chardet/sbcharsetprober.py",
    "Lib/site-packages/chardet/sbcsgroupprober.py",
    "Lib/site-packages/chardet/sjisprober.py",
    "Lib/site-packages/chardet/universaldetector.py",
    "Lib/site-packages/chardet/utf8prober.py",
    "Lib/site-packages/chardet/version.py",
    "Scripts/chardetect-script.py",
    "Scripts/chardetect.exe"
  ],
  "fn": "chardet-3.0.4-py36h420ce6e_1.tar.bz2",
  "license": "LGPL2",
  "license_family": "GPL",
  "link": {
    "source": "C:\\Program Files\\Anaconda3\\pkgs\\chardet-3.0.4-py36h420ce6e_1",
    "type": 1
  },
  "md5": null,
  "name": "chardet",
  "noarch": null,
  "platform": "win32",
  "preferred_env": null,
  "priority": 1,
  "schannel": "defaults",
  "subdir": "win-64",
  "timestamp": 1505869681183,
  "url": "https://repo.continuum.io/pkgs/main/win-64/chardet-3.0.4-py36h420ce6e_1.tar.bz2",
  "version": "3.0.4",
  "with_features_depends": {}
}