{
  "arch": "x86_64",
  "auth": null,
  "build": "py36hb10d595_1",
  "build_number": 1,
  "channel": null,
  "depends": [
    "python >=3.6,<3.7.0a0",
    "setuptools"
  ],
  "files": [
    "Lib/site-packages/clyent-1.2.2-py3.6.egg-info/PKG-INFO",
    "Lib/site-packages/clyent-1.2.2-py3.6.egg-info/SOURCES.txt",
    "Lib/site-packages/clyent-1.2.2-py3.6.egg-info/dependency_links.txt",
    "Lib/site-packages/clyent-1.2.2-py3.6.egg-info/top_level.txt",
    "Lib/site-packages/clyent/__init__.py",
    "Lib/site-packages/clyent/__pycache__/__init__.cpython-36.pyc",
    "Lib/site-packages/clyent/__pycache__/_version.cpython-36.pyc",
    "Lib/site-packages/clyent/__pycache__/errors.cpython-36.pyc",
    "Lib/site-packages/clyent/_version.py",
    "Lib/site-packages/clyent/colors/__init__.py",
    "Lib/site-packages/clyent/colors/__pycache__/__init__.cpython-36.pyc",
    "Lib/site-packages/clyent/colors/__pycache__/color.cpython-36.pyc",
    "Lib/site-packages/clyent/colors/__pycache__/color_formatter.cpython-36.pyc",
    "Lib/site-packages/clyent/colors/color.py",
    "Lib/site-packages/clyent/colors/color_formatter.py",
    "Lib/site-packages/clyent/errors.py",
    "Lib/site-packages/clyent/logs/__init__.py",
    "Lib/site-packages/clyent/logs/__pycache__/__init__.cpython-36.pyc",
    "Lib/site-packages/clyent/logs/__pycache__/handlers.cpython-36.pyc",
    "Lib/site-packages/clyent/logs/colors/__init__.py",
    "Lib/site-packages/clyent/logs/colors/__pycache__/__init__.cpython-36.pyc",
    "Lib/site-packages/clyent/logs/colors/__pycache__/printer.cpython-36.pyc",
    "Lib/site-packages/clyent/logs/colors/printer.py",
    "Lib/site-packages/clyent/logs/handlers.py",
    "Lib/site-packages/clyent/tests/__init__.py",
    "Lib/site-packages/clyent/tests/__pycache__/__init__.cpython-36.pyc",
    "Lib/site-packages/clyent/tests/__pycache__/test_clyent.cpython-36.pyc",
    "Lib/site-packages/clyent/tests/test_clyent.py"
  ],
  "fn": "clyent-1.2.2-py36hb10d595_1.tar.bz2",
  "license": "BSD 3-Clause",
  "link": {
    "source": "C:\\Program Files\\Anaconda3\\pkgs\\clyent-1.2.2-py36hb10d595_1",
    "type": 1
  },
  "md5": null,
  "name": "clyent",
  "noarch": null,
  "platform": "win32",
  "preferred_env": null,
  "priority": 1,
  "schannel": "defaults",
  "subdir": "win-64",
  "timestamp": 1505979619279,
  "url": "https://repo.continuum.io/pkgs/main/win-64/clyent-1.2.2-py36hb10d595_1.tar.bz2",
  "version": "1.2.2",
  "with_features_depends": {}
}