{
  "arch": "x86_64",
  "auth": null,
  "build": "py36h396fcb9_0",
  "build_number": 0,
  "channel": null,
  "depends": [
    "bokeh",
    "cloudpickle >=0.2.1",
    "dask-core 0.15.3.*",
    "distributed >=1.19.0",
    "numpy >=1.10",
    "pandas >=0.19.0",
    "partd >=0.3.8",
    "python >=3.6,<3.7.0a0",
    "toolz >=0.7.3"
  ],
  "files": [],
  "fn": "dask-0.15.3-py36h396fcb9_0.tar.bz2",
  "license": "BSD 3-Clause",
  "link": {
    "source": "C:\\Program Files\\Anaconda3\\pkgs\\dask-0.15.3-py36h396fcb9_0",
    "type": 1
  },
  "md5": null,
  "name": "dask",
  "noarch": null,
  "platform": "win32",
  "preferred_env": null,
  "priority": 1,
  "schannel": "defaults",
  "subdir": "win-64",
  "timestamp": 1506624147530,
  "url": "https://repo.continuum.io/pkgs/main/win-64/dask-0.15.3-py36h396fcb9_0.tar.bz2",
  "version": "0.15.3",
  "with_features_depends": {}
}