{
  "arch": "x86_64",
  "auth": null,
  "build": "py36he63a57b_0",
  "build_number": 0,
  "channel": null,
  "depends": [
    "python >=3.6,<3.7.0a0"
  ],
  "files": [
    "Lib/site-packages/__pycache__/decorator.cpython-36.pyc",
    "Lib/site-packages/decorator-4.1.2-py3.6.egg-info/PKG-INFO",
    "Lib/site-packages/decorator-4.1.2-py3.6.egg-info/SOURCES.txt",
    "Lib/site-packages/decorator-4.1.2-py3.6.egg-info/dependency_links.txt",
    "Lib/site-packages/decorator-4.1.2-py3.6.egg-info/installed-files.txt",
    "Lib/site-packages/decorator-4.1.2-py3.6.egg-info/not-zip-safe",
    "Lib/site-packages/decorator-4.1.2-py3.6.egg-info/pbr.json",
    "Lib/site-packages/decorator-4.1.2-py3.6.egg-info/top_level.txt",
    "Lib/site-packages/decorator.py"
  ],
  "fn": "decorator-4.1.2-py36he63a57b_0.tar.bz2",
  "license": "BSD 3-Clause",
  "link": {
    "source": "C:\\Program Files\\Anaconda3\\pkgs\\decorator-4.1.2-py36he63a57b_0",
    "type": 1
  },
  "md5": null,
  "name": "decorator",
  "noarch": null,
  "platform": "win32",
  "preferred_env": null,
  "priority": 1,
  "schannel": "defaults",
  "subdir": "win-64",
  "timestamp": 1505849525283,
  "url": "https://repo.continuum.io/pkgs/main/win-64/decorator-4.1.2-py36he63a57b_0.tar.bz2",
  "version": "4.1.2",
  "with_features_depends": {}
}