{
  "arch": "x86_64",
  "auth": null,
  "build": "py36h51371be_0",
  "build_number": 0,
  "channel": null,
  "depends": [
    "python >=3.6,<3.7.0a0"
  ],
  "files": [
    "Lib/site-packages/distlib-0.2.5-py3.6.egg-info",
    "Lib/site-packages/distlib/__init__.py",
    "Lib/site-packages/distlib/__pycache__/__init__.cpython-36.pyc",
    "Lib/site-packages/distlib/__pycache__/compat.cpython-36.pyc",
    "Lib/site-packages/distlib/__pycache__/database.cpython-36.pyc",
    "Lib/site-packages/distlib/__pycache__/index.cpython-36.pyc",
    "Lib/site-packages/distlib/__pycache__/locators.cpython-36.pyc",
    "Lib/site-packages/distlib/__pycache__/manifest.cpython-36.pyc",
    "Lib/site-packages/distlib/__pycache__/markers.cpython-36.pyc",
    "Lib/site-packages/distlib/__pycache__/metadata.cpython-36.pyc",
    "Lib/site-packages/distlib/__pycache__/resources.cpython-36.pyc",
    "Lib/site-packages/distlib/__pycache__/scripts.cpython-36.pyc",
    "Lib/site-packages/distlib/__pycache__/util.cpython-36.pyc",
    "Lib/site-packages/distlib/__pycache__/version.cpython-36.pyc",
    "Lib/site-packages/distlib/__pycache__/wheel.cpython-36.pyc",
    "Lib/site-packages/distlib/_backport/__init__.py",
    "Lib/site-packages/distlib/_backport/__pycache__/__init__.cpython-36.pyc",
    "Lib/site-packages/distlib/_backport/__pycache__/misc.cpython-36.pyc",
    "Lib/site-packages/distlib/_backport/__pycache__/shutil.cpython-36.pyc",
    "Lib/site-packages/distlib/_backport/__pycache__/sysconfig.cpython-36.pyc",
    "Lib/site-packages/distlib/_backport/__pycache__/tarfile.cpython-36.pyc",
    "Lib/site-packages/distlib/_backport/misc.py",
    "Lib/site-packages/distlib/_backport/shutil.py",
    "Lib/site-packages/distlib/_backport/sysconfig.cfg",
    "Lib/site-packages/distlib/_backport/sysconfig.py",
    "Lib/site-packages/distlib/_backport/tarfile.py",
    "Lib/site-packages/distlib/compat.py",
    "Lib/site-packages/distlib/database.py",
    "Lib/site-packages/distlib/index.py",
    "Lib/site-packages/distlib/locators.py",
    "Lib/site-packages/distlib/manifest.py",
    "Lib/site-packages/distlib/markers.py",
    "Lib/site-packages/distlib/metadata.py",
    "Lib/site-packages/distlib/resources.py",
    "Lib/site-packages/distlib/scripts.py",
    "Lib/site-packages/distlib/t32.exe",
    "Lib/site-packages/distlib/t64.exe",
    "Lib/site-packages/distlib/util.py",
    "Lib/site-packages/distlib/version.py",
    "Lib/site-packages/distlib/w32.exe",
    "Lib/site-packages/distlib/w64.exe",
    "Lib/site-packages/distlib/wheel.py"
  ],
  "fn": "distlib-0.2.5-py36h51371be_0.tar.bz2",
  "license": "Python Software Foundation License",
  "license_family": "OTHER",
  "link": {
    "source": "C:\\Program Files\\Anaconda3\\pkgs\\distlib-0.2.5-py36h51371be_0",
    "type": 1
  },
  "md5": null,
  "name": "distlib",
  "noarch": null,
  "platform": "win32",
  "preferred_env": null,
  "priority": 1,
  "schannel": "defaults",
  "subdir": "win-64",
  "timestamp": 1506368692429,
  "url": "https://repo.continuum.io/pkgs/main/win-64/distlib-0.2.5-py36h51371be_0.tar.bz2",
  "version": "0.2.5",
  "with_features_depends": {}
}