{
  "arch": "x86_64",
  "auth": null,
  "build": "vc14h17c9bdf_0",
  "build_number": 0,
  "channel": null,
  "depends": [
    "libpng >=1.6.32,<1.7.0a0",
    "vc 14.*",
    "zlib >=1.2.11,<1.3.0a0"
  ],
  "features": "vc14",
  "files": [
    "Library/bin/freetype.dll",
    "Library/include/freetype/config/ftconfig.h",
    "Library/include/freetype/config/ftheader.h",
    "Library/include/freetype/config/ftmodule.h",
    "Library/include/freetype/config/ftoption.h",
    "Library/include/freetype/config/ftstdlib.h",
    "Library/include/freetype/freetype.h",
    "Library/include/freetype/ftadvanc.h",
    "Library/include/freetype/ftautoh.h",
    "Library/include/freetype/ftbbox.h",
    "Library/include/freetype/ftbdf.h",
    "Library/include/freetype/ftbitmap.h",
    "Library/include/freetype/ftbzip2.h",
    "Library/include/freetype/ftcache.h",
    "Library/include/freetype/ftcffdrv.h",
    "Library/include/freetype/ftchapters.h",
    "Library/include/freetype/ftcid.h",
    "Library/include/freetype/fterrdef.h",
    "Library/include/freetype/fterrors.h",
    "Library/include/freetype/ftfntfmt.h",
    "Library/include/freetype/ftgasp.h",
    "Library/include/freetype/ftglyph.h",
    "Library/include/freetype/ftgxval.h",
    "Library/include/freetype/ftgzip.h",
    "Library/include/freetype/ftimage.h",
    "Library/include/freetype/ftincrem.h",
    "Library/include/freetype/ftlcdfil.h",
    "Library/include/freetype/ftlist.h",
    "Library/include/freetype/ftlzw.h",
    "Library/include/freetype/ftmac.h",
    "Library/include/freetype/ftmm.h",
    "Library/include/freetype/ftmodapi.h",
    "Library/include/freetype/ftmoderr.h",
    "Library/include/freetype/ftotval.h",
    "Library/include/freetype/ftoutln.h",
    "Library/include/freetype/ftpcfdrv.h",
    "Library/include/freetype/ftpfr.h",
    "Library/include/freetype/ftrender.h",
    "Library/include/freetype/ftsizes.h",
    "Library/include/freetype/ftsnames.h",
    "Library/include/freetype/ftstroke.h",
    "Library/include/freetype/ftsynth.h",
    "Library/include/freetype/ftsystem.h",
    "Library/include/freetype/fttrigon.h",
    "Library/include/freetype/ftttdrv.h",
    "Library/include/freetype/fttypes.h",
    "Library/include/freetype/ftwinfnt.h",
    "Library/include/freetype/t1tables.h",
    "Library/include/freetype/ttnameid.h",
    "Library/include/freetype/tttables.h",
    "Library/include/freetype/tttags.h",
    "Library/include/freetype/ttunpat.h",
    "Library/include/ft2build.h",
    "Library/lib/cmake/freetype/freetype-config-release.cmake",
    "Library/lib/cmake/freetype/freetype-config.cmake",
    "Library/lib/freetype.lib"
  ],
  "fn": "freetype-2.8-vc14h17c9bdf_0.tar.bz2",
  "license": "GPL-2.0 and FreeType",
  "link": {
    "source": "C:\\Program Files\\Anaconda3\\pkgs\\freetype-2.8-vc14h17c9bdf_0",
    "type": 1
  },
  "md5": null,
  "name": "freetype",
  "noarch": null,
  "platform": "win32",
  "preferred_env": null,
  "priority": 1,
  "schannel": "anaconda",
  "subdir": "win-64",
  "timestamp": 1505954358192,
  "url": "https://conda.anaconda.org/anaconda/win-64/freetype-2.8-vc14h17c9bdf_0.tar.bz2",
  "version": "2.8",
  "with_features_depends": {}
}