{
  "arch": "x86_64",
  "auth": null,
  "build": "4",
  "build_number": 4,
  "channel": null,
  "depends": [],
  "files": [
    "Library/bin/acyclic.bat",
    "Library/bin/bcomps.bat",
    "Library/bin/ccomps.bat",
    "Library/bin/circo.bat",
    "Library/bin/diffimg.bat",
    "Library/bin/dijkstra.bat",
    "Library/bin/dot.bat",
    "Library/bin/dotty.bat",
    "Library/bin/edgepaint.bat",
    "Library/bin/fc-cache.bat",
    "Library/bin/fc-cat.bat",
    "Library/bin/fc-list.bat",
    "Library/bin/fc-match.bat",
    "Library/bin/fdp.bat",
    "Library/bin/gc.bat",
    "Library/bin/gml2gv.bat",
    "Library/bin/graphml2gv.bat",
    "Library/bin/graphviz/GVedit.html",
    "Library/bin/graphviz/Graphviz.ini",
    "Library/bin/graphviz/New Text Document.txt",
    "Library/bin/graphviz/Pathplan.dll",
    "Library/bin/graphviz/QtCore4.dll",
    "Library/bin/graphviz/QtGui4.dll",
    "Library/bin/graphviz/Settings.ini",
    "Library/bin/graphviz/Temp.rar",
    "Library/bin/graphviz/acyclic.exe",
    "Library/bin/graphviz/ann.dll",
    "Library/bin/graphviz/bcomps.exe",
    "Library/bin/graphviz/ccomps.exe",
    "Library/bin/graphviz/cdt.dll",
    "Library/bin/graphviz/cgraph.dll",
    "Library/bin/graphviz/circo.exe",
    "Library/bin/graphviz/config.h",
    "Library/bin/graphviz/config6",
    "Library/bin/graphviz/diffimg.exe",
    "Library/bin/graphviz/dijkstra.exe",
    "Library/bin/graphviz/dot.exe",
    "Library/bin/graphviz/dotty.exe",
    "Library/bin/graphviz/edgepaint.exe",
    "Library/bin/graphviz/exparse.h",
    "Library/bin/graphviz/fc-cache.exe",
    "Library/bin/graphviz/fc-cat.exe",
    "Library/bin/graphviz/fc-list.exe",
    "Library/bin/graphviz/fc-match.exe",
    "Library/bin/graphviz/fdp.exe",
    "Library/bin/graphviz/fontconfig.dll",
    "Library/bin/graphviz/fontconfig_fix.dll",
    "Library/bin/graphviz/freetype6.dll",
    "Library/bin/graphviz/gc.exe",
    "Library/bin/graphviz/gd.tgz",
    "Library/bin/graphviz/gd.zip",
    "Library/bin/graphviz/getopt.h",
    "Library/bin/graphviz/glut32.dll",
    "Library/bin/graphviz/gml2gv.exe",
    "Library/bin/graphviz/graphml2gv.exe",
    "Library/bin/graphviz/gts.lib",
    "Library/bin/graphviz/gts.tgz",
    "Library/bin/graphviz/gv2gml.exe",
    "Library/bin/graphviz/gvc.dll",
    "Library/bin/graphviz/gvcolor.exe",
    "Library/bin/graphviz/gvedit.exe",
    "Library/bin/graphviz/gvgen.exe",
    "Library/bin/graphviz/gvmap.exe",
    "Library/bin/graphviz/gvpack.exe",
    "Library/bin/graphviz/gvplugin_core.dll",
    "Library/bin/graphviz/gvplugin_dot_layout.dll",
    "Library/bin/graphviz/gvplugin_gd.dll",
    "Library/bin/graphviz/gvplugin_gdiplus.dll",
    "Library/bin/graphviz/gvplugin_neato_layout.dll",
    "Library/bin/graphviz/gvplugin_pango.dll",
    "Library/bin/graphviz/gvpr.exe",
    "Library/bin/graphviz/gxl2gv.exe",
    "Library/bin/graphviz/iconv.dll",
    "Library/bin/graphviz/intl.dll",
    "Library/bin/graphviz/jpeg62.dll",
    "Library/bin/graphviz/lefty.exe",
    "Library/bin/graphviz/libatk-1.0-0.dll",
    "Library/bin/graphviz/libcairo-2.dll",
    "Library/bin/graphviz/libexpat-1.dll",
    "Library/bin/graphviz/libexpat.dll",
    "Library/bin/graphviz/libfontconfig-1.dll",
    "Library/bin/graphviz/libfreetype-6.dll",
    "Library/bin/graphviz/libgdk-win32-2.0-0.dll",
    "Library/bin/graphviz/libgdk_pixbuf-2.0-0.dll",
    "Library/bin/graphviz/libgdkglext-win32-1.0-0.dll",
    "Library/bin/graphviz/libgio-2.0-0.dll",
    "Library/bin/graphviz/libglade-2.0-0.dll",
    "Library/bin/graphviz/libglib-2.0-0.dll",
    "Library/bin/graphviz/libgmodule-2.0-0.dll",
    "Library/bin/graphviz/libgobject-2.0-0.dll",
    "Library/bin/graphviz/libgthread-2.0-0.dll",
    "Library/bin/graphviz/libgtk-win32-2.0-0.dll",
    "Library/bin/graphviz/libgtkglext-win32-1.0-0.dll",
    "Library/bin/graphviz/libltdl-3.dll",
    "Library/bin/graphviz/libpango-1.0-0.dll",
    "Library/bin/graphviz/libpangocairo-1.0-0.dll",
    "Library/bin/graphviz/libpangoft2-1.0-0.dll",
    "Library/bin/graphviz/libpangowin32-1.0-0.dll",
    "Library/bin/graphviz/libpng12.dll",
    "Library/bin/graphviz/libpng14-14.dll",
    "Library/bin/graphviz/librsvg-2-2.dll",
    "Library/bin/graphviz/libxml2.dll",
    "Library/bin/graphviz/lneato.exe",
    "Library/bin/graphviz/ltdl.dll",
    "Library/bin/graphviz/mingle.exe",
    "Library/bin/graphviz/mm2gv.exe",
    "Library/bin/graphviz/neato.exe",
    "Library/bin/graphviz/nop.exe",
    "Library/bin/graphviz/osage.exe",
    "Library/bin/graphviz/patchwork.exe",
    "Library/bin/graphviz/props.txt",
    "Library/bin/graphviz/prune.exe",
    "Library/bin/graphviz/sccmap.exe",
    "Library/bin/graphviz/sfdp.exe",
    "Library/bin/graphviz/smyrna.exe",
    "Library/bin/graphviz/tred.exe",
    "Library/bin/graphviz/twopi.exe",
    "Library/bin/graphviz/unflatten.exe",
    "Library/bin/graphviz/vmalloc.dll",
    "Library/bin/graphviz/zlib1.dll",
    "Library/bin/gv2gml.bat",
    "Library/bin/gvcolor.bat",
    "Library/bin/gvedit.bat",
    "Library/bin/gvgen.bat",
    "Library/bin/gvmap.bat",
    "Library/bin/gvpack.bat",
    "Library/bin/gvpr.bat",
    "Library/bin/gxl2gv.bat",
    "Library/bin/lefty.bat",
    "Library/bin/lneato.bat",
    "Library/bin/mingle.bat",
    "Library/bin/mm2gv.bat",
    "Library/bin/neato.bat",
    "Library/bin/nop.bat",
    "Library/bin/osage.bat",
    "Library/bin/patchwork.bat",
    "Library/bin/prune.bat",
    "Library/bin/sccmap.bat",
    "Library/bin/sfdp.bat",
    "Library/bin/smyrna.bat",
    "Library/bin/tred.bat",
    "Library/bin/twopi.bat",
    "Library/bin/unflatten.bat",
    "Library/etc/fonts/conf.avail/10-autohint.conf",
    "Library/etc/fonts/conf.avail/10-no-sub-pixel.conf",
    "Library/etc/fonts/conf.avail/10-sub-pixel-bgr.conf",
    "Library/etc/fonts/conf.avail/10-sub-pixel-rgb.conf",
    "Library/etc/fonts/conf.avail/10-sub-pixel-vbgr.conf",
    "Library/etc/fonts/conf.avail/10-sub-pixel-vrgb.conf",
    "Library/etc/fonts/conf.avail/10-unhinted.conf",
    "Library/etc/fonts/conf.avail/20-fix-globaladvance.conf",
    "Library/etc/fonts/conf.avail/20-lohit-gujarati.conf",
    "Library/etc/fonts/conf.avail/20-unhint-small-vera.conf",
    "Library/etc/fonts/conf.avail/30-amt-aliases.conf",
    "Library/etc/fonts/conf.avail/30-urw-aliases.conf",
    "Library/etc/fonts/conf.avail/40-generic.conf",
    "Library/etc/fonts/conf.avail/49-sansserif.conf",
    "Library/etc/fonts/conf.avail/50-user.conf",
    "Library/etc/fonts/conf.avail/51-local.conf",
    "Library/etc/fonts/conf.avail/60-latin.conf",
    "Library/etc/fonts/conf.avail/65-fonts-persian.conf",
    "Library/etc/fonts/conf.avail/65-nonlatin.conf",
    "Library/etc/fonts/conf.avail/69-unifont.conf",
    "Library/etc/fonts/conf.avail/70-no-bitmaps.conf",
    "Library/etc/fonts/conf.avail/70-yes-bitmaps.conf",
    "Library/etc/fonts/conf.avail/80-delicious.conf",
    "Library/etc/fonts/conf.avail/90-synthetic.conf",
    "Library/etc/fonts/conf.avail/README",
    "Library/etc/fonts/conf.d/20-fix-globaladvance.conf",
    "Library/etc/fonts/conf.d/20-lohit-gujarati.conf",
    "Library/etc/fonts/conf.d/20-unhint-small-vera.conf",
    "Library/etc/fonts/conf.d/30-amt-aliases.conf",
    "Library/etc/fonts/conf.d/30-urw-aliases.conf",
    "Library/etc/fonts/conf.d/40-generic.conf",
    "Library/etc/fonts/conf.d/49-sansserif.conf",
    "Library/etc/fonts/conf.d/50-user.conf",
    "Library/etc/fonts/conf.d/51-local.conf",
    "Library/etc/fonts/conf.d/60-latin.conf",
    "Library/etc/fonts/conf.d/65-fonts-persian.conf",
    "Library/etc/fonts/conf.d/65-nonlatin.conf",
    "Library/etc/fonts/conf.d/69-unifont.conf",
    "Library/etc/fonts/conf.d/80-delicious.conf",
    "Library/etc/fonts/conf.d/90-synthetic.conf",
    "Library/etc/fonts/fonts.conf",
    "Library/etc/fonts/fonts.dtd",
    "Library/etc/gtk-2.0/gdk-pixbuf.loaders",
    "Library/etc/gtk-2.0/gtk.immodules",
    "Library/etc/gtk-2.0/gtkrc",
    "Library/fonts/conf.avail/10-autohint.conf",
    "Library/fonts/conf.avail/10-no-sub-pixel.conf",
    "Library/fonts/conf.avail/10-sub-pixel-bgr.conf",
    "Library/fonts/conf.avail/10-sub-pixel-rgb.conf",
    "Library/fonts/conf.avail/10-sub-pixel-vbgr.conf",
    "Library/fonts/conf.avail/10-sub-pixel-vrgb.conf",
    "Library/fonts/conf.avail/10-unhinted.conf",
    "Library/fonts/conf.avail/20-fix-globaladvance.conf",
    "Library/fonts/conf.avail/20-lohit-gujarati.conf",
    "Library/fonts/conf.avail/20-unhint-small-vera.conf",
    "Library/fonts/conf.avail/30-amt-aliases.conf",
    "Library/fonts/conf.avail/30-urw-aliases.conf",
    "Library/fonts/conf.avail/40-generic.conf",
    "Library/fonts/conf.avail/49-sansserif.conf",
    "Library/fonts/conf.avail/50-user.conf",
    "Library/fonts/conf.avail/51-local.conf",
    "Library/fonts/conf.avail/60-latin.conf",
    "Library/fonts/conf.avail/65-fonts-persian.conf",
    "Library/fonts/conf.avail/65-nonlatin.conf",
    "Library/fonts/conf.avail/69-unifont.conf",
    "Library/fonts/conf.avail/70-no-bitmaps.conf",
    "Library/fonts/conf.avail/70-yes-bitmaps.conf",
    "Library/fonts/conf.avail/80-delicious.conf",
    "Library/fonts/conf.avail/90-synthetic.conf",
    "Library/fonts/conf.avail/README",
    "Library/fonts/conf.d/20-fix-globaladvance.conf",
    "Library/fonts/conf.d/20-lohit-gujarati.conf",
    "Library/fonts/conf.d/20-unhint-small-vera.conf",
    "Library/fonts/conf.d/30-amt-aliases.conf",
    "Library/fonts/conf.d/30-urw-aliases.conf",
    "Library/fonts/conf.d/40-generic.conf",
    "Library/fonts/conf.d/49-sansserif.conf",
    "Library/fonts/conf.d/50-user.conf",
    "Library/fonts/conf.d/51-local.conf",
    "Library/fonts/conf.d/60-latin.conf",
    "Library/fonts/conf.d/65-fonts-persian.conf",
    "Library/fonts/conf.d/65-nonlatin.conf",
    "Library/fonts/conf.d/69-unifont.conf",
    "Library/fonts/conf.d/80-delicious.conf",
    "Library/fonts/conf.d/90-synthetic.conf",
    "Library/fonts/fonts.conf",
    "Library/fonts/fonts.dtd",
    "Library/gtk-2.0/gdk-pixbuf.loaders",
    "Library/gtk-2.0/gtk.immodules",
    "Library/gtk-2.0/gtkrc",
    "Library/pango/pango.aliases",
    "Library/pango/pango.modules",
    "Library/share/Thumbs.db",
    "Library/share/doc/graphviz/doc/AUTHORS",
    "Library/share/doc/graphviz/doc/COPYING",
    "Library/share/doc/graphviz/doc/ChangeLog",
    "Library/share/doc/graphviz/doc/Dot.ref",
    "Library/share/doc/graphviz/doc/NEWS",
    "Library/share/doc/graphviz/doc/addingLayout.txt",
    "Library/share/doc/graphviz/doc/cpl1.0.txt",
    "Library/share/doc/graphviz/doc/fontfaq.txt",
    "Library/share/doc/graphviz/doc/html/FAQ.html",
    "Library/share/doc/graphviz/doc/html/GVedit.html",
    "Library/share/doc/graphviz/doc/html/Gdtclft2.2.5.example.png",
    "Library/share/doc/graphviz/doc/html/build.html",
    "Library/share/doc/graphviz/doc/html/char.html",
    "Library/share/doc/graphviz/doc/html/gd.html",
    "Library/share/doc/graphviz/doc/html/index.html",
    "Library/share/doc/graphviz/doc/html/info/Mcircle.gif",
    "Library/share/doc/graphviz/doc/html/info/Mdiamond.gif",
    "Library/share/doc/graphviz/doc/html/info/Msquare.gif",
    "Library/share/doc/graphviz/doc/html/info/Thumbs.db",
    "Library/share/doc/graphviz/doc/html/info/a_box.gif",
    "Library/share/doc/graphviz/doc/html/info/a_crow.gif",
    "Library/share/doc/graphviz/doc/html/info/a_diamond.gif",
    "Library/share/doc/graphviz/doc/html/info/a_dot.gif",
    "Library/share/doc/graphviz/doc/html/info/a_ediamond.gif",
    "Library/share/doc/graphviz/doc/html/info/a_empty.gif",
    "Library/share/doc/graphviz/doc/html/info/a_forward.gif",
    "Library/share/doc/graphviz/doc/html/info/a_halfopen.gif",
    "Library/share/doc/graphviz/doc/html/info/a_inv.gif",
    "Library/share/doc/graphviz/doc/html/info/a_invdot.gif",
    "Library/share/doc/graphviz/doc/html/info/a_invempty.gif",
    "Library/share/doc/graphviz/doc/html/info/a_invodot.gif",
    "Library/share/doc/graphviz/doc/html/info/a_lteeoldiamond.gif",
    "Library/share/doc/graphviz/doc/html/info/a_nohead.gif",
    "Library/share/doc/graphviz/doc/html/info/a_none.gif",
    "Library/share/doc/graphviz/doc/html/info/a_normal.gif",
    "Library/share/doc/graphviz/doc/html/info/a_obox.gif",
    "Library/share/doc/graphviz/doc/html/info/a_odiamond.gif",
    "Library/share/doc/graphviz/doc/html/info/a_odot.gif",
    "Library/share/doc/graphviz/doc/html/info/a_open.gif",
    "Library/share/doc/graphviz/doc/html/info/a_tee.gif",
    "Library/share/doc/graphviz/doc/html/info/aa_box.gif",
    "Library/share/doc/graphviz/doc/html/info/aa_crow.gif",
    "Library/share/doc/graphviz/doc/html/info/aa_diamond.gif",
    "Library/share/doc/graphviz/doc/html/info/aa_dot.gif",
    "Library/share/doc/graphviz/doc/html/info/aa_inv.gif",
    "Library/share/doc/graphviz/doc/html/info/aa_lbox.gif",
    "Library/share/doc/graphviz/doc/html/info/aa_lcrow.gif",
    "Library/share/doc/graphviz/doc/html/info/aa_ldiamond.gif",
    "Library/share/doc/graphviz/doc/html/info/aa_linv.gif",
    "Library/share/doc/graphviz/doc/html/info/aa_lnormal.gif",
    "Library/share/doc/graphviz/doc/html/info/aa_ltee.gif",
    "Library/share/doc/graphviz/doc/html/info/aa_lvee.gif",
    "Library/share/doc/graphviz/doc/html/info/aa_none.gif",
    "Library/share/doc/graphviz/doc/html/info/aa_normal.gif",
    "Library/share/doc/graphviz/doc/html/info/aa_obox.gif",
    "Library/share/doc/graphviz/doc/html/info/aa_odiamond.gif",
    "Library/share/doc/graphviz/doc/html/info/aa_odot.gif",
    "Library/share/doc/graphviz/doc/html/info/aa_oinv.gif",
    "Library/share/doc/graphviz/doc/html/info/aa_olbox.gif",
    "Library/share/doc/graphviz/doc/html/info/aa_oldiamond.gif",
    "Library/share/doc/graphviz/doc/html/info/aa_olinv.gif",
    "Library/share/doc/graphviz/doc/html/info/aa_olnormal.gif",
    "Library/share/doc/graphviz/doc/html/info/aa_onormal.gif",
    "Library/share/doc/graphviz/doc/html/info/aa_orbox.gif",
    "Library/share/doc/graphviz/doc/html/info/aa_ordiamond.gif",
    "Library/share/doc/graphviz/doc/html/info/aa_orinv.gif",
    "Library/share/doc/graphviz/doc/html/info/aa_ornormal.gif",
    "Library/share/doc/graphviz/doc/html/info/aa_rbox.gif",
    "Library/share/doc/graphviz/doc/html/info/aa_rcrow.gif",
    "Library/share/doc/graphviz/doc/html/info/aa_rdiamond.gif",
    "Library/share/doc/graphviz/doc/html/info/aa_rinv.gif",
    "Library/share/doc/graphviz/doc/html/info/aa_rnormal.gif",
    "Library/share/doc/graphviz/doc/html/info/aa_rtee.gif",
    "Library/share/doc/graphviz/doc/html/info/aa_rvee.gif",
    "Library/share/doc/graphviz/doc/html/info/aa_tee.gif",
    "Library/share/doc/graphviz/doc/html/info/aa_vee.gif",
    "Library/share/doc/graphviz/doc/html/info/arrows.html",
    "Library/share/doc/graphviz/doc/html/info/attrs.html",
    "Library/share/doc/graphviz/doc/html/info/back.gif",
    "Library/share/doc/graphviz/doc/html/info/both.gif",
    "Library/share/doc/graphviz/doc/html/info/box.gif",
    "Library/share/doc/graphviz/doc/html/info/box3d.gif",
    "Library/share/doc/graphviz/doc/html/info/circle.gif",
    "Library/share/doc/graphviz/doc/html/info/colorlist.gif",
    "Library/share/doc/graphviz/doc/html/info/colors.html",
    "Library/share/doc/graphviz/doc/html/info/command.html",
    "Library/share/doc/graphviz/doc/html/info/component.gif",
    "Library/share/doc/graphviz/doc/html/info/constraint.gif",
    "Library/share/doc/graphviz/doc/html/info/diamond.gif",
    "Library/share/doc/graphviz/doc/html/info/doublecircle.gif",
    "Library/share/doc/graphviz/doc/html/info/doubleoctagon.gif",
    "Library/share/doc/graphviz/doc/html/info/egg.gif",
    "Library/share/doc/graphviz/doc/html/info/ellipse.gif",
    "Library/share/doc/graphviz/doc/html/info/fill.gif",
    "Library/share/doc/graphviz/doc/html/info/folder.gif",
    "Library/share/doc/graphviz/doc/html/info/forward.gif",
    "Library/share/doc/graphviz/doc/html/info/grammar.html",
    "Library/share/doc/graphviz/doc/html/info/hexagon.gif",
    "Library/share/doc/graphviz/doc/html/info/house.gif",
    "Library/share/doc/graphviz/doc/html/info/html1.gif",
    "Library/share/doc/graphviz/doc/html/info/html2.dot",
    "Library/share/doc/graphviz/doc/html/info/html2.gif",
    "Library/share/doc/graphviz/doc/html/info/html3.dot",
    "Library/share/doc/graphviz/doc/html/info/html3.gif",
    "Library/share/doc/graphviz/doc/html/info/html4.dot",
    "Library/share/doc/graphviz/doc/html/info/html4.gif",
    "Library/share/doc/graphviz/doc/html/info/index.html",
    "Library/share/doc/graphviz/doc/html/info/invhouse.gif",
    "Library/share/doc/graphviz/doc/html/info/invtrapezium.gif",
    "Library/share/doc/graphviz/doc/html/info/invtriangle.gif",
    "Library/share/doc/graphviz/doc/html/info/lang.html",
    "Library/share/doc/graphviz/doc/html/info/mrecord.gif",
    "Library/share/doc/graphviz/doc/html/info/nohead.gif",
    "Library/share/doc/graphviz/doc/html/info/none.gif",
    "Library/share/doc/graphviz/doc/html/info/note.gif",
    "Library/share/doc/graphviz/doc/html/info/octagon.gif",
    "Library/share/doc/graphviz/doc/html/info/output.html",
    "Library/share/doc/graphviz/doc/html/info/parallelogram.gif",
    "Library/share/doc/graphviz/doc/html/info/pentagon.gif",
    "Library/share/doc/graphviz/doc/html/info/plaintext.gif",
    "Library/share/doc/graphviz/doc/html/info/plugins.png",
    "Library/share/doc/graphviz/doc/html/info/point.gif",
    "Library/share/doc/graphviz/doc/html/info/polygon.gif",
    "Library/share/doc/graphviz/doc/html/info/record.gif",
    "Library/share/doc/graphviz/doc/html/info/record2.gif",
    "Library/share/doc/graphviz/doc/html/info/rect.gif",
    "Library/share/doc/graphviz/doc/html/info/rectangle.gif",
    "Library/share/doc/graphviz/doc/html/info/round.gif",
    "Library/share/doc/graphviz/doc/html/info/sdlshapes.png",
    "Library/share/doc/graphviz/doc/html/info/septagon.gif",
    "Library/share/doc/graphviz/doc/html/info/shapes.html",
    "Library/share/doc/graphviz/doc/html/info/tab.gif",
    "Library/share/doc/graphviz/doc/html/info/trapezium.gif",
    "Library/share/doc/graphviz/doc/html/info/triangle.gif",
    "Library/share/doc/graphviz/doc/html/info/tripleoctagon.gif",
    "Library/share/doc/graphviz/doc/html/pspdf.png",
    "Library/share/doc/graphviz/doc/html/schema/arguments.xml",
    "Library/share/doc/graphviz/doc/html/schema/attributes.xml",
    "Library/share/doc/graphviz/doc/html/schema/attributes.xslt",
    "Library/share/doc/graphviz/doc/html/todo.html",
    "Library/share/doc/graphviz/doc/html/winbuild.html",
    "Library/share/doc/graphviz/doc/latex_suggestions.txt",
    "Library/share/doc/graphviz/doc/pdf/acyclic.1.pdf",
    "Library/share/doc/graphviz/doc/pdf/bcomps.1.pdf",
    "Library/share/doc/graphviz/doc/pdf/ccomps.1.pdf",
    "Library/share/doc/graphviz/doc/pdf/cdt.3.pdf",
    "Library/share/doc/graphviz/doc/pdf/cgraph.3.pdf",
    "Library/share/doc/graphviz/doc/pdf/circo.1.pdf",
    "Library/share/doc/graphviz/doc/pdf/dijkstra.1.pdf",
    "Library/share/doc/graphviz/doc/pdf/dot.1.pdf",
    "Library/share/doc/graphviz/doc/pdf/dotguide.pdf",
    "Library/share/doc/graphviz/doc/pdf/dotty.1.pdf",
    "Library/share/doc/graphviz/doc/pdf/dottyguide.pdf",
    "Library/share/doc/graphviz/doc/pdf/fdp.1.pdf",
    "Library/share/doc/graphviz/doc/pdf/gc.1.pdf",
    "Library/share/doc/graphviz/doc/pdf/graph.3.pdf",
    "Library/share/doc/graphviz/doc/pdf/gv2gxl.1.pdf",
    "Library/share/doc/graphviz/doc/pdf/gvc.3.pdf",
    "Library/share/doc/graphviz/doc/pdf/gvcolor.1.pdf",
    "Library/share/doc/graphviz/doc/pdf/gvgen.1.pdf",
    "Library/share/doc/graphviz/doc/pdf/gvpack.1.pdf",
    "Library/share/doc/graphviz/doc/pdf/gvpr.1.pdf",
    "Library/share/doc/graphviz/doc/pdf/gxl2gv.1.pdf",
    "Library/share/doc/graphviz/doc/pdf/lefty.1.pdf",
    "Library/share/doc/graphviz/doc/pdf/leftyguide.pdf",
    "Library/share/doc/graphviz/doc/pdf/libguide.pdf",
    "Library/share/doc/graphviz/doc/pdf/lneato.1.pdf",
    "Library/share/doc/graphviz/doc/pdf/mm2gv.1.pdf",
    "Library/share/doc/graphviz/doc/pdf/neato.1.pdf",
    "Library/share/doc/graphviz/doc/pdf/neatoguide.pdf",
    "Library/share/doc/graphviz/doc/pdf/nop.1.pdf",
    "Library/share/doc/graphviz/doc/pdf/osage.1.pdf",
    "Library/share/doc/graphviz/doc/pdf/pathplan.3.pdf",
    "Library/share/doc/graphviz/doc/pdf/prune.pdf",
    "Library/share/doc/graphviz/doc/pdf/sccmap.1.pdf",
    "Library/share/doc/graphviz/doc/pdf/tred.1.pdf",
    "Library/share/doc/graphviz/doc/pdf/twopi.1.pdf",
    "Library/share/doc/graphviz/doc/pdf/unflatten.1.pdf",
    "Library/share/doc/graphviz/doc/pdf/xdot.3.pdf",
    "Library/share/fonts/FreeSans.ttf",
    "Library/share/graphviz/examples/4elt.gv",
    "Library/share/graphviz/examples/Makefile.am",
    "Library/share/graphviz/examples/Makefile.in",
    "Library/share/graphviz/examples/world.gv",
    "Library/share/graphviz/graphs/directed/KW91.gv",
    "Library/share/graphviz/graphs/directed/Latin1.gv",
    "Library/share/graphviz/graphs/directed/NaN.gv",
    "Library/share/graphviz/graphs/directed/abstract.gv",
    "Library/share/graphviz/graphs/directed/alf.gv",
    "Library/share/graphviz/graphs/directed/arrows.gif",
    "Library/share/graphviz/graphs/directed/arrows.gv",
    "Library/share/graphviz/graphs/directed/awilliams.gif",
    "Library/share/graphviz/graphs/directed/awilliams.gv",
    "Library/share/graphviz/graphs/directed/clust.gv",
    "Library/share/graphviz/graphs/directed/clust1.gv",
    "Library/share/graphviz/graphs/directed/clust2.gv",
    "Library/share/graphviz/graphs/directed/clust3.gif",
    "Library/share/graphviz/graphs/directed/clust3.gv",
    "Library/share/graphviz/graphs/directed/clust4.gv",
    "Library/share/graphviz/graphs/directed/clust5.gv",
    "Library/share/graphviz/graphs/directed/crazy.gv",
    "Library/share/graphviz/graphs/directed/ctext.gv",
    "Library/share/graphviz/graphs/directed/dfa.gv",
    "Library/share/graphviz/graphs/directed/fig6.gv",
    "Library/share/graphviz/graphs/directed/fsm.gv",
    "Library/share/graphviz/graphs/directed/grammar.gv",
    "Library/share/graphviz/graphs/directed/hashtable.gv",
    "Library/share/graphviz/graphs/directed/honda-tokoro.gv",
    "Library/share/graphviz/graphs/directed/jcctree.gif",
    "Library/share/graphviz/graphs/directed/jcctree.gv",
    "Library/share/graphviz/graphs/directed/jsort.gif",
    "Library/share/graphviz/graphs/directed/jsort.gv",
    "Library/share/graphviz/graphs/directed/ldbxtried.gv",
    "Library/share/graphviz/graphs/directed/longflat.gv",
    "Library/share/graphviz/graphs/directed/mike.gv",
    "Library/share/graphviz/graphs/directed/nhg.gv",
    "Library/share/graphviz/graphs/directed/oldarrows.gif",
    "Library/share/graphviz/graphs/directed/oldarrows.gv",
    "Library/share/graphviz/graphs/directed/pgram.gv",
    "Library/share/graphviz/graphs/directed/pm2way.gv",
    "Library/share/graphviz/graphs/directed/pmpipe.gv",
    "Library/share/graphviz/graphs/directed/polypoly.gif",
    "Library/share/graphviz/graphs/directed/polypoly.gv",
    "Library/share/graphviz/graphs/directed/proc3d.gv",
    "Library/share/graphviz/graphs/directed/psfonttest.gv",
    "Library/share/graphviz/graphs/directed/record2.gv",
    "Library/share/graphviz/graphs/directed/records.gv",
    "Library/share/graphviz/graphs/directed/records.jpg",
    "Library/share/graphviz/graphs/directed/records.png",
    "Library/share/graphviz/graphs/directed/rowe.gv",
    "Library/share/graphviz/graphs/directed/russian.gv",
    "Library/share/graphviz/graphs/directed/russian.jpg",
    "Library/share/graphviz/graphs/directed/sdh.gv",
    "Library/share/graphviz/graphs/directed/shells.gv",
    "Library/share/graphviz/graphs/directed/states.gv",
    "Library/share/graphviz/graphs/directed/structs.gv",
    "Library/share/graphviz/graphs/directed/switch.gv",
    "Library/share/graphviz/graphs/directed/table.gv",
    "Library/share/graphviz/graphs/directed/train11.gv",
    "Library/share/graphviz/graphs/directed/trapeziumlr.gv",
    "Library/share/graphviz/graphs/directed/tree.gv",
    "Library/share/graphviz/graphs/directed/triedds.gv",
    "Library/share/graphviz/graphs/directed/triedds.jpg",
    "Library/share/graphviz/graphs/directed/try.gv",
    "Library/share/graphviz/graphs/directed/unix.gv",
    "Library/share/graphviz/graphs/directed/unix2.gv",
    "Library/share/graphviz/graphs/directed/viewfile.gv",
    "Library/share/graphviz/graphs/directed/viewfile.jpg",
    "Library/share/graphviz/graphs/directed/world.gif",
    "Library/share/graphviz/graphs/directed/world.gv",
    "Library/share/graphviz/graphs/smyrna/4elt.dot",
    "Library/share/graphviz/graphs/smyrna/world.dot",
    "Library/share/graphviz/graphs/undirected/ER.gv",
    "Library/share/graphviz/graphs/undirected/Heawood.gv",
    "Library/share/graphviz/graphs/undirected/Petersen.gv",
    "Library/share/graphviz/graphs/undirected/ngk10_4.gv",
    "Library/share/graphviz/graphs/undirected/process.gv",
    "Library/share/graphviz/gvedit/attributes.txt",
    "Library/share/graphviz/lefty/box.lefty",
    "Library/share/graphviz/lefty/def.lefty",
    "Library/share/graphviz/lefty/dotty.lefty",
    "Library/share/graphviz/lefty/dotty_draw.lefty",
    "Library/share/graphviz/lefty/dotty_edit.lefty",
    "Library/share/graphviz/lefty/dotty_layout.lefty",
    "Library/share/graphviz/lefty/dotty_ui.lefty",
    "Library/share/graphviz/lefty/fractal.lefty",
    "Library/share/graphviz/lefty/fractal2.lefty",
    "Library/share/graphviz/lefty/lefty.psp",
    "Library/share/graphviz/lefty/slides.lefty",
    "Library/share/graphviz/lefty/tree.lefty",
    "Library/share/graphviz/smyrna/2D.png",
    "Library/share/graphviz/smyrna/3D.png",
    "Library/share/graphviz/smyrna/AntiselectRect.png",
    "Library/share/graphviz/smyrna/AntiselectRectX.png",
    "Library/share/graphviz/smyrna/Makefile.am",
    "Library/share/graphviz/smyrna/Makefile.in",
    "Library/share/graphviz/smyrna/add_edge.png",
    "Library/share/graphviz/smyrna/arial.tga",
    "Library/share/graphviz/smyrna/attr_widgets.dot",
    "Library/share/graphviz/smyrna/attrs.txt",
    "Library/share/graphviz/smyrna/center.png",
    "Library/share/graphviz/smyrna/cursor.png",
    "Library/share/graphviz/smyrna/deletE_edge.png",
    "Library/share/graphviz/smyrna/delete_node.png",
    "Library/share/graphviz/smyrna/details.png",
    "Library/share/graphviz/smyrna/dot.PNG",
    "Library/share/graphviz/smyrna/edge.png",
    "Library/share/graphviz/smyrna/find_edge.png",
    "Library/share/graphviz/smyrna/find_node.png",
    "Library/share/graphviz/smyrna/fish.PNG",
    "Library/share/graphviz/smyrna/fisheye.png",
    "Library/share/graphviz/smyrna/fisheye.raw",
    "Library/share/graphviz/smyrna/fit.png",
    "Library/share/graphviz/smyrna/fit_to_screen.png",
    "Library/share/graphviz/smyrna/glade-3.png",
    "Library/share/graphviz/smyrna/hourglass.png",
    "Library/share/graphviz/smyrna/lcirco.png",
    "Library/share/graphviz/smyrna/ldot.png",
    "Library/share/graphviz/smyrna/lfdp.png",
    "Library/share/graphviz/smyrna/lneato.png",
    "Library/share/graphviz/smyrna/ltwopi.png",
    "Library/share/graphviz/smyrna/magifier_zoom_out.png",
    "Library/share/graphviz/smyrna/magnifier.png",
    "Library/share/graphviz/smyrna/magnifier_zoom_in.png",
    "Library/share/graphviz/smyrna/mod_3D.png",
    "Library/share/graphviz/smyrna/mod_fisheye.png",
    "Library/share/graphviz/smyrna/mouse_actions.txt",
    "Library/share/graphviz/smyrna/move.png",
    "Library/share/graphviz/smyrna/new_delete.png",
    "Library/share/graphviz/smyrna/new_node.png",
    "Library/share/graphviz/smyrna/newzoom.png",
    "Library/share/graphviz/smyrna/no_fisheye.png",
    "Library/share/graphviz/smyrna/node.png",
    "Library/share/graphviz/smyrna/ok.raw",
    "Library/share/graphviz/smyrna/ok2.raw",
    "Library/share/graphviz/smyrna/ok3.raw",
    "Library/share/graphviz/smyrna/pan.png",
    "Library/share/graphviz/smyrna/pan.raw",
    "Library/share/graphviz/smyrna/preview.png",
    "Library/share/graphviz/smyrna/rect_select.png",
    "Library/share/graphviz/smyrna/rect_select2.png",
    "Library/share/graphviz/smyrna/rotate.png",
    "Library/share/graphviz/smyrna/rotate.raw",
    "Library/share/graphviz/smyrna/select.png",
    "Library/share/graphviz/smyrna/selectr.png",
    "Library/share/graphviz/smyrna/selectx.png",
    "Library/share/graphviz/smyrna/single_select.png",
    "Library/share/graphviz/smyrna/smyrna.glade",
    "Library/share/graphviz/smyrna/template.dot",
    "Library/share/graphviz/smyrna/zoom.png",
    "Library/share/graphviz/smyrna/zoom.raw",
    "Library/share/graphviz/smyrna/zoom_in.png",
    "Library/share/graphviz/smyrna/zoom_out.png",
    "Library/share/graphviz/smyrna/zoomin.png",
    "Library/share/graphviz/smyrna/zoomminus.raw",
    "Library/share/graphviz/smyrna/zoomout.png",
    "Library/share/graphviz/smyrna/zoomplus.raw",
    "Library/share/license.rtf",
    "Library/share/setuplogo.bmp"
  ],
  "fn": "graphviz-2.38.0-4.tar.bz2",
  "license": "EPL v1.0",
  "license_family": "Other",
  "link": {
    "source": "C:\\Program Files\\Anaconda3\\pkgs\\graphviz-2.38.0-4",
    "type": 1
  },
  "md5": null,
  "name": "graphviz",
  "noarch": null,
  "platform": "win32",
  "preferred_env": null,
  "priority": 1,
  "schannel": "defaults",
  "subdir": "win-64",
  "url": "https://repo.continuum.io/pkgs/free/win-64/graphviz-2.38.0-4.tar.bz2",
  "version": "2.38.0",
  "with_features_depends": {}
}