{
  "arch": "x86_64",
  "auth": null,
  "build": "py36h3c5d0ee_0",
  "build_number": 0,
  "channel": null,
  "depends": [
    "python >=3.6,<3.7.0a0"
  ],
  "files": [
    "Lib/site-packages/ipython_genutils-0.2.0-py3.6.egg-info",
    "Lib/site-packages/ipython_genutils/__init__.py",
    "Lib/site-packages/ipython_genutils/__pycache__/__init__.cpython-36.pyc",
    "Lib/site-packages/ipython_genutils/__pycache__/_version.cpython-36.pyc",
    "Lib/site-packages/ipython_genutils/__pycache__/encoding.cpython-36.pyc",
    "Lib/site-packages/ipython_genutils/__pycache__/importstring.cpython-36.pyc",
    "Lib/site-packages/ipython_genutils/__pycache__/ipstruct.cpython-36.pyc",
    "Lib/site-packages/ipython_genutils/__pycache__/path.cpython-36.pyc",
    "Lib/site-packages/ipython_genutils/__pycache__/py3compat.cpython-36.pyc",
    "Lib/site-packages/ipython_genutils/__pycache__/tempdir.cpython-36.pyc",
    "Lib/site-packages/ipython_genutils/__pycache__/text.cpython-36.pyc",
    "Lib/site-packages/ipython_genutils/_version.py",
    "Lib/site-packages/ipython_genutils/encoding.py",
    "Lib/site-packages/ipython_genutils/importstring.py",
    "Lib/site-packages/ipython_genutils/ipstruct.py",
    "Lib/site-packages/ipython_genutils/path.py",
    "Lib/site-packages/ipython_genutils/py3compat.py",
    "Lib/site-packages/ipython_genutils/tempdir.py",
    "Lib/site-packages/ipython_genutils/testing/__init__.py",
    "Lib/site-packages/ipython_genutils/testing/__pycache__/__init__.cpython-36.pyc",
    "Lib/site-packages/ipython_genutils/testing/__pycache__/decorators.cpython-36.pyc",
    "Lib/site-packages/ipython_genutils/testing/decorators.py",
    "Lib/site-packages/ipython_genutils/tests/__init__.py",
    "Lib/site-packages/ipython_genutils/tests/__pycache__/__init__.cpython-36.pyc",
    "Lib/site-packages/ipython_genutils/tests/__pycache__/test_importstring.cpython-36.pyc",
    "Lib/site-packages/ipython_genutils/tests/__pycache__/test_path.cpython-36.pyc",
    "Lib/site-packages/ipython_genutils/tests/__pycache__/test_tempdir.cpython-36.pyc",
    "Lib/site-packages/ipython_genutils/tests/__pycache__/test_text.cpython-36.pyc",
    "Lib/site-packages/ipython_genutils/tests/test_importstring.py",
    "Lib/site-packages/ipython_genutils/tests/test_path.py",
    "Lib/site-packages/ipython_genutils/tests/test_tempdir.py",
    "Lib/site-packages/ipython_genutils/tests/test_text.py",
    "Lib/site-packages/ipython_genutils/text.py"
  ],
  "fn": "ipython_genutils-0.2.0-py36h3c5d0ee_0.tar.bz2",
  "license": "BSD 3-Clause",
  "link": {
    "source": "C:\\Program Files\\Anaconda3\\pkgs\\ipython_genutils-0.2.0-py36h3c5d0ee_0",
    "type": 1
  },
  "md5": null,
  "name": "ipython_genutils",
  "noarch": null,
  "platform": "win32",
  "preferred_env": null,
  "priority": 1,
  "schannel": "defaults",
  "subdir": "win-64",
  "timestamp": 1505849663408,
  "url": "https://repo.continuum.io/pkgs/main/win-64/ipython_genutils-0.2.0-py36h3c5d0ee_0.tar.bz2",
  "version": "0.2.0",
  "with_features_depends": {}
}