{
  "arch": "x86_64",
  "auth": null,
  "build": "py36h511e818_0",
  "build_number": 0,
  "channel": null,
  "depends": [
    "python >=3.6,<3.7.0a0",
    "traitlets"
  ],
  "files": [
    "Lib/site-packages/__pycache__/jupyter.cpython-36.pyc",
    "Lib/site-packages/jupyter.py",
    "Lib/site-packages/jupyter_core-4.3.0-py3.6.egg-info/PKG-INFO",
    "Lib/site-packages/jupyter_core-4.3.0-py3.6.egg-info/SOURCES.txt",
    "Lib/site-packages/jupyter_core-4.3.0-py3.6.egg-info/dependency_links.txt",
    "Lib/site-packages/jupyter_core-4.3.0-py3.6.egg-info/entry_points.txt",
    "Lib/site-packages/jupyter_core-4.3.0-py3.6.egg-info/installed-files.txt",
    "Lib/site-packages/jupyter_core-4.3.0-py3.6.egg-info/requires.txt",
    "Lib/site-packages/jupyter_core-4.3.0-py3.6.egg-info/top_level.txt",
    "Lib/site-packages/jupyter_core/__init__.py",
    "Lib/site-packages/jupyter_core/__main__.py",
    "Lib/site-packages/jupyter_core/__pycache__/__init__.cpython-36.pyc",
    "Lib/site-packages/jupyter_core/__pycache__/__main__.cpython-36.pyc",
    "Lib/site-packages/jupyter_core/__pycache__/application.cpython-36.pyc",
    "Lib/site-packages/jupyter_core/__pycache__/command.cpython-36.pyc",
    "Lib/site-packages/jupyter_core/__pycache__/migrate.cpython-36.pyc",
    "Lib/site-packages/jupyter_core/__pycache__/paths.cpython-36.pyc",
    "Lib/site-packages/jupyter_core/__pycache__/troubleshoot.cpython-36.pyc",
    "Lib/site-packages/jupyter_core/__pycache__/version.cpython-36.pyc",
    "Lib/site-packages/jupyter_core/application.py",
    "Lib/site-packages/jupyter_core/command.py",
    "Lib/site-packages/jupyter_core/migrate.py",
    "Lib/site-packages/jupyter_core/paths.py",
    "Lib/site-packages/jupyter_core/tests/__init__.py",
    "Lib/site-packages/jupyter_core/tests/__pycache__/__init__.cpython-36.pyc",
    "Lib/site-packages/jupyter_core/tests/__pycache__/mocking.cpython-36.pyc",
    "Lib/site-packages/jupyter_core/tests/__pycache__/test_application.cpython-36.pyc",
    "Lib/site-packages/jupyter_core/tests/__pycache__/test_command.cpython-36.pyc",
    "Lib/site-packages/jupyter_core/tests/__pycache__/test_migrate.cpython-36.pyc",
    "Lib/site-packages/jupyter_core/tests/__pycache__/test_paths.cpython-36.pyc",
    "Lib/site-packages/jupyter_core/tests/dotipython/nbextensions/myext.js",
    "Lib/site-packages/jupyter_core/tests/dotipython/profile_default/__pycache__/ipython_config.cpython-36.pyc",
    "Lib/site-packages/jupyter_core/tests/dotipython/profile_default/__pycache__/ipython_console_config.cpython-36.pyc",
    "Lib/site-packages/jupyter_core/tests/dotipython/profile_default/__pycache__/ipython_kernel_config.cpython-36.pyc",
    "Lib/site-packages/jupyter_core/tests/dotipython/profile_default/__pycache__/ipython_nbconvert_config.cpython-36.pyc",
    "Lib/site-packages/jupyter_core/tests/dotipython/profile_default/__pycache__/ipython_notebook_config.cpython-36.pyc",
    "Lib/site-packages/jupyter_core/tests/dotipython/profile_default/ipython_config.py",
    "Lib/site-packages/jupyter_core/tests/dotipython/profile_default/ipython_console_config.py",
    "Lib/site-packages/jupyter_core/tests/dotipython/profile_default/ipython_kernel_config.py",
    "Lib/site-packages/jupyter_core/tests/dotipython/profile_default/ipython_nbconvert_config.py",
    "Lib/site-packages/jupyter_core/tests/dotipython/profile_default/ipython_notebook_config.py",
    "Lib/site-packages/jupyter_core/tests/dotipython/profile_default/static/custom/custom.css",
    "Lib/site-packages/jupyter_core/tests/dotipython/profile_default/static/custom/custom.js",
    "Lib/site-packages/jupyter_core/tests/dotipython_empty/profile_default/__pycache__/ipython_config.cpython-36.pyc",
    "Lib/site-packages/jupyter_core/tests/dotipython_empty/profile_default/__pycache__/ipython_console_config.cpython-36.pyc",
    "Lib/site-packages/jupyter_core/tests/dotipython_empty/profile_default/__pycache__/ipython_kernel_config.cpython-36.pyc",
    "Lib/site-packages/jupyter_core/tests/dotipython_empty/profile_default/__pycache__/ipython_nbconvert_config.cpython-36.pyc",
    "Lib/site-packages/jupyter_core/tests/dotipython_empty/profile_default/__pycache__/ipython_notebook_config.cpython-36.pyc",
    "Lib/site-packages/jupyter_core/tests/dotipython_empty/profile_default/ipython_config.py",
    "Lib/site-packages/jupyter_core/tests/dotipython_empty/profile_default/ipython_console_config.py",
    "Lib/site-packages/jupyter_core/tests/dotipython_empty/profile_default/ipython_kernel_config.py",
    "Lib/site-packages/jupyter_core/tests/dotipython_empty/profile_default/ipython_nbconvert_config.py",
    "Lib/site-packages/jupyter_core/tests/dotipython_empty/profile_default/ipython_notebook_config.py",
    "Lib/site-packages/jupyter_core/tests/dotipython_empty/profile_default/static/custom/custom.css",
    "Lib/site-packages/jupyter_core/tests/dotipython_empty/profile_default/static/custom/custom.js",
    "Lib/site-packages/jupyter_core/tests/mocking.py",
    "Lib/site-packages/jupyter_core/tests/test_application.py",
    "Lib/site-packages/jupyter_core/tests/test_command.py",
    "Lib/site-packages/jupyter_core/tests/test_migrate.py",
    "Lib/site-packages/jupyter_core/tests/test_paths.py",
    "Lib/site-packages/jupyter_core/troubleshoot.py",
    "Lib/site-packages/jupyter_core/utils/__init__.py",
    "Lib/site-packages/jupyter_core/utils/__pycache__/__init__.cpython-36.pyc",
    "Lib/site-packages/jupyter_core/utils/__pycache__/shutil_which.cpython-36.pyc",
    "Lib/site-packages/jupyter_core/utils/shutil_which.py",
    "Lib/site-packages/jupyter_core/version.py",
    "Scripts/jupyter-migrate-script.py",
    "Scripts/jupyter-migrate.exe",
    "Scripts/jupyter-script.py",
    "Scripts/jupyter-troubleshoot-script.py",
    "Scripts/jupyter-troubleshoot.exe",
    "Scripts/jupyter.exe"
  ],
  "fn": "jupyter_core-4.3.0-py36h511e818_0.tar.bz2",
  "license": "BSD 3-clause",
  "link": {
    "source": "C:\\Program Files\\Anaconda3\\pkgs\\jupyter_core-4.3.0-py36h511e818_0",
    "type": 1
  },
  "md5": null,
  "name": "jupyter_core",
  "noarch": null,
  "platform": "win32",
  "preferred_env": null,
  "priority": 1,
  "schannel": "defaults",
  "subdir": "win-64",
  "timestamp": 1505849860752,
  "url": "https://repo.continuum.io/pkgs/main/win-64/jupyter_core-4.3.0-py36h511e818_0.tar.bz2",
  "version": "4.3.0",
  "with_features_depends": {}
}