{
  "arch": "x86_64",
  "auth": null,
  "build": "py36hff991e3_0",
  "build_number": 0,
  "channel": null,
  "depends": [
    "decorator >=3.4.0",
    "python >=3.6,<3.7.0a0"
  ],
  "files": [
    "Lib/site-packages/networkx-2.0-py3.6.egg-info/PKG-INFO",
    "Lib/site-packages/networkx-2.0-py3.6.egg-info/SOURCES.txt",
    "Lib/site-packages/networkx-2.0-py3.6.egg-info/dependency_links.txt",
    "Lib/site-packages/networkx-2.0-py3.6.egg-info/not-zip-safe",
    "Lib/site-packages/networkx-2.0-py3.6.egg-info/requires.txt",
    "Lib/site-packages/networkx-2.0-py3.6.egg-info/top_level.txt",
    "Lib/site-packages/networkx/__init__.py",
    "Lib/site-packages/networkx/__pycache__/__init__.cpython-36.pyc",
    "Lib/site-packages/networkx/__pycache__/convert.cpython-36.pyc",
    "Lib/site-packages/networkx/__pycache__/convert_matrix.cpython-36.pyc",
    "Lib/site-packages/networkx/__pycache__/exception.cpython-36.pyc",
    "Lib/site-packages/networkx/__pycache__/relabel.cpython-36.pyc",
    "Lib/site-packages/networkx/__pycache__/release.cpython-36.pyc",
    "Lib/site-packages/networkx/__pycache__/version.cpython-36.pyc",
    "Lib/site-packages/networkx/algorithms/__init__.py",
    "Lib/site-packages/networkx/algorithms/__pycache__/__init__.cpython-36.pyc",
    "Lib/site-packages/networkx/algorithms/__pycache__/boundary.cpython-36.pyc",
    "Lib/site-packages/networkx/algorithms/__pycache__/bridges.cpython-36.pyc",
    "Lib/site-packages/networkx/algorithms/__pycache__/chains.cpython-36.pyc",
    "Lib/site-packages/networkx/algorithms/__pycache__/chordal.cpython-36.pyc",
    "Lib/site-packages/networkx/algorithms/__pycache__/clique.cpython-36.pyc",
    "Lib/site-packages/networkx/algorithms/__pycache__/cluster.cpython-36.pyc",
    "Lib/site-packages/networkx/algorithms/__pycache__/communicability_alg.cpython-36.pyc",
    "Lib/site-packages/networkx/algorithms/__pycache__/core.cpython-36.pyc",
    "Lib/site-packages/networkx/algorithms/__pycache__/covering.cpython-36.pyc",
    "Lib/site-packages/networkx/algorithms/__pycache__/cuts.cpython-36.pyc",
    "Lib/site-packages/networkx/algorithms/__pycache__/cycles.cpython-36.pyc",
    "Lib/site-packages/networkx/algorithms/__pycache__/dag.cpython-36.pyc",
    "Lib/site-packages/networkx/algorithms/__pycache__/distance_measures.cpython-36.pyc",
    "Lib/site-packages/networkx/algorithms/__pycache__/distance_regular.cpython-36.pyc",
    "Lib/site-packages/networkx/algorithms/__pycache__/dominance.cpython-36.pyc",
    "Lib/site-packages/networkx/algorithms/__pycache__/dominating.cpython-36.pyc",
    "Lib/site-packages/networkx/algorithms/__pycache__/efficiency.cpython-36.pyc",
    "Lib/site-packages/networkx/algorithms/__pycache__/euler.cpython-36.pyc",
    "Lib/site-packages/networkx/algorithms/__pycache__/graphical.cpython-36.pyc",
    "Lib/site-packages/networkx/algorithms/__pycache__/hierarchy.cpython-36.pyc",
    "Lib/site-packages/networkx/algorithms/__pycache__/hybrid.cpython-36.pyc",
    "Lib/site-packages/networkx/algorithms/__pycache__/isolate.cpython-36.pyc",
    "Lib/site-packages/networkx/algorithms/__pycache__/link_prediction.cpython-36.pyc",
    "Lib/site-packages/networkx/algorithms/__pycache__/lowest_common_ancestors.cpython-36.pyc",
    "Lib/site-packages/networkx/algorithms/__pycache__/matching.cpython-36.pyc",
    "Lib/site-packages/networkx/algorithms/__pycache__/minors.cpython-36.pyc",
    "Lib/site-packages/networkx/algorithms/__pycache__/mis.cpython-36.pyc",
    "Lib/site-packages/networkx/algorithms/__pycache__/reciprocity.cpython-36.pyc",
    "Lib/site-packages/networkx/algorithms/__pycache__/richclub.cpython-36.pyc",
    "Lib/site-packages/networkx/algorithms/__pycache__/simple_paths.cpython-36.pyc",
    "Lib/site-packages/networkx/algorithms/__pycache__/smetric.cpython-36.pyc",
    "Lib/site-packages/networkx/algorithms/__pycache__/structuralholes.cpython-36.pyc",
    "Lib/site-packages/networkx/algorithms/__pycache__/swap.cpython-36.pyc",
    "Lib/site-packages/networkx/algorithms/__pycache__/threshold.cpython-36.pyc",
    "Lib/site-packages/networkx/algorithms/__pycache__/tournament.cpython-36.pyc",
    "Lib/site-packages/networkx/algorithms/__pycache__/triads.cpython-36.pyc",
    "Lib/site-packages/networkx/algorithms/__pycache__/vitality.cpython-36.pyc",
    "Lib/site-packages/networkx/algorithms/__pycache__/voronoi.cpython-36.pyc",
    "Lib/site-packages/networkx/algorithms/__pycache__/wiener.cpython-36.pyc",
    "Lib/site-packages/networkx/algorithms/approximation/__init__.py",
    "Lib/site-packages/networkx/algorithms/approximation/__pycache__/__init__.cpython-36.pyc",
    "Lib/site-packages/networkx/algorithms/approximation/__pycache__/clique.cpython-36.pyc",
    "Lib/site-packages/networkx/algorithms/approximation/__pycache__/clustering_coefficient.cpython-36.pyc",
    "Lib/site-packages/networkx/algorithms/approximation/__pycache__/connectivity.cpython-36.pyc",
    "Lib/site-packages/networkx/algorithms/approximation/__pycache__/dominating_set.cpython-36.pyc",
    "Lib/site-packages/networkx/algorithms/approximation/__pycache__/independent_set.cpython-36.pyc",
    "Lib/site-packages/networkx/algorithms/approximation/__pycache__/kcomponents.cpython-36.pyc",
    "Lib/site-packages/networkx/algorithms/approximation/__pycache__/matching.cpython-36.pyc",
    "Lib/site-packages/networkx/algorithms/approximation/__pycache__/ramsey.cpython-36.pyc",
    "Lib/site-packages/networkx/algorithms/approximation/__pycache__/vertex_cover.cpython-36.pyc",
    "Lib/site-packages/networkx/algorithms/approximation/clique.py",
    "Lib/site-packages/networkx/algorithms/approximation/clustering_coefficient.py",
    "Lib/site-packages/networkx/algorithms/approximation/connectivity.py",
    "Lib/site-packages/networkx/algorithms/approximation/dominating_set.py",
    "Lib/site-packages/networkx/algorithms/approximation/independent_set.py",
    "Lib/site-packages/networkx/algorithms/approximation/kcomponents.py",
    "Lib/site-packages/networkx/algorithms/approximation/matching.py",
    "Lib/site-packages/networkx/algorithms/approximation/ramsey.py",
    "Lib/site-packages/networkx/algorithms/approximation/tests/__pycache__/test_approx_clust_coeff.cpython-36.pyc",
    "Lib/site-packages/networkx/algorithms/approximation/tests/__pycache__/test_clique.cpython-36.pyc",
    "Lib/site-packages/networkx/algorithms/approximation/tests/__pycache__/test_connectivity.cpython-36.pyc",
    "Lib/site-packages/networkx/algorithms/approximation/tests/__pycache__/test_dominating_set.cpython-36.pyc",
    "Lib/site-packages/networkx/algorithms/approximation/tests/__pycache__/test_independent_set.cpython-36.pyc",
    "Lib/site-packages/networkx/algorithms/approximation/tests/__pycache__/test_kcomponents.cpython-36.pyc",
    "Lib/site-packages/networkx/algorithms/approximation/tests/__pycache__/test_matching.cpython-36.pyc",
    "Lib/site-packages/networkx/algorithms/approximation/tests/__pycache__/test_ramsey.cpython-36.pyc",
    "Lib/site-packages/networkx/algorithms/approximation/tests/__pycache__/test_vertex_cover.cpython-36.pyc",
    "Lib/site-packages/networkx/algorithms/approximation/tests/test_approx_clust_coeff.py",
    "Lib/site-packages/networkx/algorithms/approximation/tests/test_clique.py",
    "Lib/site-packages/networkx/algorithms/approximation/tests/test_connectivity.py",
    "Lib/site-packages/networkx/algorithms/approximation/tests/test_dominating_set.py",
    "Lib/site-packages/networkx/algorithms/approximation/tests/test_independent_set.py",
    "Lib/site-packages/networkx/algorithms/approximation/tests/test_kcomponents.py",
    "Lib/site-packages/networkx/algorithms/approximation/tests/test_matching.py",
    "Lib/site-packages/networkx/algorithms/approximation/tests/test_ramsey.py",
    "Lib/site-packages/networkx/algorithms/approximation/tests/test_vertex_cover.py",
    "Lib/site-packages/networkx/algorithms/approximation/vertex_cover.py",
    "Lib/site-packages/networkx/algorithms/assortativity/__init__.py",
    "Lib/site-packages/networkx/algorithms/assortativity/__pycache__/__init__.cpython-36.pyc",
    "Lib/site-packages/networkx/algorithms/assortativity/__pycache__/connectivity.cpython-36.pyc",
    "Lib/site-packages/networkx/algorithms/assortativity/__pycache__/correlation.cpython-36.pyc",
    "Lib/site-packages/networkx/algorithms/assortativity/__pycache__/mixing.cpython-36.pyc",
    "Lib/site-packages/networkx/algorithms/assortativity/__pycache__/neighbor_degree.cpython-36.pyc",
    "Lib/site-packages/networkx/algorithms/assortativity/__pycache__/pairs.cpython-36.pyc",
    "Lib/site-packages/networkx/algorithms/assortativity/connectivity.py",
    "Lib/site-packages/networkx/algorithms/assortativity/correlation.py",
    "Lib/site-packages/networkx/algorithms/assortativity/mixing.py",
    "Lib/site-packages/networkx/algorithms/assortativity/neighbor_degree.py",
    "Lib/site-packages/networkx/algorithms/assortativity/pairs.py",
    "Lib/site-packages/networkx/algorithms/assortativity/tests/__pycache__/base_test.cpython-36.pyc",
    "Lib/site-packages/networkx/algorithms/assortativity/tests/__pycache__/test_connectivity.cpython-36.pyc",
    "Lib/site-packages/networkx/algorithms/assortativity/tests/__pycache__/test_correlation.cpython-36.pyc",
    "Lib/site-packages/networkx/algorithms/assortativity/tests/__pycache__/test_mixing.cpython-36.pyc",
    "Lib/site-packages/networkx/algorithms/assortativity/tests/__pycache__/test_neighbor_degree.cpython-36.pyc",
    "Lib/site-packages/networkx/algorithms/assortativity/tests/__pycache__/test_pairs.cpython-36.pyc",
    "Lib/site-packages/networkx/algorithms/assortativity/tests/base_test.py",
    "Lib/site-packages/networkx/algorithms/assortativity/tests/test_connectivity.py",
    "Lib/site-packages/networkx/algorithms/assortativity/tests/test_correlation.py",
    "Lib/site-packages/networkx/algorithms/assortativity/tests/test_mixing.py",
    "Lib/site-packages/networkx/algorithms/assortativity/tests/test_neighbor_degree.py",
    "Lib/site-packages/networkx/algorithms/assortativity/tests/test_pairs.py",
    "Lib/site-packages/networkx/algorithms/bipartite/__init__.py",
    "Lib/site-packages/networkx/algorithms/bipartite/__pycache__/__init__.cpython-36.pyc",
    "Lib/site-packages/networkx/algorithms/bipartite/__pycache__/basic.cpython-36.pyc",
    "Lib/site-packages/networkx/algorithms/bipartite/__pycache__/centrality.cpython-36.pyc",
    "Lib/site-packages/networkx/algorithms/bipartite/__pycache__/cluster.cpython-36.pyc",
    "Lib/site-packages/networkx/algorithms/bipartite/__pycache__/covering.cpython-36.pyc",
    "Lib/site-packages/networkx/algorithms/bipartite/__pycache__/edgelist.cpython-36.pyc",
    "Lib/site-packages/networkx/algorithms/bipartite/__pycache__/generators.cpython-36.pyc",
    "Lib/site-packages/networkx/algorithms/bipartite/__pycache__/matching.cpython-36.pyc",
    "Lib/site-packages/networkx/algorithms/bipartite/__pycache__/matrix.cpython-36.pyc",
    "Lib/site-packages/networkx/algorithms/bipartite/__pycache__/projection.cpython-36.pyc",
    "Lib/site-packages/networkx/algorithms/bipartite/__pycache__/redundancy.cpython-36.pyc",
    "Lib/site-packages/networkx/algorithms/bipartite/__pycache__/spectral.cpython-36.pyc",
    "Lib/site-packages/networkx/algorithms/bipartite/basic.py",
    "Lib/site-packages/networkx/algorithms/bipartite/centrality.py",
    "Lib/site-packages/networkx/algorithms/bipartite/cluster.py",
    "Lib/site-packages/networkx/algorithms/bipartite/covering.py",
    "Lib/site-packages/networkx/algorithms/bipartite/edgelist.py",
    "Lib/site-packages/networkx/algorithms/bipartite/generators.py",
    "Lib/site-packages/networkx/algorithms/bipartite/matching.py",
    "Lib/site-packages/networkx/algorithms/bipartite/matrix.py",
    "Lib/site-packages/networkx/algorithms/bipartite/projection.py",
    "Lib/site-packages/networkx/algorithms/bipartite/redundancy.py",
    "Lib/site-packages/networkx/algorithms/bipartite/spectral.py",
    "Lib/site-packages/networkx/algorithms/bipartite/tests/__pycache__/test_basic.cpython-36.pyc",
    "Lib/site-packages/networkx/algorithms/bipartite/tests/__pycache__/test_centrality.cpython-36.pyc",
    "Lib/site-packages/networkx/algorithms/bipartite/tests/__pycache__/test_cluster.cpython-36.pyc",
    "Lib/site-packages/networkx/algorithms/bipartite/tests/__pycache__/test_covering.cpython-36.pyc",
    "Lib/site-packages/networkx/algorithms/bipartite/tests/__pycache__/test_edgelist.cpython-36.pyc",
    "Lib/site-packages/networkx/algorithms/bipartite/tests/__pycache__/test_generators.cpython-36.pyc",
    "Lib/site-packages/networkx/algorithms/bipartite/tests/__pycache__/test_matching.cpython-36.pyc",
    "Lib/site-packages/networkx/algorithms/bipartite/tests/__pycache__/test_matrix.cpython-36.pyc",
    "Lib/site-packages/networkx/algorithms/bipartite/tests/__pycache__/test_project.cpython-36.pyc",
    "Lib/site-packages/networkx/algorithms/bipartite/tests/__pycache__/test_redundancy.cpython-36.pyc",
    "Lib/site-packages/networkx/algorithms/bipartite/tests/__pycache__/test_spectral_bipartivity.cpython-36.pyc",
    "Lib/site-packages/networkx/algorithms/bipartite/tests/test_basic.py",
    "Lib/site-packages/networkx/algorithms/bipartite/tests/test_centrality.py",
    "Lib/site-packages/networkx/algorithms/bipartite/tests/test_cluster.py",
    "Lib/site-packages/networkx/algorithms/bipartite/tests/test_covering.py",
    "Lib/site-packages/networkx/algorithms/bipartite/tests/test_edgelist.py",
    "Lib/site-packages/networkx/algorithms/bipartite/tests/test_generators.py",
    "Lib/site-packages/networkx/algorithms/bipartite/tests/test_matching.py",
    "Lib/site-packages/networkx/algorithms/bipartite/tests/test_matrix.py",
    "Lib/site-packages/networkx/algorithms/bipartite/tests/test_project.py",
    "Lib/site-packages/networkx/algorithms/bipartite/tests/test_redundancy.py",
    "Lib/site-packages/networkx/algorithms/bipartite/tests/test_spectral_bipartivity.py",
    "Lib/site-packages/networkx/algorithms/boundary.py",
    "Lib/site-packages/networkx/algorithms/bridges.py",
    "Lib/site-packages/networkx/algorithms/centrality/__init__.py",
    "Lib/site-packages/networkx/algorithms/centrality/__pycache__/__init__.cpython-36.pyc",
    "Lib/site-packages/networkx/algorithms/centrality/__pycache__/betweenness.cpython-36.pyc",
    "Lib/site-packages/networkx/algorithms/centrality/__pycache__/betweenness_subset.cpython-36.pyc",
    "Lib/site-packages/networkx/algorithms/centrality/__pycache__/closeness.cpython-36.pyc",
    "Lib/site-packages/networkx/algorithms/centrality/__pycache__/current_flow_betweenness.cpython-36.pyc",
    "Lib/site-packages/networkx/algorithms/centrality/__pycache__/current_flow_betweenness_subset.cpython-36.pyc",
    "Lib/site-packages/networkx/algorithms/centrality/__pycache__/current_flow_closeness.cpython-36.pyc",
    "Lib/site-packages/networkx/algorithms/centrality/__pycache__/degree_alg.cpython-36.pyc",
    "Lib/site-packages/networkx/algorithms/centrality/__pycache__/dispersion.cpython-36.pyc",
    "Lib/site-packages/networkx/algorithms/centrality/__pycache__/eigenvector.cpython-36.pyc",
    "Lib/site-packages/networkx/algorithms/centrality/__pycache__/flow_matrix.cpython-36.pyc",
    "Lib/site-packages/networkx/algorithms/centrality/__pycache__/harmonic.cpython-36.pyc",
    "Lib/site-packages/networkx/algorithms/centrality/__pycache__/katz.cpython-36.pyc",
    "Lib/site-packages/networkx/algorithms/centrality/__pycache__/load.cpython-36.pyc",
    "Lib/site-packages/networkx/algorithms/centrality/__pycache__/reaching.cpython-36.pyc",
    "Lib/site-packages/networkx/algorithms/centrality/__pycache__/subgraph_alg.cpython-36.pyc",
    "Lib/site-packages/networkx/algorithms/centrality/betweenness.py",
    "Lib/site-packages/networkx/algorithms/centrality/betweenness_subset.py",
    "Lib/site-packages/networkx/algorithms/centrality/closeness.py",
    "Lib/site-packages/networkx/algorithms/centrality/current_flow_betweenness.py",
    "Lib/site-packages/networkx/algorithms/centrality/current_flow_betweenness_subset.py",
    "Lib/site-packages/networkx/algorithms/centrality/current_flow_closeness.py",
    "Lib/site-packages/networkx/algorithms/centrality/degree_alg.py",
    "Lib/site-packages/networkx/algorithms/centrality/dispersion.py",
    "Lib/site-packages/networkx/algorithms/centrality/eigenvector.py",
    "Lib/site-packages/networkx/algorithms/centrality/flow_matrix.py",
    "Lib/site-packages/networkx/algorithms/centrality/harmonic.py",
    "Lib/site-packages/networkx/algorithms/centrality/katz.py",
    "Lib/site-packages/networkx/algorithms/centrality/load.py",
    "Lib/site-packages/networkx/algorithms/centrality/reaching.py",
    "Lib/site-packages/networkx/algorithms/centrality/subgraph_alg.py",
    "Lib/site-packages/networkx/algorithms/centrality/tests/__pycache__/test_betweenness_centrality.cpython-36.pyc",
    "Lib/site-packages/networkx/algorithms/centrality/tests/__pycache__/test_betweenness_centrality_subset.cpython-36.pyc",
    "Lib/site-packages/networkx/algorithms/centrality/tests/__pycache__/test_closeness_centrality.cpython-36.pyc",
    "Lib/site-packages/networkx/algorithms/centrality/tests/__pycache__/test_current_flow_betweenness_centrality.cpython-36.pyc",
    "Lib/site-packages/networkx/algorithms/centrality/tests/__pycache__/test_current_flow_betweenness_centrality_subset.cpython-36.pyc",
    "Lib/site-packages/networkx/algorithms/centrality/tests/__pycache__/test_current_flow_closeness.cpython-36.pyc",
    "Lib/site-packages/networkx/algorithms/centrality/tests/__pycache__/test_degree_centrality.cpython-36.pyc",
    "Lib/site-packages/networkx/algorithms/centrality/tests/__pycache__/test_dispersion.cpython-36.pyc",
    "Lib/site-packages/networkx/algorithms/centrality/tests/__pycache__/test_eigenvector_centrality.cpython-36.pyc",
    "Lib/site-packages/networkx/algorithms/centrality/tests/__pycache__/test_harmonic_centrality.cpython-36.pyc",
    "Lib/site-packages/networkx/algorithms/centrality/tests/__pycache__/test_katz_centrality.cpython-36.pyc",
    "Lib/site-packages/networkx/algorithms/centrality/tests/__pycache__/test_load_centrality.cpython-36.pyc",
    "Lib/site-packages/networkx/algorithms/centrality/tests/__pycache__/test_reaching.cpython-36.pyc",
    "Lib/site-packages/networkx/algorithms/centrality/tests/__pycache__/test_subgraph.cpython-36.pyc",
    "Lib/site-packages/networkx/algorithms/centrality/tests/test_betweenness_centrality.py",
    "Lib/site-packages/networkx/algorithms/centrality/tests/test_betweenness_centrality_subset.py",
    "Lib/site-packages/networkx/algorithms/centrality/tests/test_closeness_centrality.py",
    "Lib/site-packages/networkx/algorithms/centrality/tests/test_current_flow_betweenness_centrality.py",
    "Lib/site-packages/networkx/algorithms/centrality/tests/test_current_flow_betweenness_centrality_subset.py",
    "Lib/site-packages/networkx/algorithms/centrality/tests/test_current_flow_closeness.py",
    "Lib/site-packages/networkx/algorithms/centrality/tests/test_degree_centrality.py",
    "Lib/site-packages/networkx/algorithms/centrality/tests/test_dispersion.py",
    "Lib/site-packages/networkx/algorithms/centrality/tests/test_eigenvector_centrality.py",
    "Lib/site-packages/networkx/algorithms/centrality/tests/test_harmonic_centrality.py",
    "Lib/site-packages/networkx/algorithms/centrality/tests/test_katz_centrality.py",
    "Lib/site-packages/networkx/algorithms/centrality/tests/test_load_centrality.py",
    "Lib/site-packages/networkx/algorithms/centrality/tests/test_reaching.py",
    "Lib/site-packages/networkx/algorithms/centrality/tests/test_subgraph.py",
    "Lib/site-packages/networkx/algorithms/chains.py",
    "Lib/site-packages/networkx/algorithms/chordal.py",
    "Lib/site-packages/networkx/algorithms/clique.py",
    "Lib/site-packages/networkx/algorithms/cluster.py",
    "Lib/site-packages/networkx/algorithms/coloring/__init__.py",
    "Lib/site-packages/networkx/algorithms/coloring/__pycache__/__init__.cpython-36.pyc",
    "Lib/site-packages/networkx/algorithms/coloring/__pycache__/greedy_coloring.cpython-36.pyc",
    "Lib/site-packages/networkx/algorithms/coloring/__pycache__/greedy_coloring_with_interchange.cpython-36.pyc",
    "Lib/site-packages/networkx/algorithms/coloring/greedy_coloring.py",
    "Lib/site-packages/networkx/algorithms/coloring/greedy_coloring_with_interchange.py",
    "Lib/site-packages/networkx/algorithms/coloring/tests/__pycache__/test_coloring.cpython-36.pyc",
    "Lib/site-packages/networkx/algorithms/coloring/tests/test_coloring.py",
    "Lib/site-packages/networkx/algorithms/communicability_alg.py",
    "Lib/site-packages/networkx/algorithms/community/__init__.py",
    "Lib/site-packages/networkx/algorithms/community/__pycache__/__init__.cpython-36.pyc",
    "Lib/site-packages/networkx/algorithms/community/__pycache__/asyn_fluidc.cpython-36.pyc",
    "Lib/site-packages/networkx/algorithms/community/__pycache__/asyn_lpa.cpython-36.pyc",
    "Lib/site-packages/networkx/algorithms/community/__pycache__/centrality.cpython-36.pyc",
    "Lib/site-packages/networkx/algorithms/community/__pycache__/community_generators.cpython-36.pyc",
    "Lib/site-packages/networkx/algorithms/community/__pycache__/community_utils.cpython-36.pyc",
    "Lib/site-packages/networkx/algorithms/community/__pycache__/kclique.cpython-36.pyc",
    "Lib/site-packages/networkx/algorithms/community/__pycache__/kernighan_lin.cpython-36.pyc",
    "Lib/site-packages/networkx/algorithms/community/__pycache__/quality.cpython-36.pyc",
    "Lib/site-packages/networkx/algorithms/community/asyn_fluidc.py",
    "Lib/site-packages/networkx/algorithms/community/asyn_lpa.py",
    "Lib/site-packages/networkx/algorithms/community/centrality.py",
    "Lib/site-packages/networkx/algorithms/community/community_generators.py",
    "Lib/site-packages/networkx/algorithms/community/community_utils.py",
    "Lib/site-packages/networkx/algorithms/community/kclique.py",
    "Lib/site-packages/networkx/algorithms/community/kernighan_lin.py",
    "Lib/site-packages/networkx/algorithms/community/quality.py",
    "Lib/site-packages/networkx/algorithms/community/tests/__pycache__/test_asyn_fluidc.cpython-36.pyc",
    "Lib/site-packages/networkx/algorithms/community/tests/__pycache__/test_asyn_lpa.cpython-36.pyc",
    "Lib/site-packages/networkx/algorithms/community/tests/__pycache__/test_centrality.cpython-36.pyc",
    "Lib/site-packages/networkx/algorithms/community/tests/__pycache__/test_generators.cpython-36.pyc",
    "Lib/site-packages/networkx/algorithms/community/tests/__pycache__/test_kclique.cpython-36.pyc",
    "Lib/site-packages/networkx/algorithms/community/tests/__pycache__/test_kernighan_lin.cpython-36.pyc",
    "Lib/site-packages/networkx/algorithms/community/tests/__pycache__/test_quality.cpython-36.pyc",
    "Lib/site-packages/networkx/algorithms/community/tests/__pycache__/test_utils.cpython-36.pyc",
    "Lib/site-packages/networkx/algorithms/community/tests/test_asyn_fluidc.py",
    "Lib/site-packages/networkx/algorithms/community/tests/test_asyn_lpa.py",
    "Lib/site-packages/networkx/algorithms/community/tests/test_centrality.py",
    "Lib/site-packages/networkx/algorithms/community/tests/test_generators.py",
    "Lib/site-packages/networkx/algorithms/community/tests/test_kclique.py",
    "Lib/site-packages/networkx/algorithms/community/tests/test_kernighan_lin.py",
    "Lib/site-packages/networkx/algorithms/community/tests/test_quality.py",
    "Lib/site-packages/networkx/algorithms/community/tests/test_utils.py",
    "Lib/site-packages/networkx/algorithms/components/__init__.py",
    "Lib/site-packages/networkx/algorithms/components/__pycache__/__init__.cpython-36.pyc",
    "Lib/site-packages/networkx/algorithms/components/__pycache__/attracting.cpython-36.pyc",
    "Lib/site-packages/networkx/algorithms/components/__pycache__/biconnected.cpython-36.pyc",
    "Lib/site-packages/networkx/algorithms/components/__pycache__/connected.cpython-36.pyc",
    "Lib/site-packages/networkx/algorithms/components/__pycache__/semiconnected.cpython-36.pyc",
    "Lib/site-packages/networkx/algorithms/components/__pycache__/strongly_connected.cpython-36.pyc",
    "Lib/site-packages/networkx/algorithms/components/__pycache__/weakly_connected.cpython-36.pyc",
    "Lib/site-packages/networkx/algorithms/components/attracting.py",
    "Lib/site-packages/networkx/algorithms/components/biconnected.py",
    "Lib/site-packages/networkx/algorithms/components/connected.py",
    "Lib/site-packages/networkx/algorithms/components/semiconnected.py",
    "Lib/site-packages/networkx/algorithms/components/strongly_connected.py",
    "Lib/site-packages/networkx/algorithms/components/tests/__pycache__/test_attracting.cpython-36.pyc",
    "Lib/site-packages/networkx/algorithms/components/tests/__pycache__/test_biconnected.cpython-36.pyc",
    "Lib/site-packages/networkx/algorithms/components/tests/__pycache__/test_connected.cpython-36.pyc",
    "Lib/site-packages/networkx/algorithms/components/tests/__pycache__/test_semiconnected.cpython-36.pyc",
    "Lib/site-packages/networkx/algorithms/components/tests/__pycache__/test_strongly_connected.cpython-36.pyc",
    "Lib/site-packages/networkx/algorithms/components/tests/__pycache__/test_subgraph_copies.cpython-36.pyc",
    "Lib/site-packages/networkx/algorithms/components/tests/__pycache__/test_weakly_connected.cpython-36.pyc",
    "Lib/site-packages/networkx/algorithms/components/tests/test_attracting.py",
    "Lib/site-packages/networkx/algorithms/components/tests/test_biconnected.py",
    "Lib/site-packages/networkx/algorithms/components/tests/test_connected.py",
    "Lib/site-packages/networkx/algorithms/components/tests/test_semiconnected.py",
    "Lib/site-packages/networkx/algorithms/components/tests/test_strongly_connected.py",
    "Lib/site-packages/networkx/algorithms/components/tests/test_subgraph_copies.py",
    "Lib/site-packages/networkx/algorithms/components/tests/test_weakly_connected.py",
    "Lib/site-packages/networkx/algorithms/components/weakly_connected.py",
    "Lib/site-packages/networkx/algorithms/connectivity/__init__.py",
    "Lib/site-packages/networkx/algorithms/connectivity/__pycache__/__init__.cpython-36.pyc",
    "Lib/site-packages/networkx/algorithms/connectivity/__pycache__/connectivity.cpython-36.pyc",
    "Lib/site-packages/networkx/algorithms/connectivity/__pycache__/cuts.cpython-36.pyc",
    "Lib/site-packages/networkx/algorithms/connectivity/__pycache__/edge_kcomponents.cpython-36.pyc",
    "Lib/site-packages/networkx/algorithms/connectivity/__pycache__/kcomponents.cpython-36.pyc",
    "Lib/site-packages/networkx/algorithms/connectivity/__pycache__/kcutsets.cpython-36.pyc",
    "Lib/site-packages/networkx/algorithms/connectivity/__pycache__/stoerwagner.cpython-36.pyc",
    "Lib/site-packages/networkx/algorithms/connectivity/__pycache__/utils.cpython-36.pyc",
    "Lib/site-packages/networkx/algorithms/connectivity/connectivity.py",
    "Lib/site-packages/networkx/algorithms/connectivity/cuts.py",
    "Lib/site-packages/networkx/algorithms/connectivity/edge_kcomponents.py",
    "Lib/site-packages/networkx/algorithms/connectivity/kcomponents.py",
    "Lib/site-packages/networkx/algorithms/connectivity/kcutsets.py",
    "Lib/site-packages/networkx/algorithms/connectivity/stoerwagner.py",
    "Lib/site-packages/networkx/algorithms/connectivity/tests/__pycache__/test_connectivity.cpython-36.pyc",
    "Lib/site-packages/networkx/algorithms/connectivity/tests/__pycache__/test_cuts.cpython-36.pyc",
    "Lib/site-packages/networkx/algorithms/connectivity/tests/__pycache__/test_edge_kcomponents.cpython-36.pyc",
    "Lib/site-packages/networkx/algorithms/connectivity/tests/__pycache__/test_kcomponents.cpython-36.pyc",
    "Lib/site-packages/networkx/algorithms/connectivity/tests/__pycache__/test_kcutsets.cpython-36.pyc",
    "Lib/site-packages/networkx/algorithms/connectivity/tests/__pycache__/test_stoer_wagner.cpython-36.pyc",
    "Lib/site-packages/networkx/algorithms/connectivity/tests/test_connectivity.py",
    "Lib/site-packages/networkx/algorithms/connectivity/tests/test_cuts.py",
    "Lib/site-packages/networkx/algorithms/connectivity/tests/test_edge_kcomponents.py",
    "Lib/site-packages/networkx/algorithms/connectivity/tests/test_kcomponents.py",
    "Lib/site-packages/networkx/algorithms/connectivity/tests/test_kcutsets.py",
    "Lib/site-packages/networkx/algorithms/connectivity/tests/test_stoer_wagner.py",
    "Lib/site-packages/networkx/algorithms/connectivity/utils.py",
    "Lib/site-packages/networkx/algorithms/core.py",
    "Lib/site-packages/networkx/algorithms/covering.py",
    "Lib/site-packages/networkx/algorithms/cuts.py",
    "Lib/site-packages/networkx/algorithms/cycles.py",
    "Lib/site-packages/networkx/algorithms/dag.py",
    "Lib/site-packages/networkx/algorithms/distance_measures.py",
    "Lib/site-packages/networkx/algorithms/distance_regular.py",
    "Lib/site-packages/networkx/algorithms/dominance.py",
    "Lib/site-packages/networkx/algorithms/dominating.py",
    "Lib/site-packages/networkx/algorithms/efficiency.py",
    "Lib/site-packages/networkx/algorithms/euler.py",
    "Lib/site-packages/networkx/algorithms/flow/__init__.py",
    "Lib/site-packages/networkx/algorithms/flow/__pycache__/__init__.cpython-36.pyc",
    "Lib/site-packages/networkx/algorithms/flow/__pycache__/boykovkolmogorov.cpython-36.pyc",
    "Lib/site-packages/networkx/algorithms/flow/__pycache__/capacityscaling.cpython-36.pyc",
    "Lib/site-packages/networkx/algorithms/flow/__pycache__/dinitz_alg.cpython-36.pyc",
    "Lib/site-packages/networkx/algorithms/flow/__pycache__/edmondskarp.cpython-36.pyc",
    "Lib/site-packages/networkx/algorithms/flow/__pycache__/gomory_hu.cpython-36.pyc",
    "Lib/site-packages/networkx/algorithms/flow/__pycache__/maxflow.cpython-36.pyc",
    "Lib/site-packages/networkx/algorithms/flow/__pycache__/mincost.cpython-36.pyc",
    "Lib/site-packages/networkx/algorithms/flow/__pycache__/networksimplex.cpython-36.pyc",
    "Lib/site-packages/networkx/algorithms/flow/__pycache__/preflowpush.cpython-36.pyc",
    "Lib/site-packages/networkx/algorithms/flow/__pycache__/shortestaugmentingpath.cpython-36.pyc",
    "Lib/site-packages/networkx/algorithms/flow/__pycache__/utils.cpython-36.pyc",
    "Lib/site-packages/networkx/algorithms/flow/boykovkolmogorov.py",
    "Lib/site-packages/networkx/algorithms/flow/capacityscaling.py",
    "Lib/site-packages/networkx/algorithms/flow/dinitz_alg.py",
    "Lib/site-packages/networkx/algorithms/flow/edmondskarp.py",
    "Lib/site-packages/networkx/algorithms/flow/gomory_hu.py",
    "Lib/site-packages/networkx/algorithms/flow/maxflow.py",
    "Lib/site-packages/networkx/algorithms/flow/mincost.py",
    "Lib/site-packages/networkx/algorithms/flow/networksimplex.py",
    "Lib/site-packages/networkx/algorithms/flow/preflowpush.py",
    "Lib/site-packages/networkx/algorithms/flow/shortestaugmentingpath.py",
    "Lib/site-packages/networkx/algorithms/flow/tests/__pycache__/test_gomory_hu.cpython-36.pyc",
    "Lib/site-packages/networkx/algorithms/flow/tests/__pycache__/test_maxflow.cpython-36.pyc",
    "Lib/site-packages/networkx/algorithms/flow/tests/__pycache__/test_maxflow_large_graph.cpython-36.pyc",
    "Lib/site-packages/networkx/algorithms/flow/tests/__pycache__/test_mincost.cpython-36.pyc",
    "Lib/site-packages/networkx/algorithms/flow/tests/gl1.gpickle.bz2",
    "Lib/site-packages/networkx/algorithms/flow/tests/gw1.gpickle.bz2",
    "Lib/site-packages/networkx/algorithms/flow/tests/netgen-2.gpickle.bz2",
    "Lib/site-packages/networkx/algorithms/flow/tests/test_gomory_hu.py",
    "Lib/site-packages/networkx/algorithms/flow/tests/test_maxflow.py",
    "Lib/site-packages/networkx/algorithms/flow/tests/test_maxflow_large_graph.py",
    "Lib/site-packages/networkx/algorithms/flow/tests/test_mincost.py",
    "Lib/site-packages/networkx/algorithms/flow/tests/wlm3.gpickle.bz2",
    "Lib/site-packages/networkx/algorithms/flow/utils.py",
    "Lib/site-packages/networkx/algorithms/graphical.py",
    "Lib/site-packages/networkx/algorithms/hierarchy.py",
    "Lib/site-packages/networkx/algorithms/hybrid.py",
    "Lib/site-packages/networkx/algorithms/isolate.py",
    "Lib/site-packages/networkx/algorithms/isomorphism/__init__.py",
    "Lib/site-packages/networkx/algorithms/isomorphism/__pycache__/__init__.cpython-36.pyc",
    "Lib/site-packages/networkx/algorithms/isomorphism/__pycache__/isomorph.cpython-36.pyc",
    "Lib/site-packages/networkx/algorithms/isomorphism/__pycache__/isomorphvf2.cpython-36.pyc",
    "Lib/site-packages/networkx/algorithms/isomorphism/__pycache__/matchhelpers.cpython-36.pyc",
    "Lib/site-packages/networkx/algorithms/isomorphism/__pycache__/temporalisomorphvf2.cpython-36.pyc",
    "Lib/site-packages/networkx/algorithms/isomorphism/__pycache__/vf2userfunc.cpython-36.pyc",
    "Lib/site-packages/networkx/algorithms/isomorphism/isomorph.py",
    "Lib/site-packages/networkx/algorithms/isomorphism/isomorphvf2.py",
    "Lib/site-packages/networkx/algorithms/isomorphism/matchhelpers.py",
    "Lib/site-packages/networkx/algorithms/isomorphism/temporalisomorphvf2.py",
    "Lib/site-packages/networkx/algorithms/isomorphism/tests/__pycache__/test_isomorphism.cpython-36.pyc",
    "Lib/site-packages/networkx/algorithms/isomorphism/tests/__pycache__/test_isomorphvf2.cpython-36.pyc",
    "Lib/site-packages/networkx/algorithms/isomorphism/tests/__pycache__/test_match_helpers.cpython-36.pyc",
    "Lib/site-packages/networkx/algorithms/isomorphism/tests/__pycache__/test_temporalisomorphvf2.cpython-36.pyc",
    "Lib/site-packages/networkx/algorithms/isomorphism/tests/__pycache__/test_vf2userfunc.cpython-36.pyc",
    "Lib/site-packages/networkx/algorithms/isomorphism/tests/iso_r01_s80.A99",
    "Lib/site-packages/networkx/algorithms/isomorphism/tests/iso_r01_s80.B99",
    "Lib/site-packages/networkx/algorithms/isomorphism/tests/si2_b06_m200.A99",
    "Lib/site-packages/networkx/algorithms/isomorphism/tests/si2_b06_m200.B99",
    "Lib/site-packages/networkx/algorithms/isomorphism/tests/test_isomorphism.py",
    "Lib/site-packages/networkx/algorithms/isomorphism/tests/test_isomorphvf2.py",
    "Lib/site-packages/networkx/algorithms/isomorphism/tests/test_match_helpers.py",
    "Lib/site-packages/networkx/algorithms/isomorphism/tests/test_temporalisomorphvf2.py",
    "Lib/site-packages/networkx/algorithms/isomorphism/tests/test_vf2userfunc.py",
    "Lib/site-packages/networkx/algorithms/isomorphism/vf2userfunc.py",
    "Lib/site-packages/networkx/algorithms/link_analysis/__init__.py",
    "Lib/site-packages/networkx/algorithms/link_analysis/__pycache__/__init__.cpython-36.pyc",
    "Lib/site-packages/networkx/algorithms/link_analysis/__pycache__/hits_alg.cpython-36.pyc",
    "Lib/site-packages/networkx/algorithms/link_analysis/__pycache__/pagerank_alg.cpython-36.pyc",
    "Lib/site-packages/networkx/algorithms/link_analysis/hits_alg.py",
    "Lib/site-packages/networkx/algorithms/link_analysis/pagerank_alg.py",
    "Lib/site-packages/networkx/algorithms/link_analysis/tests/__pycache__/test_hits.cpython-36.pyc",
    "Lib/site-packages/networkx/algorithms/link_analysis/tests/__pycache__/test_pagerank.cpython-36.pyc",
    "Lib/site-packages/networkx/algorithms/link_analysis/tests/test_hits.py",
    "Lib/site-packages/networkx/algorithms/link_analysis/tests/test_pagerank.py",
    "Lib/site-packages/networkx/algorithms/link_prediction.py",
    "Lib/site-packages/networkx/algorithms/lowest_common_ancestors.py",
    "Lib/site-packages/networkx/algorithms/matching.py",
    "Lib/site-packages/networkx/algorithms/minors.py",
    "Lib/site-packages/networkx/algorithms/mis.py",
    "Lib/site-packages/networkx/algorithms/operators/__init__.py",
    "Lib/site-packages/networkx/algorithms/operators/__pycache__/__init__.cpython-36.pyc",
    "Lib/site-packages/networkx/algorithms/operators/__pycache__/all.cpython-36.pyc",
    "Lib/site-packages/networkx/algorithms/operators/__pycache__/binary.cpython-36.pyc",
    "Lib/site-packages/networkx/algorithms/operators/__pycache__/product.cpython-36.pyc",
    "Lib/site-packages/networkx/algorithms/operators/__pycache__/unary.cpython-36.pyc",
    "Lib/site-packages/networkx/algorithms/operators/all.py",
    "Lib/site-packages/networkx/algorithms/operators/binary.py",
    "Lib/site-packages/networkx/algorithms/operators/product.py",
    "Lib/site-packages/networkx/algorithms/operators/tests/__pycache__/test_all.cpython-36.pyc",
    "Lib/site-packages/networkx/algorithms/operators/tests/__pycache__/test_binary.cpython-36.pyc",
    "Lib/site-packages/networkx/algorithms/operators/tests/__pycache__/test_product.cpython-36.pyc",
    "Lib/site-packages/networkx/algorithms/operators/tests/__pycache__/test_unary.cpython-36.pyc",
    "Lib/site-packages/networkx/algorithms/operators/tests/test_all.py",
    "Lib/site-packages/networkx/algorithms/operators/tests/test_binary.py",
    "Lib/site-packages/networkx/algorithms/operators/tests/test_product.py",
    "Lib/site-packages/networkx/algorithms/operators/tests/test_unary.py",
    "Lib/site-packages/networkx/algorithms/operators/unary.py",
    "Lib/site-packages/networkx/algorithms/reciprocity.py",
    "Lib/site-packages/networkx/algorithms/richclub.py",
    "Lib/site-packages/networkx/algorithms/shortest_paths/__init__.py",
    "Lib/site-packages/networkx/algorithms/shortest_paths/__pycache__/__init__.cpython-36.pyc",
    "Lib/site-packages/networkx/algorithms/shortest_paths/__pycache__/astar.cpython-36.pyc",
    "Lib/site-packages/networkx/algorithms/shortest_paths/__pycache__/dense.cpython-36.pyc",
    "Lib/site-packages/networkx/algorithms/shortest_paths/__pycache__/generic.cpython-36.pyc",
    "Lib/site-packages/networkx/algorithms/shortest_paths/__pycache__/unweighted.cpython-36.pyc",
    "Lib/site-packages/networkx/algorithms/shortest_paths/__pycache__/weighted.cpython-36.pyc",
    "Lib/site-packages/networkx/algorithms/shortest_paths/astar.py",
    "Lib/site-packages/networkx/algorithms/shortest_paths/dense.py",
    "Lib/site-packages/networkx/algorithms/shortest_paths/generic.py",
    "Lib/site-packages/networkx/algorithms/shortest_paths/tests/__pycache__/test_astar.cpython-36.pyc",
    "Lib/site-packages/networkx/algorithms/shortest_paths/tests/__pycache__/test_dense.cpython-36.pyc",
    "Lib/site-packages/networkx/algorithms/shortest_paths/tests/__pycache__/test_dense_numpy.cpython-36.pyc",
    "Lib/site-packages/networkx/algorithms/shortest_paths/tests/__pycache__/test_generic.cpython-36.pyc",
    "Lib/site-packages/networkx/algorithms/shortest_paths/tests/__pycache__/test_unweighted.cpython-36.pyc",
    "Lib/site-packages/networkx/algorithms/shortest_paths/tests/__pycache__/test_weighted.cpython-36.pyc",
    "Lib/site-packages/networkx/algorithms/shortest_paths/tests/test_astar.py",
    "Lib/site-packages/networkx/algorithms/shortest_paths/tests/test_dense.py",
    "Lib/site-packages/networkx/algorithms/shortest_paths/tests/test_dense_numpy.py",
    "Lib/site-packages/networkx/algorithms/shortest_paths/tests/test_generic.py",
    "Lib/site-packages/networkx/algorithms/shortest_paths/tests/test_unweighted.py",
    "Lib/site-packages/networkx/algorithms/shortest_paths/tests/test_weighted.py",
    "Lib/site-packages/networkx/algorithms/shortest_paths/unweighted.py",
    "Lib/site-packages/networkx/algorithms/shortest_paths/weighted.py",
    "Lib/site-packages/networkx/algorithms/simple_paths.py",
    "Lib/site-packages/networkx/algorithms/smetric.py",
    "Lib/site-packages/networkx/algorithms/structuralholes.py",
    "Lib/site-packages/networkx/algorithms/swap.py",
    "Lib/site-packages/networkx/algorithms/tests/__pycache__/test_boundary.cpython-36.pyc",
    "Lib/site-packages/networkx/algorithms/tests/__pycache__/test_bridges.cpython-36.pyc",
    "Lib/site-packages/networkx/algorithms/tests/__pycache__/test_chains.cpython-36.pyc",
    "Lib/site-packages/networkx/algorithms/tests/__pycache__/test_chordal.cpython-36.pyc",
    "Lib/site-packages/networkx/algorithms/tests/__pycache__/test_clique.cpython-36.pyc",
    "Lib/site-packages/networkx/algorithms/tests/__pycache__/test_cluster.cpython-36.pyc",
    "Lib/site-packages/networkx/algorithms/tests/__pycache__/test_communicability.cpython-36.pyc",
    "Lib/site-packages/networkx/algorithms/tests/__pycache__/test_core.cpython-36.pyc",
    "Lib/site-packages/networkx/algorithms/tests/__pycache__/test_covering.cpython-36.pyc",
    "Lib/site-packages/networkx/algorithms/tests/__pycache__/test_cuts.cpython-36.pyc",
    "Lib/site-packages/networkx/algorithms/tests/__pycache__/test_cycles.cpython-36.pyc",
    "Lib/site-packages/networkx/algorithms/tests/__pycache__/test_dag.cpython-36.pyc",
    "Lib/site-packages/networkx/algorithms/tests/__pycache__/test_distance_measures.cpython-36.pyc",
    "Lib/site-packages/networkx/algorithms/tests/__pycache__/test_distance_regular.cpython-36.pyc",
    "Lib/site-packages/networkx/algorithms/tests/__pycache__/test_dominance.cpython-36.pyc",
    "Lib/site-packages/networkx/algorithms/tests/__pycache__/test_dominating.cpython-36.pyc",
    "Lib/site-packages/networkx/algorithms/tests/__pycache__/test_efficiency.cpython-36.pyc",
    "Lib/site-packages/networkx/algorithms/tests/__pycache__/test_euler.cpython-36.pyc",
    "Lib/site-packages/networkx/algorithms/tests/__pycache__/test_graphical.cpython-36.pyc",
    "Lib/site-packages/networkx/algorithms/tests/__pycache__/test_hierarchy.cpython-36.pyc",
    "Lib/site-packages/networkx/algorithms/tests/__pycache__/test_hybrid.cpython-36.pyc",
    "Lib/site-packages/networkx/algorithms/tests/__pycache__/test_isolate.cpython-36.pyc",
    "Lib/site-packages/networkx/algorithms/tests/__pycache__/test_link_prediction.cpython-36.pyc",
    "Lib/site-packages/networkx/algorithms/tests/__pycache__/test_lowest_common_ancestors.cpython-36.pyc",
    "Lib/site-packages/networkx/algorithms/tests/__pycache__/test_matching.cpython-36.pyc",
    "Lib/site-packages/networkx/algorithms/tests/__pycache__/test_minors.cpython-36.pyc",
    "Lib/site-packages/networkx/algorithms/tests/__pycache__/test_mis.cpython-36.pyc",
    "Lib/site-packages/networkx/algorithms/tests/__pycache__/test_reciprocity.cpython-36.pyc",
    "Lib/site-packages/networkx/algorithms/tests/__pycache__/test_richclub.cpython-36.pyc",
    "Lib/site-packages/networkx/algorithms/tests/__pycache__/test_simple_paths.cpython-36.pyc",
    "Lib/site-packages/networkx/algorithms/tests/__pycache__/test_smetric.cpython-36.pyc",
    "Lib/site-packages/networkx/algorithms/tests/__pycache__/test_structuralholes.cpython-36.pyc",
    "Lib/site-packages/networkx/algorithms/tests/__pycache__/test_swap.cpython-36.pyc",
    "Lib/site-packages/networkx/algorithms/tests/__pycache__/test_threshold.cpython-36.pyc",
    "Lib/site-packages/networkx/algorithms/tests/__pycache__/test_tournament.cpython-36.pyc",
    "Lib/site-packages/networkx/algorithms/tests/__pycache__/test_triads.cpython-36.pyc",
    "Lib/site-packages/networkx/algorithms/tests/__pycache__/test_vitality.cpython-36.pyc",
    "Lib/site-packages/networkx/algorithms/tests/__pycache__/test_voronoi.cpython-36.pyc",
    "Lib/site-packages/networkx/algorithms/tests/__pycache__/test_wiener.cpython-36.pyc",
    "Lib/site-packages/networkx/algorithms/tests/test_boundary.py",
    "Lib/site-packages/networkx/algorithms/tests/test_bridges.py",
    "Lib/site-packages/networkx/algorithms/tests/test_chains.py",
    "Lib/site-packages/networkx/algorithms/tests/test_chordal.py",
    "Lib/site-packages/networkx/algorithms/tests/test_clique.py",
    "Lib/site-packages/networkx/algorithms/tests/test_cluster.py",
    "Lib/site-packages/networkx/algorithms/tests/test_communicability.py",
    "Lib/site-packages/networkx/algorithms/tests/test_core.py",
    "Lib/site-packages/networkx/algorithms/tests/test_covering.py",
    "Lib/site-packages/networkx/algorithms/tests/test_cuts.py",
    "Lib/site-packages/networkx/algorithms/tests/test_cycles.py",
    "Lib/site-packages/networkx/algorithms/tests/test_dag.py",
    "Lib/site-packages/networkx/algorithms/tests/test_distance_measures.py",
    "Lib/site-packages/networkx/algorithms/tests/test_distance_regular.py",
    "Lib/site-packages/networkx/algorithms/tests/test_dominance.py",
    "Lib/site-packages/networkx/algorithms/tests/test_dominating.py",
    "Lib/site-packages/networkx/algorithms/tests/test_efficiency.py",
    "Lib/site-packages/networkx/algorithms/tests/test_euler.py",
    "Lib/site-packages/networkx/algorithms/tests/test_graphical.py",
    "Lib/site-packages/networkx/algorithms/tests/test_hierarchy.py",
    "Lib/site-packages/networkx/algorithms/tests/test_hybrid.py",
    "Lib/site-packages/networkx/algorithms/tests/test_isolate.py",
    "Lib/site-packages/networkx/algorithms/tests/test_link_prediction.py",
    "Lib/site-packages/networkx/algorithms/tests/test_lowest_common_ancestors.py",
    "Lib/site-packages/networkx/algorithms/tests/test_matching.py",
    "Lib/site-packages/networkx/algorithms/tests/test_minors.py",
    "Lib/site-packages/networkx/algorithms/tests/test_mis.py",
    "Lib/site-packages/networkx/algorithms/tests/test_reciprocity.py",
    "Lib/site-packages/networkx/algorithms/tests/test_richclub.py",
    "Lib/site-packages/networkx/algorithms/tests/test_simple_paths.py",
    "Lib/site-packages/networkx/algorithms/tests/test_smetric.py",
    "Lib/site-packages/networkx/algorithms/tests/test_structuralholes.py",
    "Lib/site-packages/networkx/algorithms/tests/test_swap.py",
    "Lib/site-packages/networkx/algorithms/tests/test_threshold.py",
    "Lib/site-packages/networkx/algorithms/tests/test_tournament.py",
    "Lib/site-packages/networkx/algorithms/tests/test_triads.py",
    "Lib/site-packages/networkx/algorithms/tests/test_vitality.py",
    "Lib/site-packages/networkx/algorithms/tests/test_voronoi.py",
    "Lib/site-packages/networkx/algorithms/tests/test_wiener.py",
    "Lib/site-packages/networkx/algorithms/threshold.py",
    "Lib/site-packages/networkx/algorithms/tournament.py",
    "Lib/site-packages/networkx/algorithms/traversal/__init__.py",
    "Lib/site-packages/networkx/algorithms/traversal/__pycache__/__init__.cpython-36.pyc",
    "Lib/site-packages/networkx/algorithms/traversal/__pycache__/beamsearch.cpython-36.pyc",
    "Lib/site-packages/networkx/algorithms/traversal/__pycache__/breadth_first_search.cpython-36.pyc",
    "Lib/site-packages/networkx/algorithms/traversal/__pycache__/depth_first_search.cpython-36.pyc",
    "Lib/site-packages/networkx/algorithms/traversal/__pycache__/edgedfs.cpython-36.pyc",
    "Lib/site-packages/networkx/algorithms/traversal/beamsearch.py",
    "Lib/site-packages/networkx/algorithms/traversal/breadth_first_search.py",
    "Lib/site-packages/networkx/algorithms/traversal/depth_first_search.py",
    "Lib/site-packages/networkx/algorithms/traversal/edgedfs.py",
    "Lib/site-packages/networkx/algorithms/traversal/tests/__pycache__/test_beamsearch.cpython-36.pyc",
    "Lib/site-packages/networkx/algorithms/traversal/tests/__pycache__/test_bfs.cpython-36.pyc",
    "Lib/site-packages/networkx/algorithms/traversal/tests/__pycache__/test_dfs.cpython-36.pyc",
    "Lib/site-packages/networkx/algorithms/traversal/tests/__pycache__/test_edgedfs.cpython-36.pyc",
    "Lib/site-packages/networkx/algorithms/traversal/tests/test_beamsearch.py",
    "Lib/site-packages/networkx/algorithms/traversal/tests/test_bfs.py",
    "Lib/site-packages/networkx/algorithms/traversal/tests/test_dfs.py",
    "Lib/site-packages/networkx/algorithms/traversal/tests/test_edgedfs.py",
    "Lib/site-packages/networkx/algorithms/tree/__init__.py",
    "Lib/site-packages/networkx/algorithms/tree/__pycache__/__init__.cpython-36.pyc",
    "Lib/site-packages/networkx/algorithms/tree/__pycache__/branchings.cpython-36.pyc",
    "Lib/site-packages/networkx/algorithms/tree/__pycache__/coding.cpython-36.pyc",
    "Lib/site-packages/networkx/algorithms/tree/__pycache__/mst.cpython-36.pyc",
    "Lib/site-packages/networkx/algorithms/tree/__pycache__/operations.cpython-36.pyc",
    "Lib/site-packages/networkx/algorithms/tree/__pycache__/recognition.cpython-36.pyc",
    "Lib/site-packages/networkx/algorithms/tree/branchings.py",
    "Lib/site-packages/networkx/algorithms/tree/coding.py",
    "Lib/site-packages/networkx/algorithms/tree/mst.py",
    "Lib/site-packages/networkx/algorithms/tree/operations.py",
    "Lib/site-packages/networkx/algorithms/tree/recognition.py",
    "Lib/site-packages/networkx/algorithms/tree/tests/__pycache__/test_branchings.cpython-36.pyc",
    "Lib/site-packages/networkx/algorithms/tree/tests/__pycache__/test_coding.cpython-36.pyc",
    "Lib/site-packages/networkx/algorithms/tree/tests/__pycache__/test_mst.cpython-36.pyc",
    "Lib/site-packages/networkx/algorithms/tree/tests/__pycache__/test_operations.cpython-36.pyc",
    "Lib/site-packages/networkx/algorithms/tree/tests/__pycache__/test_recognition.cpython-36.pyc",
    "Lib/site-packages/networkx/algorithms/tree/tests/test_branchings.py",
    "Lib/site-packages/networkx/algorithms/tree/tests/test_coding.py",
    "Lib/site-packages/networkx/algorithms/tree/tests/test_mst.py",
    "Lib/site-packages/networkx/algorithms/tree/tests/test_operations.py",
    "Lib/site-packages/networkx/algorithms/tree/tests/test_recognition.py",
    "Lib/site-packages/networkx/algorithms/triads.py",
    "Lib/site-packages/networkx/algorithms/vitality.py",
    "Lib/site-packages/networkx/algorithms/voronoi.py",
    "Lib/site-packages/networkx/algorithms/wiener.py",
    "Lib/site-packages/networkx/classes/__init__.py",
    "Lib/site-packages/networkx/classes/__pycache__/__init__.cpython-36.pyc",
    "Lib/site-packages/networkx/classes/__pycache__/coreviews.cpython-36.pyc",
    "Lib/site-packages/networkx/classes/__pycache__/digraph.cpython-36.pyc",
    "Lib/site-packages/networkx/classes/__pycache__/filters.cpython-36.pyc",
    "Lib/site-packages/networkx/classes/__pycache__/function.cpython-36.pyc",
    "Lib/site-packages/networkx/classes/__pycache__/graph.cpython-36.pyc",
    "Lib/site-packages/networkx/classes/__pycache__/graphviews.cpython-36.pyc",
    "Lib/site-packages/networkx/classes/__pycache__/multidigraph.cpython-36.pyc",
    "Lib/site-packages/networkx/classes/__pycache__/multigraph.cpython-36.pyc",
    "Lib/site-packages/networkx/classes/__pycache__/ordered.cpython-36.pyc",
    "Lib/site-packages/networkx/classes/__pycache__/reportviews.cpython-36.pyc",
    "Lib/site-packages/networkx/classes/coreviews.py",
    "Lib/site-packages/networkx/classes/digraph.py",
    "Lib/site-packages/networkx/classes/filters.py",
    "Lib/site-packages/networkx/classes/function.py",
    "Lib/site-packages/networkx/classes/graph.py",
    "Lib/site-packages/networkx/classes/graphviews.py",
    "Lib/site-packages/networkx/classes/multidigraph.py",
    "Lib/site-packages/networkx/classes/multigraph.py",
    "Lib/site-packages/networkx/classes/ordered.py",
    "Lib/site-packages/networkx/classes/reportviews.py",
    "Lib/site-packages/networkx/classes/tests/__pycache__/historical_tests.cpython-36.pyc",
    "Lib/site-packages/networkx/classes/tests/__pycache__/test_coreviews.cpython-36.pyc",
    "Lib/site-packages/networkx/classes/tests/__pycache__/test_digraph.cpython-36.pyc",
    "Lib/site-packages/networkx/classes/tests/__pycache__/test_digraph_historical.cpython-36.pyc",
    "Lib/site-packages/networkx/classes/tests/__pycache__/test_filters.cpython-36.pyc",
    "Lib/site-packages/networkx/classes/tests/__pycache__/test_function.cpython-36.pyc",
    "Lib/site-packages/networkx/classes/tests/__pycache__/test_graph.cpython-36.pyc",
    "Lib/site-packages/networkx/classes/tests/__pycache__/test_graph_historical.cpython-36.pyc",
    "Lib/site-packages/networkx/classes/tests/__pycache__/test_graphviews.cpython-36.pyc",
    "Lib/site-packages/networkx/classes/tests/__pycache__/test_multidigraph.cpython-36.pyc",
    "Lib/site-packages/networkx/classes/tests/__pycache__/test_multigraph.cpython-36.pyc",
    "Lib/site-packages/networkx/classes/tests/__pycache__/test_ordered.cpython-36.pyc",
    "Lib/site-packages/networkx/classes/tests/__pycache__/test_reportviews.cpython-36.pyc",
    "Lib/site-packages/networkx/classes/tests/__pycache__/test_special.cpython-36.pyc",
    "Lib/site-packages/networkx/classes/tests/__pycache__/test_subgraphviews.cpython-36.pyc",
    "Lib/site-packages/networkx/classes/tests/historical_tests.py",
    "Lib/site-packages/networkx/classes/tests/test_coreviews.py",
    "Lib/site-packages/networkx/classes/tests/test_digraph.py",
    "Lib/site-packages/networkx/classes/tests/test_digraph_historical.py",
    "Lib/site-packages/networkx/classes/tests/test_filters.py",
    "Lib/site-packages/networkx/classes/tests/test_function.py",
    "Lib/site-packages/networkx/classes/tests/test_graph.py",
    "Lib/site-packages/networkx/classes/tests/test_graph_historical.py",
    "Lib/site-packages/networkx/classes/tests/test_graphviews.py",
    "Lib/site-packages/networkx/classes/tests/test_multidigraph.py",
    "Lib/site-packages/networkx/classes/tests/test_multigraph.py",
    "Lib/site-packages/networkx/classes/tests/test_ordered.py",
    "Lib/site-packages/networkx/classes/tests/test_reportviews.py",
    "Lib/site-packages/networkx/classes/tests/test_special.py",
    "Lib/site-packages/networkx/classes/tests/test_subgraphviews.py",
    "Lib/site-packages/networkx/convert.py",
    "Lib/site-packages/networkx/convert_matrix.py",
    "Lib/site-packages/networkx/drawing/__init__.py",
    "Lib/site-packages/networkx/drawing/__pycache__/__init__.cpython-36.pyc",
    "Lib/site-packages/networkx/drawing/__pycache__/layout.cpython-36.pyc",
    "Lib/site-packages/networkx/drawing/__pycache__/nx_agraph.cpython-36.pyc",
    "Lib/site-packages/networkx/drawing/__pycache__/nx_pydot.cpython-36.pyc",
    "Lib/site-packages/networkx/drawing/__pycache__/nx_pylab.cpython-36.pyc",
    "Lib/site-packages/networkx/drawing/layout.py",
    "Lib/site-packages/networkx/drawing/nx_agraph.py",
    "Lib/site-packages/networkx/drawing/nx_pydot.py",
    "Lib/site-packages/networkx/drawing/nx_pylab.py",
    "Lib/site-packages/networkx/drawing/tests/__pycache__/test_agraph.cpython-36.pyc",
    "Lib/site-packages/networkx/drawing/tests/__pycache__/test_layout.cpython-36.pyc",
    "Lib/site-packages/networkx/drawing/tests/__pycache__/test_pydot.cpython-36.pyc",
    "Lib/site-packages/networkx/drawing/tests/__pycache__/test_pylab.cpython-36.pyc",
    "Lib/site-packages/networkx/drawing/tests/test_agraph.py",
    "Lib/site-packages/networkx/drawing/tests/test_layout.py",
    "Lib/site-packages/networkx/drawing/tests/test_pydot.py",
    "Lib/site-packages/networkx/drawing/tests/test_pylab.py",
    "Lib/site-packages/networkx/exception.py",
    "Lib/site-packages/networkx/generators/__init__.py",
    "Lib/site-packages/networkx/generators/__pycache__/__init__.cpython-36.pyc",
    "Lib/site-packages/networkx/generators/__pycache__/atlas.cpython-36.pyc",
    "Lib/site-packages/networkx/generators/__pycache__/classic.cpython-36.pyc",
    "Lib/site-packages/networkx/generators/__pycache__/community.cpython-36.pyc",
    "Lib/site-packages/networkx/generators/__pycache__/degree_seq.cpython-36.pyc",
    "Lib/site-packages/networkx/generators/__pycache__/directed.cpython-36.pyc",
    "Lib/site-packages/networkx/generators/__pycache__/duplication.cpython-36.pyc",
    "Lib/site-packages/networkx/generators/__pycache__/ego.cpython-36.pyc",
    "Lib/site-packages/networkx/generators/__pycache__/expanders.cpython-36.pyc",
    "Lib/site-packages/networkx/generators/__pycache__/geometric.cpython-36.pyc",
    "Lib/site-packages/networkx/generators/__pycache__/intersection.cpython-36.pyc",
    "Lib/site-packages/networkx/generators/__pycache__/joint_degree_seq.cpython-36.pyc",
    "Lib/site-packages/networkx/generators/__pycache__/lattice.cpython-36.pyc",
    "Lib/site-packages/networkx/generators/__pycache__/line.cpython-36.pyc",
    "Lib/site-packages/networkx/generators/__pycache__/nonisomorphic_trees.cpython-36.pyc",
    "Lib/site-packages/networkx/generators/__pycache__/random_clustered.cpython-36.pyc",
    "Lib/site-packages/networkx/generators/__pycache__/random_graphs.cpython-36.pyc",
    "Lib/site-packages/networkx/generators/__pycache__/small.cpython-36.pyc",
    "Lib/site-packages/networkx/generators/__pycache__/social.cpython-36.pyc",
    "Lib/site-packages/networkx/generators/__pycache__/stochastic.cpython-36.pyc",
    "Lib/site-packages/networkx/generators/__pycache__/tree.cpython-36.pyc",
    "Lib/site-packages/networkx/generators/__pycache__/triads.cpython-36.pyc",
    "Lib/site-packages/networkx/generators/atlas.dat.gz",
    "Lib/site-packages/networkx/generators/atlas.py",
    "Lib/site-packages/networkx/generators/classic.py",
    "Lib/site-packages/networkx/generators/community.py",
    "Lib/site-packages/networkx/generators/degree_seq.py",
    "Lib/site-packages/networkx/generators/directed.py",
    "Lib/site-packages/networkx/generators/duplication.py",
    "Lib/site-packages/networkx/generators/ego.py",
    "Lib/site-packages/networkx/generators/expanders.py",
    "Lib/site-packages/networkx/generators/geometric.py",
    "Lib/site-packages/networkx/generators/intersection.py",
    "Lib/site-packages/networkx/generators/joint_degree_seq.py",
    "Lib/site-packages/networkx/generators/lattice.py",
    "Lib/site-packages/networkx/generators/line.py",
    "Lib/site-packages/networkx/generators/nonisomorphic_trees.py",
    "Lib/site-packages/networkx/generators/random_clustered.py",
    "Lib/site-packages/networkx/generators/random_graphs.py",
    "Lib/site-packages/networkx/generators/small.py",
    "Lib/site-packages/networkx/generators/social.py",
    "Lib/site-packages/networkx/generators/stochastic.py",
    "Lib/site-packages/networkx/generators/tests/__pycache__/test_atlas.cpython-36.pyc",
    "Lib/site-packages/networkx/generators/tests/__pycache__/test_classic.cpython-36.pyc",
    "Lib/site-packages/networkx/generators/tests/__pycache__/test_community.cpython-36.pyc",
    "Lib/site-packages/networkx/generators/tests/__pycache__/test_degree_seq.cpython-36.pyc",
    "Lib/site-packages/networkx/generators/tests/__pycache__/test_directed.cpython-36.pyc",
    "Lib/site-packages/networkx/generators/tests/__pycache__/test_duplication.cpython-36.pyc",
    "Lib/site-packages/networkx/generators/tests/__pycache__/test_ego.cpython-36.pyc",
    "Lib/site-packages/networkx/generators/tests/__pycache__/test_expanders.cpython-36.pyc",
    "Lib/site-packages/networkx/generators/tests/__pycache__/test_geometric.cpython-36.pyc",
    "Lib/site-packages/networkx/generators/tests/__pycache__/test_intersection.cpython-36.pyc",
    "Lib/site-packages/networkx/generators/tests/__pycache__/test_joint_degree_seq.cpython-36.pyc",
    "Lib/site-packages/networkx/generators/tests/__pycache__/test_lattice.cpython-36.pyc",
    "Lib/site-packages/networkx/generators/tests/__pycache__/test_line.cpython-36.pyc",
    "Lib/site-packages/networkx/generators/tests/__pycache__/test_nonisomorphic_trees.cpython-36.pyc",
    "Lib/site-packages/networkx/generators/tests/__pycache__/test_random_clustered.cpython-36.pyc",
    "Lib/site-packages/networkx/generators/tests/__pycache__/test_random_graphs.cpython-36.pyc",
    "Lib/site-packages/networkx/generators/tests/__pycache__/test_small.cpython-36.pyc",
    "Lib/site-packages/networkx/generators/tests/__pycache__/test_stochastic.cpython-36.pyc",
    "Lib/site-packages/networkx/generators/tests/__pycache__/test_tree.cpython-36.pyc",
    "Lib/site-packages/networkx/generators/tests/__pycache__/test_triads.cpython-36.pyc",
    "Lib/site-packages/networkx/generators/tests/test_atlas.py",
    "Lib/site-packages/networkx/generators/tests/test_classic.py",
    "Lib/site-packages/networkx/generators/tests/test_community.py",
    "Lib/site-packages/networkx/generators/tests/test_degree_seq.py",
    "Lib/site-packages/networkx/generators/tests/test_directed.py",
    "Lib/site-packages/networkx/generators/tests/test_duplication.py",
    "Lib/site-packages/networkx/generators/tests/test_ego.py",
    "Lib/site-packages/networkx/generators/tests/test_expanders.py",
    "Lib/site-packages/networkx/generators/tests/test_geometric.py",
    "Lib/site-packages/networkx/generators/tests/test_intersection.py",
    "Lib/site-packages/networkx/generators/tests/test_joint_degree_seq.py",
    "Lib/site-packages/networkx/generators/tests/test_lattice.py",
    "Lib/site-packages/networkx/generators/tests/test_line.py",
    "Lib/site-packages/networkx/generators/tests/test_nonisomorphic_trees.py",
    "Lib/site-packages/networkx/generators/tests/test_random_clustered.py",
    "Lib/site-packages/networkx/generators/tests/test_random_graphs.py",
    "Lib/site-packages/networkx/generators/tests/test_small.py",
    "Lib/site-packages/networkx/generators/tests/test_stochastic.py",
    "Lib/site-packages/networkx/generators/tests/test_tree.py",
    "Lib/site-packages/networkx/generators/tests/test_triads.py",
    "Lib/site-packages/networkx/generators/tree.py",
    "Lib/site-packages/networkx/generators/triads.py",
    "Lib/site-packages/networkx/linalg/__init__.py",
    "Lib/site-packages/networkx/linalg/__pycache__/__init__.cpython-36.pyc",
    "Lib/site-packages/networkx/linalg/__pycache__/algebraicconnectivity.cpython-36.pyc",
    "Lib/site-packages/networkx/linalg/__pycache__/attrmatrix.cpython-36.pyc",
    "Lib/site-packages/networkx/linalg/__pycache__/graphmatrix.cpython-36.pyc",
    "Lib/site-packages/networkx/linalg/__pycache__/laplacianmatrix.cpython-36.pyc",
    "Lib/site-packages/networkx/linalg/__pycache__/modularitymatrix.cpython-36.pyc",
    "Lib/site-packages/networkx/linalg/__pycache__/spectrum.cpython-36.pyc",
    "Lib/site-packages/networkx/linalg/algebraicconnectivity.py",
    "Lib/site-packages/networkx/linalg/attrmatrix.py",
    "Lib/site-packages/networkx/linalg/graphmatrix.py",
    "Lib/site-packages/networkx/linalg/laplacianmatrix.py",
    "Lib/site-packages/networkx/linalg/modularitymatrix.py",
    "Lib/site-packages/networkx/linalg/spectrum.py",
    "Lib/site-packages/networkx/linalg/tests/__pycache__/test_algebraic_connectivity.cpython-36.pyc",
    "Lib/site-packages/networkx/linalg/tests/__pycache__/test_graphmatrix.cpython-36.pyc",
    "Lib/site-packages/networkx/linalg/tests/__pycache__/test_laplacian.cpython-36.pyc",
    "Lib/site-packages/networkx/linalg/tests/__pycache__/test_modularity.cpython-36.pyc",
    "Lib/site-packages/networkx/linalg/tests/__pycache__/test_spectrum.cpython-36.pyc",
    "Lib/site-packages/networkx/linalg/tests/test_algebraic_connectivity.py",
    "Lib/site-packages/networkx/linalg/tests/test_graphmatrix.py",
    "Lib/site-packages/networkx/linalg/tests/test_laplacian.py",
    "Lib/site-packages/networkx/linalg/tests/test_modularity.py",
    "Lib/site-packages/networkx/linalg/tests/test_spectrum.py",
    "Lib/site-packages/networkx/readwrite/__init__.py",
    "Lib/site-packages/networkx/readwrite/__pycache__/__init__.cpython-36.pyc",
    "Lib/site-packages/networkx/readwrite/__pycache__/adjlist.cpython-36.pyc",
    "Lib/site-packages/networkx/readwrite/__pycache__/edgelist.cpython-36.pyc",
    "Lib/site-packages/networkx/readwrite/__pycache__/gexf.cpython-36.pyc",
    "Lib/site-packages/networkx/readwrite/__pycache__/gml.cpython-36.pyc",
    "Lib/site-packages/networkx/readwrite/__pycache__/gpickle.cpython-36.pyc",
    "Lib/site-packages/networkx/readwrite/__pycache__/graph6.cpython-36.pyc",
    "Lib/site-packages/networkx/readwrite/__pycache__/graphml.cpython-36.pyc",
    "Lib/site-packages/networkx/readwrite/__pycache__/leda.cpython-36.pyc",
    "Lib/site-packages/networkx/readwrite/__pycache__/multiline_adjlist.cpython-36.pyc",
    "Lib/site-packages/networkx/readwrite/__pycache__/nx_shp.cpython-36.pyc",
    "Lib/site-packages/networkx/readwrite/__pycache__/nx_yaml.cpython-36.pyc",
    "Lib/site-packages/networkx/readwrite/__pycache__/p2g.cpython-36.pyc",
    "Lib/site-packages/networkx/readwrite/__pycache__/pajek.cpython-36.pyc",
    "Lib/site-packages/networkx/readwrite/__pycache__/sparse6.cpython-36.pyc",
    "Lib/site-packages/networkx/readwrite/adjlist.py",
    "Lib/site-packages/networkx/readwrite/edgelist.py",
    "Lib/site-packages/networkx/readwrite/gexf.py",
    "Lib/site-packages/networkx/readwrite/gml.py",
    "Lib/site-packages/networkx/readwrite/gpickle.py",
    "Lib/site-packages/networkx/readwrite/graph6.py",
    "Lib/site-packages/networkx/readwrite/graphml.py",
    "Lib/site-packages/networkx/readwrite/json_graph/__init__.py",
    "Lib/site-packages/networkx/readwrite/json_graph/__pycache__/__init__.cpython-36.pyc",
    "Lib/site-packages/networkx/readwrite/json_graph/__pycache__/adjacency.cpython-36.pyc",
    "Lib/site-packages/networkx/readwrite/json_graph/__pycache__/cytoscape.cpython-36.pyc",
    "Lib/site-packages/networkx/readwrite/json_graph/__pycache__/jit.cpython-36.pyc",
    "Lib/site-packages/networkx/readwrite/json_graph/__pycache__/node_link.cpython-36.pyc",
    "Lib/site-packages/networkx/readwrite/json_graph/__pycache__/tree.cpython-36.pyc",
    "Lib/site-packages/networkx/readwrite/json_graph/adjacency.py",
    "Lib/site-packages/networkx/readwrite/json_graph/cytoscape.py",
    "Lib/site-packages/networkx/readwrite/json_graph/jit.py",
    "Lib/site-packages/networkx/readwrite/json_graph/node_link.py",
    "Lib/site-packages/networkx/readwrite/json_graph/tests/__pycache__/test_adjacency.cpython-36.pyc",
    "Lib/site-packages/networkx/readwrite/json_graph/tests/__pycache__/test_cytoscape.cpython-36.pyc",
    "Lib/site-packages/networkx/readwrite/json_graph/tests/__pycache__/test_jit.cpython-36.pyc",
    "Lib/site-packages/networkx/readwrite/json_graph/tests/__pycache__/test_node_link.cpython-36.pyc",
    "Lib/site-packages/networkx/readwrite/json_graph/tests/__pycache__/test_tree.cpython-36.pyc",
    "Lib/site-packages/networkx/readwrite/json_graph/tests/test_adjacency.py",
    "Lib/site-packages/networkx/readwrite/json_graph/tests/test_cytoscape.py",
    "Lib/site-packages/networkx/readwrite/json_graph/tests/test_jit.py",
    "Lib/site-packages/networkx/readwrite/json_graph/tests/test_node_link.py",
    "Lib/site-packages/networkx/readwrite/json_graph/tests/test_tree.py",
    "Lib/site-packages/networkx/readwrite/json_graph/tree.py",
    "Lib/site-packages/networkx/readwrite/leda.py",
    "Lib/site-packages/networkx/readwrite/multiline_adjlist.py",
    "Lib/site-packages/networkx/readwrite/nx_shp.py",
    "Lib/site-packages/networkx/readwrite/nx_yaml.py",
    "Lib/site-packages/networkx/readwrite/p2g.py",
    "Lib/site-packages/networkx/readwrite/pajek.py",
    "Lib/site-packages/networkx/readwrite/sparse6.py",
    "Lib/site-packages/networkx/readwrite/tests/__pycache__/test_adjlist.cpython-36.pyc",
    "Lib/site-packages/networkx/readwrite/tests/__pycache__/test_edgelist.cpython-36.pyc",
    "Lib/site-packages/networkx/readwrite/tests/__pycache__/test_gexf.cpython-36.pyc",
    "Lib/site-packages/networkx/readwrite/tests/__pycache__/test_gml.cpython-36.pyc",
    "Lib/site-packages/networkx/readwrite/tests/__pycache__/test_gpickle.cpython-36.pyc",
    "Lib/site-packages/networkx/readwrite/tests/__pycache__/test_graph6.cpython-36.pyc",
    "Lib/site-packages/networkx/readwrite/tests/__pycache__/test_graphml.cpython-36.pyc",
    "Lib/site-packages/networkx/readwrite/tests/__pycache__/test_leda.cpython-36.pyc",
    "Lib/site-packages/networkx/readwrite/tests/__pycache__/test_p2g.cpython-36.pyc",
    "Lib/site-packages/networkx/readwrite/tests/__pycache__/test_pajek.cpython-36.pyc",
    "Lib/site-packages/networkx/readwrite/tests/__pycache__/test_shp.cpython-36.pyc",
    "Lib/site-packages/networkx/readwrite/tests/__pycache__/test_sparse6.cpython-36.pyc",
    "Lib/site-packages/networkx/readwrite/tests/__pycache__/test_yaml.cpython-36.pyc",
    "Lib/site-packages/networkx/readwrite/tests/test_adjlist.py",
    "Lib/site-packages/networkx/readwrite/tests/test_edgelist.py",
    "Lib/site-packages/networkx/readwrite/tests/test_gexf.py",
    "Lib/site-packages/networkx/readwrite/tests/test_gml.py",
    "Lib/site-packages/networkx/readwrite/tests/test_gpickle.py",
    "Lib/site-packages/networkx/readwrite/tests/test_graph6.py",
    "Lib/site-packages/networkx/readwrite/tests/test_graphml.py",
    "Lib/site-packages/networkx/readwrite/tests/test_leda.py",
    "Lib/site-packages/networkx/readwrite/tests/test_p2g.py",
    "Lib/site-packages/networkx/readwrite/tests/test_pajek.py",
    "Lib/site-packages/networkx/readwrite/tests/test_shp.py",
    "Lib/site-packages/networkx/readwrite/tests/test_sparse6.py",
    "Lib/site-packages/networkx/readwrite/tests/test_yaml.py",
    "Lib/site-packages/networkx/relabel.py",
    "Lib/site-packages/networkx/release.py",
    "Lib/site-packages/networkx/testing/__init__.py",
    "Lib/site-packages/networkx/testing/__pycache__/__init__.cpython-36.pyc",
    "Lib/site-packages/networkx/testing/__pycache__/utils.cpython-36.pyc",
    "Lib/site-packages/networkx/testing/tests/__pycache__/test_utils.cpython-36.pyc",
    "Lib/site-packages/networkx/testing/tests/test_utils.py",
    "Lib/site-packages/networkx/testing/utils.py",
    "Lib/site-packages/networkx/tests/__init__.py",
    "Lib/site-packages/networkx/tests/__pycache__/__init__.cpython-36.pyc",
    "Lib/site-packages/networkx/tests/__pycache__/test.cpython-36.pyc",
    "Lib/site-packages/networkx/tests/__pycache__/test_convert.cpython-36.pyc",
    "Lib/site-packages/networkx/tests/__pycache__/test_convert_numpy.cpython-36.pyc",
    "Lib/site-packages/networkx/tests/__pycache__/test_convert_pandas.cpython-36.pyc",
    "Lib/site-packages/networkx/tests/__pycache__/test_convert_scipy.cpython-36.pyc",
    "Lib/site-packages/networkx/tests/__pycache__/test_exceptions.cpython-36.pyc",
    "Lib/site-packages/networkx/tests/__pycache__/test_relabel.cpython-36.pyc",
    "Lib/site-packages/networkx/tests/test.py",
    "Lib/site-packages/networkx/tests/test_convert.py",
    "Lib/site-packages/networkx/tests/test_convert_numpy.py",
    "Lib/site-packages/networkx/tests/test_convert_pandas.py",
    "Lib/site-packages/networkx/tests/test_convert_scipy.py",
    "Lib/site-packages/networkx/tests/test_exceptions.py",
    "Lib/site-packages/networkx/tests/test_relabel.py",
    "Lib/site-packages/networkx/utils/__init__.py",
    "Lib/site-packages/networkx/utils/__pycache__/__init__.cpython-36.pyc",
    "Lib/site-packages/networkx/utils/__pycache__/contextmanagers.cpython-36.pyc",
    "Lib/site-packages/networkx/utils/__pycache__/decorators.cpython-36.pyc",
    "Lib/site-packages/networkx/utils/__pycache__/heaps.cpython-36.pyc",
    "Lib/site-packages/networkx/utils/__pycache__/misc.cpython-36.pyc",
    "Lib/site-packages/networkx/utils/__pycache__/random_sequence.cpython-36.pyc",
    "Lib/site-packages/networkx/utils/__pycache__/rcm.cpython-36.pyc",
    "Lib/site-packages/networkx/utils/__pycache__/union_find.cpython-36.pyc",
    "Lib/site-packages/networkx/utils/contextmanagers.py",
    "Lib/site-packages/networkx/utils/decorators.py",
    "Lib/site-packages/networkx/utils/heaps.py",
    "Lib/site-packages/networkx/utils/misc.py",
    "Lib/site-packages/networkx/utils/random_sequence.py",
    "Lib/site-packages/networkx/utils/rcm.py",
    "Lib/site-packages/networkx/utils/tests/__pycache__/test_contextmanager.cpython-36.pyc",
    "Lib/site-packages/networkx/utils/tests/__pycache__/test_decorators.cpython-36.pyc",
    "Lib/site-packages/networkx/utils/tests/__pycache__/test_heaps.cpython-36.pyc",
    "Lib/site-packages/networkx/utils/tests/__pycache__/test_misc.cpython-36.pyc",
    "Lib/site-packages/networkx/utils/tests/__pycache__/test_random_sequence.cpython-36.pyc",
    "Lib/site-packages/networkx/utils/tests/__pycache__/test_rcm.cpython-36.pyc",
    "Lib/site-packages/networkx/utils/tests/__pycache__/test_unionfind.cpython-36.pyc",
    "Lib/site-packages/networkx/utils/tests/test_contextmanager.py",
    "Lib/site-packages/networkx/utils/tests/test_decorators.py",
    "Lib/site-packages/networkx/utils/tests/test_heaps.py",
    "Lib/site-packages/networkx/utils/tests/test_misc.py",
    "Lib/site-packages/networkx/utils/tests/test_random_sequence.py",
    "Lib/site-packages/networkx/utils/tests/test_rcm.py",
    "Lib/site-packages/networkx/utils/tests/test_unionfind.py",
    "Lib/site-packages/networkx/utils/union_find.py",
    "Lib/site-packages/networkx/version.py",
    "share/doc/networkx-2.0/LICENSE.txt",
    "share/doc/networkx-2.0/examples/3d_drawing/__pycache__/mayavi2_spring.cpython-36.pyc",
    "share/doc/networkx-2.0/examples/3d_drawing/mayavi2_spring.py",
    "share/doc/networkx-2.0/examples/advanced/__pycache__/iterated_dynamical_systems.cpython-36.pyc",
    "share/doc/networkx-2.0/examples/advanced/__pycache__/plot_eigenvalues.cpython-36.pyc",
    "share/doc/networkx-2.0/examples/advanced/__pycache__/plot_heavy_metal_umlaut.cpython-36.pyc",
    "share/doc/networkx-2.0/examples/advanced/__pycache__/plot_parallel_betweenness.cpython-36.pyc",
    "share/doc/networkx-2.0/examples/advanced/iterated_dynamical_systems.py",
    "share/doc/networkx-2.0/examples/advanced/plot_eigenvalues.py",
    "share/doc/networkx-2.0/examples/advanced/plot_heavy_metal_umlaut.py",
    "share/doc/networkx-2.0/examples/advanced/plot_parallel_betweenness.py",
    "share/doc/networkx-2.0/examples/algorithms/__pycache__/beam_search.cpython-36.pyc",
    "share/doc/networkx-2.0/examples/algorithms/__pycache__/plot_blockmodel.cpython-36.pyc",
    "share/doc/networkx-2.0/examples/algorithms/__pycache__/plot_davis_club.cpython-36.pyc",
    "share/doc/networkx-2.0/examples/algorithms/__pycache__/plot_krackhardt_centrality.cpython-36.pyc",
    "share/doc/networkx-2.0/examples/algorithms/__pycache__/rcm.cpython-36.pyc",
    "share/doc/networkx-2.0/examples/algorithms/beam_search.py",
    "share/doc/networkx-2.0/examples/algorithms/hartford_drug.edgelist",
    "share/doc/networkx-2.0/examples/algorithms/plot_blockmodel.py",
    "share/doc/networkx-2.0/examples/algorithms/plot_davis_club.py",
    "share/doc/networkx-2.0/examples/algorithms/plot_krackhardt_centrality.py",
    "share/doc/networkx-2.0/examples/algorithms/rcm.py",
    "share/doc/networkx-2.0/examples/basic/__pycache__/plot_properties.cpython-36.pyc",
    "share/doc/networkx-2.0/examples/basic/__pycache__/plot_read_write.cpython-36.pyc",
    "share/doc/networkx-2.0/examples/basic/plot_properties.py",
    "share/doc/networkx-2.0/examples/basic/plot_read_write.py",
    "share/doc/networkx-2.0/examples/drawing/__pycache__/plot_atlas.cpython-36.pyc",
    "share/doc/networkx-2.0/examples/drawing/__pycache__/plot_chess_masters.cpython-36.pyc",
    "share/doc/networkx-2.0/examples/drawing/__pycache__/plot_circular_tree.cpython-36.pyc",
    "share/doc/networkx-2.0/examples/drawing/__pycache__/plot_degree_histogram.cpython-36.pyc",
    "share/doc/networkx-2.0/examples/drawing/__pycache__/plot_degree_rank.cpython-36.pyc",
    "share/doc/networkx-2.0/examples/drawing/__pycache__/plot_edge_colormap.cpython-36.pyc",
    "share/doc/networkx-2.0/examples/drawing/__pycache__/plot_ego_graph.cpython-36.pyc",
    "share/doc/networkx-2.0/examples/drawing/__pycache__/plot_four_grids.cpython-36.pyc",
    "share/doc/networkx-2.0/examples/drawing/__pycache__/plot_giant_component.cpython-36.pyc",
    "share/doc/networkx-2.0/examples/drawing/__pycache__/plot_house_with_colors.cpython-36.pyc",
    "share/doc/networkx-2.0/examples/drawing/__pycache__/plot_knuth_miles.cpython-36.pyc",
    "share/doc/networkx-2.0/examples/drawing/__pycache__/plot_labels_and_colors.cpython-36.pyc",
    "share/doc/networkx-2.0/examples/drawing/__pycache__/plot_lanl_routes.cpython-36.pyc",
    "share/doc/networkx-2.0/examples/drawing/__pycache__/plot_node_colormap.cpython-36.pyc",
    "share/doc/networkx-2.0/examples/drawing/__pycache__/plot_random_geometric_graph.cpython-36.pyc",
    "share/doc/networkx-2.0/examples/drawing/__pycache__/plot_sampson.cpython-36.pyc",
    "share/doc/networkx-2.0/examples/drawing/__pycache__/plot_simple_path.cpython-36.pyc",
    "share/doc/networkx-2.0/examples/drawing/__pycache__/plot_unix_email.cpython-36.pyc",
    "share/doc/networkx-2.0/examples/drawing/__pycache__/plot_weighted_graph.cpython-36.pyc",
    "share/doc/networkx-2.0/examples/drawing/chess_masters_WCC.pgn.bz2",
    "share/doc/networkx-2.0/examples/drawing/knuth_miles.txt.gz",
    "share/doc/networkx-2.0/examples/drawing/lanl_routes.edgelist",
    "share/doc/networkx-2.0/examples/drawing/plot_atlas.py",
    "share/doc/networkx-2.0/examples/drawing/plot_chess_masters.py",
    "share/doc/networkx-2.0/examples/drawing/plot_circular_tree.py",
    "share/doc/networkx-2.0/examples/drawing/plot_degree_histogram.py",
    "share/doc/networkx-2.0/examples/drawing/plot_degree_rank.py",
    "share/doc/networkx-2.0/examples/drawing/plot_edge_colormap.py",
    "share/doc/networkx-2.0/examples/drawing/plot_ego_graph.py",
    "share/doc/networkx-2.0/examples/drawing/plot_four_grids.py",
    "share/doc/networkx-2.0/examples/drawing/plot_giant_component.py",
    "share/doc/networkx-2.0/examples/drawing/plot_house_with_colors.py",
    "share/doc/networkx-2.0/examples/drawing/plot_knuth_miles.py",
    "share/doc/networkx-2.0/examples/drawing/plot_labels_and_colors.py",
    "share/doc/networkx-2.0/examples/drawing/plot_lanl_routes.py",
    "share/doc/networkx-2.0/examples/drawing/plot_node_colormap.py",
    "share/doc/networkx-2.0/examples/drawing/plot_random_geometric_graph.py",
    "share/doc/networkx-2.0/examples/drawing/plot_sampson.py",
    "share/doc/networkx-2.0/examples/drawing/plot_simple_path.py",
    "share/doc/networkx-2.0/examples/drawing/plot_unix_email.py",
    "share/doc/networkx-2.0/examples/drawing/plot_weighted_graph.py",
    "share/doc/networkx-2.0/examples/drawing/unix_email.mbox",
    "share/doc/networkx-2.0/examples/graph/__pycache__/atlas2.cpython-36.pyc",
    "share/doc/networkx-2.0/examples/graph/__pycache__/expected_degree_sequence.cpython-36.pyc",
    "share/doc/networkx-2.0/examples/graph/__pycache__/plot_degree_sequence.cpython-36.pyc",
    "share/doc/networkx-2.0/examples/graph/__pycache__/plot_erdos_renyi.cpython-36.pyc",
    "share/doc/networkx-2.0/examples/graph/__pycache__/plot_football.cpython-36.pyc",
    "share/doc/networkx-2.0/examples/graph/__pycache__/plot_karate_club.cpython-36.pyc",
    "share/doc/networkx-2.0/examples/graph/__pycache__/plot_napoleon_russian_campaign.cpython-36.pyc",
    "share/doc/networkx-2.0/examples/graph/__pycache__/plot_roget.cpython-36.pyc",
    "share/doc/networkx-2.0/examples/graph/__pycache__/words.cpython-36.pyc",
    "share/doc/networkx-2.0/examples/graph/atlas2.py",
    "share/doc/networkx-2.0/examples/graph/expected_degree_sequence.py",
    "share/doc/networkx-2.0/examples/graph/plot_degree_sequence.py",
    "share/doc/networkx-2.0/examples/graph/plot_erdos_renyi.py",
    "share/doc/networkx-2.0/examples/graph/plot_football.py",
    "share/doc/networkx-2.0/examples/graph/plot_karate_club.py",
    "share/doc/networkx-2.0/examples/graph/plot_napoleon_russian_campaign.py",
    "share/doc/networkx-2.0/examples/graph/plot_roget.py",
    "share/doc/networkx-2.0/examples/graph/roget_dat.txt.gz",
    "share/doc/networkx-2.0/examples/graph/words.py",
    "share/doc/networkx-2.0/examples/graph/words_dat.txt.gz",
    "share/doc/networkx-2.0/examples/javascript/__pycache__/force.cpython-36.pyc",
    "share/doc/networkx-2.0/examples/javascript/force.py",
    "share/doc/networkx-2.0/examples/jit/__pycache__/plot_rgraph.cpython-36.pyc",
    "share/doc/networkx-2.0/examples/jit/plot_rgraph.py",
    "share/doc/networkx-2.0/examples/pygraphviz/__pycache__/pygraphviz_attributes.cpython-36.pyc",
    "share/doc/networkx-2.0/examples/pygraphviz/__pycache__/pygraphviz_draw.cpython-36.pyc",
    "share/doc/networkx-2.0/examples/pygraphviz/__pycache__/pygraphviz_simple.cpython-36.pyc",
    "share/doc/networkx-2.0/examples/pygraphviz/__pycache__/write_dotfile.cpython-36.pyc",
    "share/doc/networkx-2.0/examples/pygraphviz/pygraphviz_attributes.py",
    "share/doc/networkx-2.0/examples/pygraphviz/pygraphviz_draw.py",
    "share/doc/networkx-2.0/examples/pygraphviz/pygraphviz_simple.py",
    "share/doc/networkx-2.0/examples/pygraphviz/write_dotfile.py",
    "share/doc/networkx-2.0/examples/subclass/__pycache__/plot_antigraph.cpython-36.pyc",
    "share/doc/networkx-2.0/examples/subclass/__pycache__/plot_printgraph.cpython-36.pyc",
    "share/doc/networkx-2.0/examples/subclass/plot_antigraph.py",
    "share/doc/networkx-2.0/examples/subclass/plot_printgraph.py",
    "share/doc/networkx-2.0/requirements.txt"
  ],
  "fn": "networkx-2.0-py36hff991e3_0.tar.bz2",
  "license": "BSD 3-Clause",
  "license_family": "BSD",
  "link": {
    "source": "C:\\Program Files\\Anaconda3\\pkgs\\networkx-2.0-py36hff991e3_0",
    "type": 1
  },
  "md5": null,
  "name": "networkx",
  "noarch": null,
  "platform": "win32",
  "preferred_env": null,
  "priority": 1,
  "schannel": "defaults",
  "subdir": "win-64",
  "timestamp": 1508437273429,
  "url": "https://repo.continuum.io/pkgs/main/win-64/networkx-2.0-py36hff991e3_0.tar.bz2",
  "version": "2.0",
  "with_features_depends": {}
}