{
  "arch": "x86_64",
  "auth": null,
  "build": "np113py36_10",
  "build_number": 10,
  "channel": null,
  "depends": [
    "llvmlite 0.20.*",
    "numpy 1.13*",
    "python 3.6*"
  ],
  "files": [
    "Lib/site-packages/numba-0.35.0+10.g143f70e-py3.6-win-amd64.egg-info/PKG-INFO",
    "Lib/site-packages/numba-0.35.0+10.g143f70e-py3.6-win-amd64.egg-info/SOURCES.txt",
    "Lib/site-packages/numba-0.35.0+10.g143f70e-py3.6-win-amd64.egg-info/dependency_links.txt",
    "Lib/site-packages/numba-0.35.0+10.g143f70e-py3.6-win-amd64.egg-info/native_libs.txt",
    "Lib/site-packages/numba-0.35.0+10.g143f70e-py3.6-win-amd64.egg-info/not-zip-safe",
    "Lib/site-packages/numba-0.35.0+10.g143f70e-py3.6-win-amd64.egg-info/requires.txt",
    "Lib/site-packages/numba-0.35.0+10.g143f70e-py3.6-win-amd64.egg-info/scripts/numba",
    "Lib/site-packages/numba-0.35.0+10.g143f70e-py3.6-win-amd64.egg-info/scripts/pycc",
    "Lib/site-packages/numba-0.35.0+10.g143f70e-py3.6-win-amd64.egg-info/top_level.txt",
    "Lib/site-packages/numba/__init__.py",
    "Lib/site-packages/numba/__pycache__/__init__.cpython-36.pyc",
    "Lib/site-packages/numba/__pycache__/_dispatcher.cpython-36.pyc",
    "Lib/site-packages/numba/__pycache__/_dynfunc.cpython-36.pyc",
    "Lib/site-packages/numba/__pycache__/_helperlib.cpython-36.pyc",
    "Lib/site-packages/numba/__pycache__/_version.cpython-36.pyc",
    "Lib/site-packages/numba/__pycache__/analysis.cpython-36.pyc",
    "Lib/site-packages/numba/__pycache__/appdirs.cpython-36.pyc",
    "Lib/site-packages/numba/__pycache__/array_analysis.cpython-36.pyc",
    "Lib/site-packages/numba/__pycache__/bytecode.cpython-36.pyc",
    "Lib/site-packages/numba/__pycache__/caching.cpython-36.pyc",
    "Lib/site-packages/numba/__pycache__/callwrapper.cpython-36.pyc",
    "Lib/site-packages/numba/__pycache__/ccallback.cpython-36.pyc",
    "Lib/site-packages/numba/__pycache__/cffi_support.cpython-36.pyc",
    "Lib/site-packages/numba/__pycache__/cgutils.cpython-36.pyc",
    "Lib/site-packages/numba/__pycache__/compiler.cpython-36.pyc",
    "Lib/site-packages/numba/__pycache__/config.cpython-36.pyc",
    "Lib/site-packages/numba/__pycache__/consts.cpython-36.pyc",
    "Lib/site-packages/numba/__pycache__/controlflow.cpython-36.pyc",
    "Lib/site-packages/numba/__pycache__/ctypes_support.cpython-36.pyc",
    "Lib/site-packages/numba/__pycache__/dataflow.cpython-36.pyc",
    "Lib/site-packages/numba/__pycache__/debuginfo.cpython-36.pyc",
    "Lib/site-packages/numba/__pycache__/decorators.cpython-36.pyc",
    "Lib/site-packages/numba/__pycache__/dispatcher.cpython-36.pyc",
    "Lib/site-packages/numba/__pycache__/dummyarray.cpython-36.pyc",
    "Lib/site-packages/numba/__pycache__/errors.cpython-36.pyc",
    "Lib/site-packages/numba/__pycache__/extending.cpython-36.pyc",
    "Lib/site-packages/numba/__pycache__/findlib.cpython-36.pyc",
    "Lib/site-packages/numba/__pycache__/funcdesc.cpython-36.pyc",
    "Lib/site-packages/numba/__pycache__/generators.cpython-36.pyc",
    "Lib/site-packages/numba/__pycache__/inline_closurecall.cpython-36.pyc",
    "Lib/site-packages/numba/__pycache__/interpreter.cpython-36.pyc",
    "Lib/site-packages/numba/__pycache__/io_support.cpython-36.pyc",
    "Lib/site-packages/numba/__pycache__/ir.cpython-36.pyc",
    "Lib/site-packages/numba/__pycache__/ir_utils.cpython-36.pyc",
    "Lib/site-packages/numba/__pycache__/itanium_mangler.cpython-36.pyc",
    "Lib/site-packages/numba/__pycache__/llvmthreadsafe.cpython-36.pyc",
    "Lib/site-packages/numba/__pycache__/lowering.cpython-36.pyc",
    "Lib/site-packages/numba/__pycache__/macro.cpython-36.pyc",
    "Lib/site-packages/numba/__pycache__/mviewbuf.cpython-36.pyc",
    "Lib/site-packages/numba/__pycache__/npdatetime.cpython-36.pyc",
    "Lib/site-packages/numba/__pycache__/numba_entry.cpython-36.pyc",
    "Lib/site-packages/numba/__pycache__/numpy_support.cpython-36.pyc",
    "Lib/site-packages/numba/__pycache__/objmode.cpython-36.pyc",
    "Lib/site-packages/numba/__pycache__/parfor.cpython-36.pyc",
    "Lib/site-packages/numba/__pycache__/postproc.cpython-36.pyc",
    "Lib/site-packages/numba/__pycache__/pythonapi.cpython-36.pyc",
    "Lib/site-packages/numba/__pycache__/runtests.cpython-36.pyc",
    "Lib/site-packages/numba/__pycache__/serialize.cpython-36.pyc",
    "Lib/site-packages/numba/__pycache__/sigutils.cpython-36.pyc",
    "Lib/site-packages/numba/__pycache__/six.cpython-36.pyc",
    "Lib/site-packages/numba/__pycache__/smartarray.cpython-36.pyc",
    "Lib/site-packages/numba/__pycache__/special.cpython-36.pyc",
    "Lib/site-packages/numba/__pycache__/tracing.cpython-36.pyc",
    "Lib/site-packages/numba/__pycache__/transforms.cpython-36.pyc",
    "Lib/site-packages/numba/__pycache__/typeinfer.cpython-36.pyc",
    "Lib/site-packages/numba/__pycache__/unittest_support.cpython-36.pyc",
    "Lib/site-packages/numba/__pycache__/utils.cpython-36.pyc",
    "Lib/site-packages/numba/_arraystruct.h",
    "Lib/site-packages/numba/_dispatcher.c",
    "Lib/site-packages/numba/_dispatcher.cp36-win_amd64.pyd",
    "Lib/site-packages/numba/_dispatcher.h",
    "Lib/site-packages/numba/_dispatcher.py",
    "Lib/site-packages/numba/_dynfunc.c",
    "Lib/site-packages/numba/_dynfunc.cp36-win_amd64.pyd",
    "Lib/site-packages/numba/_dynfunc.py",
    "Lib/site-packages/numba/_dynfuncmod.c",
    "Lib/site-packages/numba/_hashtable.c",
    "Lib/site-packages/numba/_hashtable.h",
    "Lib/site-packages/numba/_helperlib.c",
    "Lib/site-packages/numba/_helperlib.cp36-win_amd64.pyd",
    "Lib/site-packages/numba/_helperlib.py",
    "Lib/site-packages/numba/_helpermod.c",
    "Lib/site-packages/numba/_lapack.c",
    "Lib/site-packages/numba/_math_c99.c",
    "Lib/site-packages/numba/_math_c99.h",
    "Lib/site-packages/numba/_npymath_exports.c",
    "Lib/site-packages/numba/_numba_common.h",
    "Lib/site-packages/numba/_pymodule.h",
    "Lib/site-packages/numba/_random.c",
    "Lib/site-packages/numba/_typeof.c",
    "Lib/site-packages/numba/_typeof.h",
    "Lib/site-packages/numba/_version.py",
    "Lib/site-packages/numba/analysis.py",
    "Lib/site-packages/numba/annotations/__init__.py",
    "Lib/site-packages/numba/annotations/__pycache__/__init__.cpython-36.pyc",
    "Lib/site-packages/numba/annotations/__pycache__/type_annotations.cpython-36.pyc",
    "Lib/site-packages/numba/annotations/template.html",
    "Lib/site-packages/numba/annotations/type_annotations.py",
    "Lib/site-packages/numba/appdirs.py",
    "Lib/site-packages/numba/array_analysis.py",
    "Lib/site-packages/numba/bytecode.py",
    "Lib/site-packages/numba/caching.py",
    "Lib/site-packages/numba/callwrapper.py",
    "Lib/site-packages/numba/capsulethunk.h",
    "Lib/site-packages/numba/ccallback.py",
    "Lib/site-packages/numba/cffi_support.py",
    "Lib/site-packages/numba/cgutils.py",
    "Lib/site-packages/numba/compiler.py",
    "Lib/site-packages/numba/config.py",
    "Lib/site-packages/numba/consts.py",
    "Lib/site-packages/numba/controlflow.py",
    "Lib/site-packages/numba/ctypes_support.py",
    "Lib/site-packages/numba/cuda/__init__.py",
    "Lib/site-packages/numba/cuda/__pycache__/__init__.cpython-36.pyc",
    "Lib/site-packages/numba/cuda/__pycache__/api.cpython-36.pyc",
    "Lib/site-packages/numba/cuda/__pycache__/codegen.cpython-36.pyc",
    "Lib/site-packages/numba/cuda/__pycache__/compiler.cpython-36.pyc",
    "Lib/site-packages/numba/cuda/__pycache__/cudadecl.cpython-36.pyc",
    "Lib/site-packages/numba/cuda/__pycache__/cudaimpl.cpython-36.pyc",
    "Lib/site-packages/numba/cuda/__pycache__/cudamath.cpython-36.pyc",
    "Lib/site-packages/numba/cuda/__pycache__/decorators.cpython-36.pyc",
    "Lib/site-packages/numba/cuda/__pycache__/descriptor.cpython-36.pyc",
    "Lib/site-packages/numba/cuda/__pycache__/device_init.cpython-36.pyc",
    "Lib/site-packages/numba/cuda/__pycache__/dispatcher.cpython-36.pyc",
    "Lib/site-packages/numba/cuda/__pycache__/errors.cpython-36.pyc",
    "Lib/site-packages/numba/cuda/__pycache__/initialize.cpython-36.pyc",
    "Lib/site-packages/numba/cuda/__pycache__/libdevice.cpython-36.pyc",
    "Lib/site-packages/numba/cuda/__pycache__/nvvmutils.cpython-36.pyc",
    "Lib/site-packages/numba/cuda/__pycache__/printimpl.cpython-36.pyc",
    "Lib/site-packages/numba/cuda/__pycache__/random.cpython-36.pyc",
    "Lib/site-packages/numba/cuda/__pycache__/simulator_init.cpython-36.pyc",
    "Lib/site-packages/numba/cuda/__pycache__/stubs.cpython-36.pyc",
    "Lib/site-packages/numba/cuda/__pycache__/target.cpython-36.pyc",
    "Lib/site-packages/numba/cuda/__pycache__/testing.cpython-36.pyc",
    "Lib/site-packages/numba/cuda/__pycache__/vectorizers.cpython-36.pyc",
    "Lib/site-packages/numba/cuda/api.py",
    "Lib/site-packages/numba/cuda/codegen.py",
    "Lib/site-packages/numba/cuda/compiler.py",
    "Lib/site-packages/numba/cuda/cudadecl.py",
    "Lib/site-packages/numba/cuda/cudadrv/__init__.py",
    "Lib/site-packages/numba/cuda/cudadrv/__pycache__/__init__.cpython-36.pyc",
    "Lib/site-packages/numba/cuda/cudadrv/__pycache__/_extras.cpython-36.pyc",
    "Lib/site-packages/numba/cuda/cudadrv/__pycache__/autotune.cpython-36.pyc",
    "Lib/site-packages/numba/cuda/cudadrv/__pycache__/devicearray.cpython-36.pyc",
    "Lib/site-packages/numba/cuda/cudadrv/__pycache__/devices.cpython-36.pyc",
    "Lib/site-packages/numba/cuda/cudadrv/__pycache__/driver.cpython-36.pyc",
    "Lib/site-packages/numba/cuda/cudadrv/__pycache__/drvapi.cpython-36.pyc",
    "Lib/site-packages/numba/cuda/cudadrv/__pycache__/enums.cpython-36.pyc",
    "Lib/site-packages/numba/cuda/cudadrv/__pycache__/error.cpython-36.pyc",
    "Lib/site-packages/numba/cuda/cudadrv/__pycache__/libs.cpython-36.pyc",
    "Lib/site-packages/numba/cuda/cudadrv/__pycache__/ndarray.cpython-36.pyc",
    "Lib/site-packages/numba/cuda/cudadrv/__pycache__/nvvm.cpython-36.pyc",
    "Lib/site-packages/numba/cuda/cudadrv/_extras.cp36-win_amd64.pyd",
    "Lib/site-packages/numba/cuda/cudadrv/_extras.py",
    "Lib/site-packages/numba/cuda/cudadrv/autotune.py",
    "Lib/site-packages/numba/cuda/cudadrv/devicearray.py",
    "Lib/site-packages/numba/cuda/cudadrv/devices.py",
    "Lib/site-packages/numba/cuda/cudadrv/driver.py",
    "Lib/site-packages/numba/cuda/cudadrv/drvapi.py",
    "Lib/site-packages/numba/cuda/cudadrv/enums.py",
    "Lib/site-packages/numba/cuda/cudadrv/error.py",
    "Lib/site-packages/numba/cuda/cudadrv/libs.py",
    "Lib/site-packages/numba/cuda/cudadrv/ndarray.py",
    "Lib/site-packages/numba/cuda/cudadrv/nvvm.py",
    "Lib/site-packages/numba/cuda/cudaimpl.py",
    "Lib/site-packages/numba/cuda/cudamath.py",
    "Lib/site-packages/numba/cuda/decorators.py",
    "Lib/site-packages/numba/cuda/descriptor.py",
    "Lib/site-packages/numba/cuda/device_init.py",
    "Lib/site-packages/numba/cuda/dispatcher.py",
    "Lib/site-packages/numba/cuda/errors.py",
    "Lib/site-packages/numba/cuda/initialize.py",
    "Lib/site-packages/numba/cuda/kernels/__init__.py",
    "Lib/site-packages/numba/cuda/kernels/__pycache__/__init__.cpython-36.pyc",
    "Lib/site-packages/numba/cuda/kernels/__pycache__/reduction.cpython-36.pyc",
    "Lib/site-packages/numba/cuda/kernels/__pycache__/transpose.cpython-36.pyc",
    "Lib/site-packages/numba/cuda/kernels/reduction.py",
    "Lib/site-packages/numba/cuda/kernels/transpose.py",
    "Lib/site-packages/numba/cuda/libdevice.py",
    "Lib/site-packages/numba/cuda/nvvmutils.py",
    "Lib/site-packages/numba/cuda/printimpl.py",
    "Lib/site-packages/numba/cuda/random.py",
    "Lib/site-packages/numba/cuda/simulator/__init__.py",
    "Lib/site-packages/numba/cuda/simulator/__pycache__/__init__.cpython-36.pyc",
    "Lib/site-packages/numba/cuda/simulator/__pycache__/api.cpython-36.pyc",
    "Lib/site-packages/numba/cuda/simulator/__pycache__/array.cpython-36.pyc",
    "Lib/site-packages/numba/cuda/simulator/__pycache__/compiler.cpython-36.pyc",
    "Lib/site-packages/numba/cuda/simulator/__pycache__/kernel.cpython-36.pyc",
    "Lib/site-packages/numba/cuda/simulator/__pycache__/kernelapi.cpython-36.pyc",
    "Lib/site-packages/numba/cuda/simulator/__pycache__/reduction.cpython-36.pyc",
    "Lib/site-packages/numba/cuda/simulator/api.py",
    "Lib/site-packages/numba/cuda/simulator/array.py",
    "Lib/site-packages/numba/cuda/simulator/compiler.py",
    "Lib/site-packages/numba/cuda/simulator/cudadrv/__init__.py",
    "Lib/site-packages/numba/cuda/simulator/cudadrv/__pycache__/__init__.cpython-36.pyc",
    "Lib/site-packages/numba/cuda/simulator/cudadrv/__pycache__/devicearray.cpython-36.pyc",
    "Lib/site-packages/numba/cuda/simulator/cudadrv/__pycache__/devices.cpython-36.pyc",
    "Lib/site-packages/numba/cuda/simulator/cudadrv/__pycache__/driver.cpython-36.pyc",
    "Lib/site-packages/numba/cuda/simulator/cudadrv/__pycache__/drvapi.cpython-36.pyc",
    "Lib/site-packages/numba/cuda/simulator/cudadrv/__pycache__/nvvm.cpython-36.pyc",
    "Lib/site-packages/numba/cuda/simulator/cudadrv/devicearray.py",
    "Lib/site-packages/numba/cuda/simulator/cudadrv/devices.py",
    "Lib/site-packages/numba/cuda/simulator/cudadrv/driver.py",
    "Lib/site-packages/numba/cuda/simulator/cudadrv/drvapi.py",
    "Lib/site-packages/numba/cuda/simulator/cudadrv/nvvm.py",
    "Lib/site-packages/numba/cuda/simulator/kernel.py",
    "Lib/site-packages/numba/cuda/simulator/kernelapi.py",
    "Lib/site-packages/numba/cuda/simulator/reduction.py",
    "Lib/site-packages/numba/cuda/simulator_init.py",
    "Lib/site-packages/numba/cuda/stubs.py",
    "Lib/site-packages/numba/cuda/target.py",
    "Lib/site-packages/numba/cuda/testing.py",
    "Lib/site-packages/numba/cuda/tests/__init__.py",
    "Lib/site-packages/numba/cuda/tests/__pycache__/__init__.cpython-36.pyc",
    "Lib/site-packages/numba/cuda/tests/cudadrv/__init__.py",
    "Lib/site-packages/numba/cuda/tests/cudadrv/__pycache__/__init__.cpython-36.pyc",
    "Lib/site-packages/numba/cuda/tests/cudadrv/__pycache__/test_array_attr.cpython-36.pyc",
    "Lib/site-packages/numba/cuda/tests/cudadrv/__pycache__/test_context_stack.cpython-36.pyc",
    "Lib/site-packages/numba/cuda/tests/cudadrv/__pycache__/test_cuda_array_slicing.cpython-36.pyc",
    "Lib/site-packages/numba/cuda/tests/cudadrv/__pycache__/test_cuda_auto_context.cpython-36.pyc",
    "Lib/site-packages/numba/cuda/tests/cudadrv/__pycache__/test_cuda_devicerecord.cpython-36.pyc",
    "Lib/site-packages/numba/cuda/tests/cudadrv/__pycache__/test_cuda_driver.cpython-36.pyc",
    "Lib/site-packages/numba/cuda/tests/cudadrv/__pycache__/test_cuda_memory.cpython-36.pyc",
    "Lib/site-packages/numba/cuda/tests/cudadrv/__pycache__/test_cuda_ndarray.cpython-36.pyc",
    "Lib/site-packages/numba/cuda/tests/cudadrv/__pycache__/test_deallocations.cpython-36.pyc",
    "Lib/site-packages/numba/cuda/tests/cudadrv/__pycache__/test_detect.cpython-36.pyc",
    "Lib/site-packages/numba/cuda/tests/cudadrv/__pycache__/test_events.cpython-36.pyc",
    "Lib/site-packages/numba/cuda/tests/cudadrv/__pycache__/test_host_alloc.cpython-36.pyc",
    "Lib/site-packages/numba/cuda/tests/cudadrv/__pycache__/test_inline_ptx.cpython-36.pyc",
    "Lib/site-packages/numba/cuda/tests/cudadrv/__pycache__/test_ir_patch.cpython-36.pyc",
    "Lib/site-packages/numba/cuda/tests/cudadrv/__pycache__/test_linker.cpython-36.pyc",
    "Lib/site-packages/numba/cuda/tests/cudadrv/__pycache__/test_nvvm_driver.cpython-36.pyc",
    "Lib/site-packages/numba/cuda/tests/cudadrv/__pycache__/test_pinned.cpython-36.pyc",
    "Lib/site-packages/numba/cuda/tests/cudadrv/__pycache__/test_profiler.cpython-36.pyc",
    "Lib/site-packages/numba/cuda/tests/cudadrv/__pycache__/test_reset_device.cpython-36.pyc",
    "Lib/site-packages/numba/cuda/tests/cudadrv/__pycache__/test_select_device.cpython-36.pyc",
    "Lib/site-packages/numba/cuda/tests/cudadrv/data/__init__.py",
    "Lib/site-packages/numba/cuda/tests/cudadrv/data/__pycache__/__init__.cpython-36.pyc",
    "Lib/site-packages/numba/cuda/tests/cudadrv/data/jitlink.ptx",
    "Lib/site-packages/numba/cuda/tests/cudadrv/test_array_attr.py",
    "Lib/site-packages/numba/cuda/tests/cudadrv/test_context_stack.py",
    "Lib/site-packages/numba/cuda/tests/cudadrv/test_cuda_array_slicing.py",
    "Lib/site-packages/numba/cuda/tests/cudadrv/test_cuda_auto_context.py",
    "Lib/site-packages/numba/cuda/tests/cudadrv/test_cuda_devicerecord.py",
    "Lib/site-packages/numba/cuda/tests/cudadrv/test_cuda_driver.py",
    "Lib/site-packages/numba/cuda/tests/cudadrv/test_cuda_memory.py",
    "Lib/site-packages/numba/cuda/tests/cudadrv/test_cuda_ndarray.py",
    "Lib/site-packages/numba/cuda/tests/cudadrv/test_deallocations.py",
    "Lib/site-packages/numba/cuda/tests/cudadrv/test_detect.py",
    "Lib/site-packages/numba/cuda/tests/cudadrv/test_events.py",
    "Lib/site-packages/numba/cuda/tests/cudadrv/test_host_alloc.py",
    "Lib/site-packages/numba/cuda/tests/cudadrv/test_inline_ptx.py",
    "Lib/site-packages/numba/cuda/tests/cudadrv/test_ir_patch.py",
    "Lib/site-packages/numba/cuda/tests/cudadrv/test_linker.py",
    "Lib/site-packages/numba/cuda/tests/cudadrv/test_nvvm_driver.py",
    "Lib/site-packages/numba/cuda/tests/cudadrv/test_pinned.py",
    "Lib/site-packages/numba/cuda/tests/cudadrv/test_profiler.py",
    "Lib/site-packages/numba/cuda/tests/cudadrv/test_reset_device.py",
    "Lib/site-packages/numba/cuda/tests/cudadrv/test_select_device.py",
    "Lib/site-packages/numba/cuda/tests/cudapy/__init__.py",
    "Lib/site-packages/numba/cuda/tests/cudapy/__pycache__/__init__.cpython-36.pyc",
    "Lib/site-packages/numba/cuda/tests/cudapy/__pycache__/test_alignment.cpython-36.pyc",
    "Lib/site-packages/numba/cuda/tests/cudapy/__pycache__/test_array.cpython-36.pyc",
    "Lib/site-packages/numba/cuda/tests/cudapy/__pycache__/test_array_args.cpython-36.pyc",
    "Lib/site-packages/numba/cuda/tests/cudapy/__pycache__/test_array_methods.cpython-36.pyc",
    "Lib/site-packages/numba/cuda/tests/cudapy/__pycache__/test_atomics.cpython-36.pyc",
    "Lib/site-packages/numba/cuda/tests/cudapy/__pycache__/test_autojit.cpython-36.pyc",
    "Lib/site-packages/numba/cuda/tests/cudapy/__pycache__/test_blackscholes.cpython-36.pyc",
    "Lib/site-packages/numba/cuda/tests/cudapy/__pycache__/test_boolean.cpython-36.pyc",
    "Lib/site-packages/numba/cuda/tests/cudapy/__pycache__/test_casting.cpython-36.pyc",
    "Lib/site-packages/numba/cuda/tests/cudapy/__pycache__/test_complex.cpython-36.pyc",
    "Lib/site-packages/numba/cuda/tests/cudapy/__pycache__/test_complex_kernel.cpython-36.pyc",
    "Lib/site-packages/numba/cuda/tests/cudapy/__pycache__/test_const_string.cpython-36.pyc",
    "Lib/site-packages/numba/cuda/tests/cudapy/__pycache__/test_constmem.cpython-36.pyc",
    "Lib/site-packages/numba/cuda/tests/cudapy/__pycache__/test_cuda_autojit.cpython-36.pyc",
    "Lib/site-packages/numba/cuda/tests/cudapy/__pycache__/test_debug.cpython-36.pyc",
    "Lib/site-packages/numba/cuda/tests/cudapy/__pycache__/test_debuginfo.cpython-36.pyc",
    "Lib/site-packages/numba/cuda/tests/cudapy/__pycache__/test_device_func.cpython-36.pyc",
    "Lib/site-packages/numba/cuda/tests/cudapy/__pycache__/test_errors.cpython-36.pyc",
    "Lib/site-packages/numba/cuda/tests/cudapy/__pycache__/test_exception.cpython-36.pyc",
    "Lib/site-packages/numba/cuda/tests/cudapy/__pycache__/test_fastmath.cpython-36.pyc",
    "Lib/site-packages/numba/cuda/tests/cudapy/__pycache__/test_forall.cpython-36.pyc",
    "Lib/site-packages/numba/cuda/tests/cudapy/__pycache__/test_freevar.cpython-36.pyc",
    "Lib/site-packages/numba/cuda/tests/cudapy/__pycache__/test_globals.cpython-36.pyc",
    "Lib/site-packages/numba/cuda/tests/cudapy/__pycache__/test_gufunc.cpython-36.pyc",
    "Lib/site-packages/numba/cuda/tests/cudapy/__pycache__/test_gufunc_scalar.cpython-36.pyc",
    "Lib/site-packages/numba/cuda/tests/cudapy/__pycache__/test_gufunc_scheduling.cpython-36.pyc",
    "Lib/site-packages/numba/cuda/tests/cudapy/__pycache__/test_idiv.cpython-36.pyc",
    "Lib/site-packages/numba/cuda/tests/cudapy/__pycache__/test_inspect.cpython-36.pyc",
    "Lib/site-packages/numba/cuda/tests/cudapy/__pycache__/test_intrinsics.cpython-36.pyc",
    "Lib/site-packages/numba/cuda/tests/cudapy/__pycache__/test_ipc.cpython-36.pyc",
    "Lib/site-packages/numba/cuda/tests/cudapy/__pycache__/test_lang.cpython-36.pyc",
    "Lib/site-packages/numba/cuda/tests/cudapy/__pycache__/test_laplace.cpython-36.pyc",
    "Lib/site-packages/numba/cuda/tests/cudapy/__pycache__/test_localmem.cpython-36.pyc",
    "Lib/site-packages/numba/cuda/tests/cudapy/__pycache__/test_macro.cpython-36.pyc",
    "Lib/site-packages/numba/cuda/tests/cudapy/__pycache__/test_mandel.cpython-36.pyc",
    "Lib/site-packages/numba/cuda/tests/cudapy/__pycache__/test_math.cpython-36.pyc",
    "Lib/site-packages/numba/cuda/tests/cudapy/__pycache__/test_matmul.cpython-36.pyc",
    "Lib/site-packages/numba/cuda/tests/cudapy/__pycache__/test_montecarlo.cpython-36.pyc",
    "Lib/site-packages/numba/cuda/tests/cudapy/__pycache__/test_multigpu.cpython-36.pyc",
    "Lib/site-packages/numba/cuda/tests/cudapy/__pycache__/test_multiprocessing.cpython-36.pyc",
    "Lib/site-packages/numba/cuda/tests/cudapy/__pycache__/test_multithreads.cpython-36.pyc",
    "Lib/site-packages/numba/cuda/tests/cudapy/__pycache__/test_nondet.cpython-36.pyc",
    "Lib/site-packages/numba/cuda/tests/cudapy/__pycache__/test_operator.cpython-36.pyc",
    "Lib/site-packages/numba/cuda/tests/cudapy/__pycache__/test_powi.cpython-36.pyc",
    "Lib/site-packages/numba/cuda/tests/cudapy/__pycache__/test_print.cpython-36.pyc",
    "Lib/site-packages/numba/cuda/tests/cudapy/__pycache__/test_py2_div_issue.cpython-36.pyc",
    "Lib/site-packages/numba/cuda/tests/cudapy/__pycache__/test_random.cpython-36.pyc",
    "Lib/site-packages/numba/cuda/tests/cudapy/__pycache__/test_record_dtype.cpython-36.pyc",
    "Lib/site-packages/numba/cuda/tests/cudapy/__pycache__/test_reduction.cpython-36.pyc",
    "Lib/site-packages/numba/cuda/tests/cudapy/__pycache__/test_serialize.cpython-36.pyc",
    "Lib/site-packages/numba/cuda/tests/cudapy/__pycache__/test_slicing.cpython-36.pyc",
    "Lib/site-packages/numba/cuda/tests/cudapy/__pycache__/test_sm.cpython-36.pyc",
    "Lib/site-packages/numba/cuda/tests/cudapy/__pycache__/test_smart_array.cpython-36.pyc",
    "Lib/site-packages/numba/cuda/tests/cudapy/__pycache__/test_sync.cpython-36.pyc",
    "Lib/site-packages/numba/cuda/tests/cudapy/__pycache__/test_transpose.cpython-36.pyc",
    "Lib/site-packages/numba/cuda/tests/cudapy/__pycache__/test_userexc.cpython-36.pyc",
    "Lib/site-packages/numba/cuda/tests/cudapy/__pycache__/test_vectorize.cpython-36.pyc",
    "Lib/site-packages/numba/cuda/tests/cudapy/__pycache__/test_vectorize_complex.cpython-36.pyc",
    "Lib/site-packages/numba/cuda/tests/cudapy/__pycache__/test_vectorize_decor.cpython-36.pyc",
    "Lib/site-packages/numba/cuda/tests/cudapy/__pycache__/test_vectorize_device.cpython-36.pyc",
    "Lib/site-packages/numba/cuda/tests/cudapy/__pycache__/test_vectorize_scalar_arg.cpython-36.pyc",
    "Lib/site-packages/numba/cuda/tests/cudapy/test_alignment.py",
    "Lib/site-packages/numba/cuda/tests/cudapy/test_array.py",
    "Lib/site-packages/numba/cuda/tests/cudapy/test_array_args.py",
    "Lib/site-packages/numba/cuda/tests/cudapy/test_array_methods.py",
    "Lib/site-packages/numba/cuda/tests/cudapy/test_atomics.py",
    "Lib/site-packages/numba/cuda/tests/cudapy/test_autojit.py",
    "Lib/site-packages/numba/cuda/tests/cudapy/test_blackscholes.py",
    "Lib/site-packages/numba/cuda/tests/cudapy/test_boolean.py",
    "Lib/site-packages/numba/cuda/tests/cudapy/test_casting.py",
    "Lib/site-packages/numba/cuda/tests/cudapy/test_complex.py",
    "Lib/site-packages/numba/cuda/tests/cudapy/test_complex_kernel.py",
    "Lib/site-packages/numba/cuda/tests/cudapy/test_const_string.py",
    "Lib/site-packages/numba/cuda/tests/cudapy/test_constmem.py",
    "Lib/site-packages/numba/cuda/tests/cudapy/test_cuda_autojit.py",
    "Lib/site-packages/numba/cuda/tests/cudapy/test_debug.py",
    "Lib/site-packages/numba/cuda/tests/cudapy/test_debuginfo.py",
    "Lib/site-packages/numba/cuda/tests/cudapy/test_device_func.py",
    "Lib/site-packages/numba/cuda/tests/cudapy/test_errors.py",
    "Lib/site-packages/numba/cuda/tests/cudapy/test_exception.py",
    "Lib/site-packages/numba/cuda/tests/cudapy/test_fastmath.py",
    "Lib/site-packages/numba/cuda/tests/cudapy/test_forall.py",
    "Lib/site-packages/numba/cuda/tests/cudapy/test_freevar.py",
    "Lib/site-packages/numba/cuda/tests/cudapy/test_globals.py",
    "Lib/site-packages/numba/cuda/tests/cudapy/test_gufunc.py",
    "Lib/site-packages/numba/cuda/tests/cudapy/test_gufunc_scalar.py",
    "Lib/site-packages/numba/cuda/tests/cudapy/test_gufunc_scheduling.py",
    "Lib/site-packages/numba/cuda/tests/cudapy/test_idiv.py",
    "Lib/site-packages/numba/cuda/tests/cudapy/test_inspect.py",
    "Lib/site-packages/numba/cuda/tests/cudapy/test_intrinsics.py",
    "Lib/site-packages/numba/cuda/tests/cudapy/test_ipc.py",
    "Lib/site-packages/numba/cuda/tests/cudapy/test_lang.py",
    "Lib/site-packages/numba/cuda/tests/cudapy/test_laplace.py",
    "Lib/site-packages/numba/cuda/tests/cudapy/test_localmem.py",
    "Lib/site-packages/numba/cuda/tests/cudapy/test_macro.py",
    "Lib/site-packages/numba/cuda/tests/cudapy/test_mandel.py",
    "Lib/site-packages/numba/cuda/tests/cudapy/test_math.py",
    "Lib/site-packages/numba/cuda/tests/cudapy/test_matmul.py",
    "Lib/site-packages/numba/cuda/tests/cudapy/test_montecarlo.py",
    "Lib/site-packages/numba/cuda/tests/cudapy/test_multigpu.py",
    "Lib/site-packages/numba/cuda/tests/cudapy/test_multiprocessing.py",
    "Lib/site-packages/numba/cuda/tests/cudapy/test_multithreads.py",
    "Lib/site-packages/numba/cuda/tests/cudapy/test_nondet.py",
    "Lib/site-packages/numba/cuda/tests/cudapy/test_operator.py",
    "Lib/site-packages/numba/cuda/tests/cudapy/test_powi.py",
    "Lib/site-packages/numba/cuda/tests/cudapy/test_print.py",
    "Lib/site-packages/numba/cuda/tests/cudapy/test_py2_div_issue.py",
    "Lib/site-packages/numba/cuda/tests/cudapy/test_random.py",
    "Lib/site-packages/numba/cuda/tests/cudapy/test_record_dtype.py",
    "Lib/site-packages/numba/cuda/tests/cudapy/test_reduction.py",
    "Lib/site-packages/numba/cuda/tests/cudapy/test_serialize.py",
    "Lib/site-packages/numba/cuda/tests/cudapy/test_slicing.py",
    "Lib/site-packages/numba/cuda/tests/cudapy/test_sm.py",
    "Lib/site-packages/numba/cuda/tests/cudapy/test_smart_array.py",
    "Lib/site-packages/numba/cuda/tests/cudapy/test_sync.py",
    "Lib/site-packages/numba/cuda/tests/cudapy/test_transpose.py",
    "Lib/site-packages/numba/cuda/tests/cudapy/test_userexc.py",
    "Lib/site-packages/numba/cuda/tests/cudapy/test_vectorize.py",
    "Lib/site-packages/numba/cuda/tests/cudapy/test_vectorize_complex.py",
    "Lib/site-packages/numba/cuda/tests/cudapy/test_vectorize_decor.py",
    "Lib/site-packages/numba/cuda/tests/cudapy/test_vectorize_device.py",
    "Lib/site-packages/numba/cuda/tests/cudapy/test_vectorize_scalar_arg.py",
    "Lib/site-packages/numba/cuda/tests/cudasim/__init__.py",
    "Lib/site-packages/numba/cuda/tests/cudasim/__pycache__/__init__.cpython-36.pyc",
    "Lib/site-packages/numba/cuda/tests/cudasim/__pycache__/support.cpython-36.pyc",
    "Lib/site-packages/numba/cuda/tests/cudasim/__pycache__/test_cudasim_issues.cpython-36.pyc",
    "Lib/site-packages/numba/cuda/tests/cudasim/support.py",
    "Lib/site-packages/numba/cuda/tests/cudasim/test_cudasim_issues.py",
    "Lib/site-packages/numba/cuda/tests/nocuda/__init__.py",
    "Lib/site-packages/numba/cuda/tests/nocuda/__pycache__/__init__.cpython-36.pyc",
    "Lib/site-packages/numba/cuda/tests/nocuda/__pycache__/test_nvvm.cpython-36.pyc",
    "Lib/site-packages/numba/cuda/tests/nocuda/test_nvvm.py",
    "Lib/site-packages/numba/cuda/vectorizers.py",
    "Lib/site-packages/numba/dataflow.py",
    "Lib/site-packages/numba/datamodel/__init__.py",
    "Lib/site-packages/numba/datamodel/__pycache__/__init__.cpython-36.pyc",
    "Lib/site-packages/numba/datamodel/__pycache__/manager.cpython-36.pyc",
    "Lib/site-packages/numba/datamodel/__pycache__/models.cpython-36.pyc",
    "Lib/site-packages/numba/datamodel/__pycache__/packer.cpython-36.pyc",
    "Lib/site-packages/numba/datamodel/__pycache__/registry.cpython-36.pyc",
    "Lib/site-packages/numba/datamodel/__pycache__/testing.cpython-36.pyc",
    "Lib/site-packages/numba/datamodel/manager.py",
    "Lib/site-packages/numba/datamodel/models.py",
    "Lib/site-packages/numba/datamodel/packer.py",
    "Lib/site-packages/numba/datamodel/registry.py",
    "Lib/site-packages/numba/datamodel/testing.py",
    "Lib/site-packages/numba/debuginfo.py",
    "Lib/site-packages/numba/decorators.py",
    "Lib/site-packages/numba/dispatcher.py",
    "Lib/site-packages/numba/dummyarray.py",
    "Lib/site-packages/numba/errors.py",
    "Lib/site-packages/numba/extending.py",
    "Lib/site-packages/numba/findlib.py",
    "Lib/site-packages/numba/funcdesc.py",
    "Lib/site-packages/numba/generators.py",
    "Lib/site-packages/numba/hsa/__init__.py",
    "Lib/site-packages/numba/hsa/__pycache__/__init__.cpython-36.pyc",
    "Lib/site-packages/numba/hsa/__pycache__/api.cpython-36.pyc",
    "Lib/site-packages/numba/hsa/__pycache__/codegen.cpython-36.pyc",
    "Lib/site-packages/numba/hsa/__pycache__/compiler.cpython-36.pyc",
    "Lib/site-packages/numba/hsa/__pycache__/decorators.cpython-36.pyc",
    "Lib/site-packages/numba/hsa/__pycache__/descriptor.cpython-36.pyc",
    "Lib/site-packages/numba/hsa/__pycache__/dispatch.cpython-36.pyc",
    "Lib/site-packages/numba/hsa/__pycache__/enums.cpython-36.pyc",
    "Lib/site-packages/numba/hsa/__pycache__/hsadecl.cpython-36.pyc",
    "Lib/site-packages/numba/hsa/__pycache__/hsaimpl.cpython-36.pyc",
    "Lib/site-packages/numba/hsa/__pycache__/initialize.cpython-36.pyc",
    "Lib/site-packages/numba/hsa/__pycache__/mathdecl.cpython-36.pyc",
    "Lib/site-packages/numba/hsa/__pycache__/mathimpl.cpython-36.pyc",
    "Lib/site-packages/numba/hsa/__pycache__/stubs.cpython-36.pyc",
    "Lib/site-packages/numba/hsa/__pycache__/target.cpython-36.pyc",
    "Lib/site-packages/numba/hsa/__pycache__/vectorizers.cpython-36.pyc",
    "Lib/site-packages/numba/hsa/api.py",
    "Lib/site-packages/numba/hsa/codegen.py",
    "Lib/site-packages/numba/hsa/compiler.py",
    "Lib/site-packages/numba/hsa/decorators.py",
    "Lib/site-packages/numba/hsa/descriptor.py",
    "Lib/site-packages/numba/hsa/dispatch.py",
    "Lib/site-packages/numba/hsa/enums.py",
    "Lib/site-packages/numba/hsa/hlc/__init__.py",
    "Lib/site-packages/numba/hsa/hlc/__pycache__/__init__.cpython-36.pyc",
    "Lib/site-packages/numba/hsa/hlc/__pycache__/config.cpython-36.pyc",
    "Lib/site-packages/numba/hsa/hlc/__pycache__/hlc.cpython-36.pyc",
    "Lib/site-packages/numba/hsa/hlc/__pycache__/libhlc.cpython-36.pyc",
    "Lib/site-packages/numba/hsa/hlc/__pycache__/utils.cpython-36.pyc",
    "Lib/site-packages/numba/hsa/hlc/config.py",
    "Lib/site-packages/numba/hsa/hlc/hlc.py",
    "Lib/site-packages/numba/hsa/hlc/libhlc.py",
    "Lib/site-packages/numba/hsa/hlc/utils.py",
    "Lib/site-packages/numba/hsa/hsadecl.py",
    "Lib/site-packages/numba/hsa/hsadrv/__init__.py",
    "Lib/site-packages/numba/hsa/hsadrv/__pycache__/__init__.cpython-36.pyc",
    "Lib/site-packages/numba/hsa/hsadrv/__pycache__/devices.cpython-36.pyc",
    "Lib/site-packages/numba/hsa/hsadrv/__pycache__/driver.cpython-36.pyc",
    "Lib/site-packages/numba/hsa/hsadrv/__pycache__/drvapi.cpython-36.pyc",
    "Lib/site-packages/numba/hsa/hsadrv/__pycache__/enums.cpython-36.pyc",
    "Lib/site-packages/numba/hsa/hsadrv/__pycache__/error.cpython-36.pyc",
    "Lib/site-packages/numba/hsa/hsadrv/devices.py",
    "Lib/site-packages/numba/hsa/hsadrv/driver.py",
    "Lib/site-packages/numba/hsa/hsadrv/drvapi.py",
    "Lib/site-packages/numba/hsa/hsadrv/enums.py",
    "Lib/site-packages/numba/hsa/hsadrv/error.py",
    "Lib/site-packages/numba/hsa/hsaimpl.py",
    "Lib/site-packages/numba/hsa/initialize.py",
    "Lib/site-packages/numba/hsa/mathdecl.py",
    "Lib/site-packages/numba/hsa/mathimpl.py",
    "Lib/site-packages/numba/hsa/stubs.py",
    "Lib/site-packages/numba/hsa/target.py",
    "Lib/site-packages/numba/hsa/tests/__init__.py",
    "Lib/site-packages/numba/hsa/tests/__pycache__/__init__.cpython-36.pyc",
    "Lib/site-packages/numba/hsa/tests/hsadrv/__init__.py",
    "Lib/site-packages/numba/hsa/tests/hsadrv/__pycache__/__init__.cpython-36.pyc",
    "Lib/site-packages/numba/hsa/tests/hsadrv/__pycache__/test_driver.cpython-36.pyc",
    "Lib/site-packages/numba/hsa/tests/hsadrv/__pycache__/test_hlc.cpython-36.pyc",
    "Lib/site-packages/numba/hsa/tests/hsadrv/test_driver.py",
    "Lib/site-packages/numba/hsa/tests/hsadrv/test_hlc.py",
    "Lib/site-packages/numba/hsa/tests/hsadrv/vector_copy.brig",
    "Lib/site-packages/numba/hsa/tests/hsapy/__init__.py",
    "Lib/site-packages/numba/hsa/tests/hsapy/__pycache__/__init__.cpython-36.pyc",
    "Lib/site-packages/numba/hsa/tests/hsapy/__pycache__/test_atomics.cpython-36.pyc",
    "Lib/site-packages/numba/hsa/tests/hsapy/__pycache__/test_autojit.cpython-36.pyc",
    "Lib/site-packages/numba/hsa/tests/hsapy/__pycache__/test_barrier.cpython-36.pyc",
    "Lib/site-packages/numba/hsa/tests/hsapy/__pycache__/test_compiler.cpython-36.pyc",
    "Lib/site-packages/numba/hsa/tests/hsapy/__pycache__/test_decorator.cpython-36.pyc",
    "Lib/site-packages/numba/hsa/tests/hsapy/__pycache__/test_gufuncbuilding.cpython-36.pyc",
    "Lib/site-packages/numba/hsa/tests/hsapy/__pycache__/test_linkage.cpython-36.pyc",
    "Lib/site-packages/numba/hsa/tests/hsapy/__pycache__/test_math.cpython-36.pyc",
    "Lib/site-packages/numba/hsa/tests/hsapy/__pycache__/test_matmul.cpython-36.pyc",
    "Lib/site-packages/numba/hsa/tests/hsapy/__pycache__/test_positioning.cpython-36.pyc",
    "Lib/site-packages/numba/hsa/tests/hsapy/__pycache__/test_reduction.cpython-36.pyc",
    "Lib/site-packages/numba/hsa/tests/hsapy/__pycache__/test_scan.cpython-36.pyc",
    "Lib/site-packages/numba/hsa/tests/hsapy/__pycache__/test_simple.cpython-36.pyc",
    "Lib/site-packages/numba/hsa/tests/hsapy/__pycache__/test_ufuncbuilding.cpython-36.pyc",
    "Lib/site-packages/numba/hsa/tests/hsapy/test_atomics.py",
    "Lib/site-packages/numba/hsa/tests/hsapy/test_autojit.py",
    "Lib/site-packages/numba/hsa/tests/hsapy/test_barrier.py",
    "Lib/site-packages/numba/hsa/tests/hsapy/test_compiler.py",
    "Lib/site-packages/numba/hsa/tests/hsapy/test_decorator.py",
    "Lib/site-packages/numba/hsa/tests/hsapy/test_gufuncbuilding.py",
    "Lib/site-packages/numba/hsa/tests/hsapy/test_linkage.py",
    "Lib/site-packages/numba/hsa/tests/hsapy/test_math.py",
    "Lib/site-packages/numba/hsa/tests/hsapy/test_matmul.py",
    "Lib/site-packages/numba/hsa/tests/hsapy/test_positioning.py",
    "Lib/site-packages/numba/hsa/tests/hsapy/test_reduction.py",
    "Lib/site-packages/numba/hsa/tests/hsapy/test_scan.py",
    "Lib/site-packages/numba/hsa/tests/hsapy/test_simple.py",
    "Lib/site-packages/numba/hsa/tests/hsapy/test_ufuncbuilding.py",
    "Lib/site-packages/numba/hsa/vectorizers.py",
    "Lib/site-packages/numba/inline_closurecall.py",
    "Lib/site-packages/numba/interpreter.py",
    "Lib/site-packages/numba/io_support.py",
    "Lib/site-packages/numba/ir.py",
    "Lib/site-packages/numba/ir_utils.py",
    "Lib/site-packages/numba/itanium_mangler.py",
    "Lib/site-packages/numba/jitclass/__init__.py",
    "Lib/site-packages/numba/jitclass/__pycache__/__init__.cpython-36.pyc",
    "Lib/site-packages/numba/jitclass/__pycache__/_box.cpython-36.pyc",
    "Lib/site-packages/numba/jitclass/__pycache__/base.cpython-36.pyc",
    "Lib/site-packages/numba/jitclass/__pycache__/boxing.cpython-36.pyc",
    "Lib/site-packages/numba/jitclass/__pycache__/decorators.cpython-36.pyc",
    "Lib/site-packages/numba/jitclass/_box.cp36-win_amd64.pyd",
    "Lib/site-packages/numba/jitclass/_box.py",
    "Lib/site-packages/numba/jitclass/base.py",
    "Lib/site-packages/numba/jitclass/boxing.py",
    "Lib/site-packages/numba/jitclass/decorators.py",
    "Lib/site-packages/numba/llvmthreadsafe.py",
    "Lib/site-packages/numba/lowering.py",
    "Lib/site-packages/numba/macro.py",
    "Lib/site-packages/numba/mathnames.h",
    "Lib/site-packages/numba/mviewbuf.c",
    "Lib/site-packages/numba/mviewbuf.cp36-win_amd64.pyd",
    "Lib/site-packages/numba/mviewbuf.py",
    "Lib/site-packages/numba/npdatetime.py",
    "Lib/site-packages/numba/npyufunc/__init__.py",
    "Lib/site-packages/numba/npyufunc/__pycache__/__init__.cpython-36.pyc",
    "Lib/site-packages/numba/npyufunc/__pycache__/_internal.cpython-36.pyc",
    "Lib/site-packages/numba/npyufunc/__pycache__/array_exprs.cpython-36.pyc",
    "Lib/site-packages/numba/npyufunc/__pycache__/decorators.cpython-36.pyc",
    "Lib/site-packages/numba/npyufunc/__pycache__/deviceufunc.cpython-36.pyc",
    "Lib/site-packages/numba/npyufunc/__pycache__/dufunc.cpython-36.pyc",
    "Lib/site-packages/numba/npyufunc/__pycache__/parallel.cpython-36.pyc",
    "Lib/site-packages/numba/npyufunc/__pycache__/parfor.cpython-36.pyc",
    "Lib/site-packages/numba/npyufunc/__pycache__/sigparse.cpython-36.pyc",
    "Lib/site-packages/numba/npyufunc/__pycache__/ufuncbuilder.cpython-36.pyc",
    "Lib/site-packages/numba/npyufunc/__pycache__/workqueue.cpython-36.pyc",
    "Lib/site-packages/numba/npyufunc/__pycache__/wrappers.cpython-36.pyc",
    "Lib/site-packages/numba/npyufunc/_internal.cp36-win_amd64.pyd",
    "Lib/site-packages/numba/npyufunc/_internal.py",
    "Lib/site-packages/numba/npyufunc/array_exprs.py",
    "Lib/site-packages/numba/npyufunc/decorators.py",
    "Lib/site-packages/numba/npyufunc/deviceufunc.py",
    "Lib/site-packages/numba/npyufunc/dufunc.py",
    "Lib/site-packages/numba/npyufunc/parallel.py",
    "Lib/site-packages/numba/npyufunc/parfor.py",
    "Lib/site-packages/numba/npyufunc/sigparse.py",
    "Lib/site-packages/numba/npyufunc/ufuncbuilder.py",
    "Lib/site-packages/numba/npyufunc/workqueue.cp36-win_amd64.pyd",
    "Lib/site-packages/numba/npyufunc/workqueue.py",
    "Lib/site-packages/numba/npyufunc/wrappers.py",
    "Lib/site-packages/numba/numba_entry.py",
    "Lib/site-packages/numba/numpy_support.py",
    "Lib/site-packages/numba/objmode.py",
    "Lib/site-packages/numba/parfor.py",
    "Lib/site-packages/numba/postproc.py",
    "Lib/site-packages/numba/pycc/__init__.py",
    "Lib/site-packages/numba/pycc/__pycache__/__init__.cpython-36.pyc",
    "Lib/site-packages/numba/pycc/__pycache__/cc.cpython-36.pyc",
    "Lib/site-packages/numba/pycc/__pycache__/compiler.cpython-36.pyc",
    "Lib/site-packages/numba/pycc/__pycache__/decorators.cpython-36.pyc",
    "Lib/site-packages/numba/pycc/__pycache__/llvm_types.cpython-36.pyc",
    "Lib/site-packages/numba/pycc/__pycache__/platform.cpython-36.pyc",
    "Lib/site-packages/numba/pycc/cc.py",
    "Lib/site-packages/numba/pycc/compiler.py",
    "Lib/site-packages/numba/pycc/decorators.py",
    "Lib/site-packages/numba/pycc/llvm_types.py",
    "Lib/site-packages/numba/pycc/modulemixin.c",
    "Lib/site-packages/numba/pycc/platform.py",
    "Lib/site-packages/numba/pythonapi.py",
    "Lib/site-packages/numba/rewrites/__init__.py",
    "Lib/site-packages/numba/rewrites/__pycache__/__init__.cpython-36.pyc",
    "Lib/site-packages/numba/rewrites/__pycache__/ir_print.cpython-36.pyc",
    "Lib/site-packages/numba/rewrites/__pycache__/macros.cpython-36.pyc",
    "Lib/site-packages/numba/rewrites/__pycache__/registry.cpython-36.pyc",
    "Lib/site-packages/numba/rewrites/__pycache__/static_binop.cpython-36.pyc",
    "Lib/site-packages/numba/rewrites/__pycache__/static_getitem.cpython-36.pyc",
    "Lib/site-packages/numba/rewrites/__pycache__/static_raise.cpython-36.pyc",
    "Lib/site-packages/numba/rewrites/ir_print.py",
    "Lib/site-packages/numba/rewrites/macros.py",
    "Lib/site-packages/numba/rewrites/registry.py",
    "Lib/site-packages/numba/rewrites/static_binop.py",
    "Lib/site-packages/numba/rewrites/static_getitem.py",
    "Lib/site-packages/numba/rewrites/static_raise.py",
    "Lib/site-packages/numba/runtests.py",
    "Lib/site-packages/numba/runtime/__init__.py",
    "Lib/site-packages/numba/runtime/__pycache__/__init__.cpython-36.pyc",
    "Lib/site-packages/numba/runtime/__pycache__/_nrt_python.cpython-36.pyc",
    "Lib/site-packages/numba/runtime/__pycache__/context.cpython-36.pyc",
    "Lib/site-packages/numba/runtime/__pycache__/nrt.cpython-36.pyc",
    "Lib/site-packages/numba/runtime/__pycache__/nrtdynmod.cpython-36.pyc",
    "Lib/site-packages/numba/runtime/__pycache__/nrtopt.cpython-36.pyc",
    "Lib/site-packages/numba/runtime/_nrt_python.c",
    "Lib/site-packages/numba/runtime/_nrt_python.cp36-win_amd64.pyd",
    "Lib/site-packages/numba/runtime/_nrt_python.py",
    "Lib/site-packages/numba/runtime/_nrt_pythonmod.c",
    "Lib/site-packages/numba/runtime/context.py",
    "Lib/site-packages/numba/runtime/nrt.c",
    "Lib/site-packages/numba/runtime/nrt.h",
    "Lib/site-packages/numba/runtime/nrt.py",
    "Lib/site-packages/numba/runtime/nrtdynmod.py",
    "Lib/site-packages/numba/runtime/nrtopt.py",
    "Lib/site-packages/numba/scripts/__init__.py",
    "Lib/site-packages/numba/scripts/__pycache__/__init__.cpython-36.pyc",
    "Lib/site-packages/numba/scripts/__pycache__/generate_lower_listing.cpython-36.pyc",
    "Lib/site-packages/numba/scripts/generate_lower_listing.py",
    "Lib/site-packages/numba/serialize.py",
    "Lib/site-packages/numba/servicelib/__init__.py",
    "Lib/site-packages/numba/servicelib/__pycache__/__init__.cpython-36.pyc",
    "Lib/site-packages/numba/servicelib/__pycache__/service.cpython-36.pyc",
    "Lib/site-packages/numba/servicelib/__pycache__/threadlocal.cpython-36.pyc",
    "Lib/site-packages/numba/servicelib/service.py",
    "Lib/site-packages/numba/servicelib/threadlocal.py",
    "Lib/site-packages/numba/sigutils.py",
    "Lib/site-packages/numba/six.py",
    "Lib/site-packages/numba/smartarray.py",
    "Lib/site-packages/numba/special.py",
    "Lib/site-packages/numba/targets/__init__.py",
    "Lib/site-packages/numba/targets/__pycache__/__init__.cpython-36.pyc",
    "Lib/site-packages/numba/targets/__pycache__/arraymath.cpython-36.pyc",
    "Lib/site-packages/numba/targets/__pycache__/arrayobj.cpython-36.pyc",
    "Lib/site-packages/numba/targets/__pycache__/base.cpython-36.pyc",
    "Lib/site-packages/numba/targets/__pycache__/boxing.cpython-36.pyc",
    "Lib/site-packages/numba/targets/__pycache__/builtins.cpython-36.pyc",
    "Lib/site-packages/numba/targets/__pycache__/callconv.cpython-36.pyc",
    "Lib/site-packages/numba/targets/__pycache__/cffiimpl.cpython-36.pyc",
    "Lib/site-packages/numba/targets/__pycache__/cmathimpl.cpython-36.pyc",
    "Lib/site-packages/numba/targets/__pycache__/codegen.cpython-36.pyc",
    "Lib/site-packages/numba/targets/__pycache__/cpu.cpython-36.pyc",
    "Lib/site-packages/numba/targets/__pycache__/descriptors.cpython-36.pyc",
    "Lib/site-packages/numba/targets/__pycache__/enumimpl.cpython-36.pyc",
    "Lib/site-packages/numba/targets/__pycache__/externals.cpython-36.pyc",
    "Lib/site-packages/numba/targets/__pycache__/fastmathpass.cpython-36.pyc",
    "Lib/site-packages/numba/targets/__pycache__/imputils.cpython-36.pyc",
    "Lib/site-packages/numba/targets/__pycache__/intrinsics.cpython-36.pyc",
    "Lib/site-packages/numba/targets/__pycache__/iterators.cpython-36.pyc",
    "Lib/site-packages/numba/targets/__pycache__/linalg.cpython-36.pyc",
    "Lib/site-packages/numba/targets/__pycache__/listobj.cpython-36.pyc",
    "Lib/site-packages/numba/targets/__pycache__/mathimpl.cpython-36.pyc",
    "Lib/site-packages/numba/targets/__pycache__/npdatetime.cpython-36.pyc",
    "Lib/site-packages/numba/targets/__pycache__/npyfuncs.cpython-36.pyc",
    "Lib/site-packages/numba/targets/__pycache__/npyimpl.cpython-36.pyc",
    "Lib/site-packages/numba/targets/__pycache__/numbers.cpython-36.pyc",
    "Lib/site-packages/numba/targets/__pycache__/operatorimpl.cpython-36.pyc",
    "Lib/site-packages/numba/targets/__pycache__/optional.cpython-36.pyc",
    "Lib/site-packages/numba/targets/__pycache__/options.cpython-36.pyc",
    "Lib/site-packages/numba/targets/__pycache__/polynomial.cpython-36.pyc",
    "Lib/site-packages/numba/targets/__pycache__/printimpl.cpython-36.pyc",
    "Lib/site-packages/numba/targets/__pycache__/quicksort.cpython-36.pyc",
    "Lib/site-packages/numba/targets/__pycache__/randomimpl.cpython-36.pyc",
    "Lib/site-packages/numba/targets/__pycache__/rangeobj.cpython-36.pyc",
    "Lib/site-packages/numba/targets/__pycache__/registry.cpython-36.pyc",
    "Lib/site-packages/numba/targets/__pycache__/removerefctpass.cpython-36.pyc",
    "Lib/site-packages/numba/targets/__pycache__/setobj.cpython-36.pyc",
    "Lib/site-packages/numba/targets/__pycache__/slicing.cpython-36.pyc",
    "Lib/site-packages/numba/targets/__pycache__/smartarray.cpython-36.pyc",
    "Lib/site-packages/numba/targets/__pycache__/tupleobj.cpython-36.pyc",
    "Lib/site-packages/numba/targets/__pycache__/ufunc_db.cpython-36.pyc",
    "Lib/site-packages/numba/targets/arraymath.py",
    "Lib/site-packages/numba/targets/arrayobj.py",
    "Lib/site-packages/numba/targets/base.py",
    "Lib/site-packages/numba/targets/boxing.py",
    "Lib/site-packages/numba/targets/builtins.py",
    "Lib/site-packages/numba/targets/callconv.py",
    "Lib/site-packages/numba/targets/cffiimpl.py",
    "Lib/site-packages/numba/targets/cmathimpl.py",
    "Lib/site-packages/numba/targets/codegen.py",
    "Lib/site-packages/numba/targets/cpu.py",
    "Lib/site-packages/numba/targets/descriptors.py",
    "Lib/site-packages/numba/targets/enumimpl.py",
    "Lib/site-packages/numba/targets/externals.py",
    "Lib/site-packages/numba/targets/fastmathpass.py",
    "Lib/site-packages/numba/targets/imputils.py",
    "Lib/site-packages/numba/targets/intrinsics.py",
    "Lib/site-packages/numba/targets/iterators.py",
    "Lib/site-packages/numba/targets/linalg.py",
    "Lib/site-packages/numba/targets/listobj.py",
    "Lib/site-packages/numba/targets/mathimpl.py",
    "Lib/site-packages/numba/targets/npdatetime.py",
    "Lib/site-packages/numba/targets/npyfuncs.py",
    "Lib/site-packages/numba/targets/npyimpl.py",
    "Lib/site-packages/numba/targets/numbers.py",
    "Lib/site-packages/numba/targets/operatorimpl.py",
    "Lib/site-packages/numba/targets/optional.py",
    "Lib/site-packages/numba/targets/options.py",
    "Lib/site-packages/numba/targets/polynomial.py",
    "Lib/site-packages/numba/targets/printimpl.py",
    "Lib/site-packages/numba/targets/quicksort.py",
    "Lib/site-packages/numba/targets/randomimpl.py",
    "Lib/site-packages/numba/targets/rangeobj.py",
    "Lib/site-packages/numba/targets/registry.py",
    "Lib/site-packages/numba/targets/removerefctpass.py",
    "Lib/site-packages/numba/targets/setobj.py",
    "Lib/site-packages/numba/targets/slicing.py",
    "Lib/site-packages/numba/targets/smartarray.py",
    "Lib/site-packages/numba/targets/tupleobj.py",
    "Lib/site-packages/numba/targets/ufunc_db.py",
    "Lib/site-packages/numba/testing/__init__.py",
    "Lib/site-packages/numba/testing/__main__.py",
    "Lib/site-packages/numba/testing/__pycache__/__init__.cpython-36.pyc",
    "Lib/site-packages/numba/testing/__pycache__/__main__.cpython-36.pyc",
    "Lib/site-packages/numba/testing/__pycache__/ddt.cpython-36.pyc",
    "Lib/site-packages/numba/testing/__pycache__/loader.cpython-36.pyc",
    "Lib/site-packages/numba/testing/__pycache__/main.cpython-36.pyc",
    "Lib/site-packages/numba/testing/__pycache__/notebook.cpython-36.pyc",
    "Lib/site-packages/numba/testing/ddt.py",
    "Lib/site-packages/numba/testing/loader.py",
    "Lib/site-packages/numba/testing/main.py",
    "Lib/site-packages/numba/testing/notebook.py",
    "Lib/site-packages/numba/tests/__init__.py",
    "Lib/site-packages/numba/tests/__pycache__/__init__.cpython-36.pyc",
    "Lib/site-packages/numba/tests/__pycache__/annotation_usecases.cpython-36.pyc",
    "Lib/site-packages/numba/tests/__pycache__/cache_usecases.cpython-36.pyc",
    "Lib/site-packages/numba/tests/__pycache__/cffi_usecases.cpython-36.pyc",
    "Lib/site-packages/numba/tests/__pycache__/cfunc_cache_usecases.cpython-36.pyc",
    "Lib/site-packages/numba/tests/__pycache__/compile_with_pycc.cpython-36.pyc",
    "Lib/site-packages/numba/tests/__pycache__/complex_usecases.cpython-36.pyc",
    "Lib/site-packages/numba/tests/__pycache__/ctypes_usecases.cpython-36.pyc",
    "Lib/site-packages/numba/tests/__pycache__/enum_usecases.cpython-36.pyc",
    "Lib/site-packages/numba/tests/__pycache__/matmul_usecase.cpython-36.pyc",
    "Lib/site-packages/numba/tests/__pycache__/pdlike_usecase.cpython-36.pyc",
    "Lib/site-packages/numba/tests/__pycache__/recursion_usecases.cpython-36.pyc",
    "Lib/site-packages/numba/tests/__pycache__/serialize_usecases.cpython-36.pyc",
    "Lib/site-packages/numba/tests/__pycache__/support.cpython-36.pyc",
    "Lib/site-packages/numba/tests/__pycache__/test_alignment.cpython-36.pyc",
    "Lib/site-packages/numba/tests/__pycache__/test_annotations.cpython-36.pyc",
    "Lib/site-packages/numba/tests/__pycache__/test_api.cpython-36.pyc",
    "Lib/site-packages/numba/tests/__pycache__/test_array_analysis.cpython-36.pyc",
    "Lib/site-packages/numba/tests/__pycache__/test_array_attr.cpython-36.pyc",
    "Lib/site-packages/numba/tests/__pycache__/test_array_constants.cpython-36.pyc",
    "Lib/site-packages/numba/tests/__pycache__/test_array_exprs.cpython-36.pyc",
    "Lib/site-packages/numba/tests/__pycache__/test_array_iterators.cpython-36.pyc",
    "Lib/site-packages/numba/tests/__pycache__/test_array_manipulation.cpython-36.pyc",
    "Lib/site-packages/numba/tests/__pycache__/test_array_methods.cpython-36.pyc",
    "Lib/site-packages/numba/tests/__pycache__/test_array_reductions.cpython-36.pyc",
    "Lib/site-packages/numba/tests/__pycache__/test_array_return.cpython-36.pyc",
    "Lib/site-packages/numba/tests/__pycache__/test_auto_constants.cpython-36.pyc",
    "Lib/site-packages/numba/tests/__pycache__/test_blackscholes.cpython-36.pyc",
    "Lib/site-packages/numba/tests/__pycache__/test_buffer_protocol.cpython-36.pyc",
    "Lib/site-packages/numba/tests/__pycache__/test_builtins.cpython-36.pyc",
    "Lib/site-packages/numba/tests/__pycache__/test_casting.cpython-36.pyc",
    "Lib/site-packages/numba/tests/__pycache__/test_cffi.cpython-36.pyc",
    "Lib/site-packages/numba/tests/__pycache__/test_cfunc.cpython-36.pyc",
    "Lib/site-packages/numba/tests/__pycache__/test_cgutils.cpython-36.pyc",
    "Lib/site-packages/numba/tests/__pycache__/test_chained_assign.cpython-36.pyc",
    "Lib/site-packages/numba/tests/__pycache__/test_closure.cpython-36.pyc",
    "Lib/site-packages/numba/tests/__pycache__/test_codegen.cpython-36.pyc",
    "Lib/site-packages/numba/tests/__pycache__/test_compile_cache.cpython-36.pyc",
    "Lib/site-packages/numba/tests/__pycache__/test_complex.cpython-36.pyc",
    "Lib/site-packages/numba/tests/__pycache__/test_comprehension.cpython-36.pyc",
    "Lib/site-packages/numba/tests/__pycache__/test_conversion.cpython-36.pyc",
    "Lib/site-packages/numba/tests/__pycache__/test_copy_propagate.cpython-36.pyc",
    "Lib/site-packages/numba/tests/__pycache__/test_ctypes.cpython-36.pyc",
    "Lib/site-packages/numba/tests/__pycache__/test_dataflow.cpython-36.pyc",
    "Lib/site-packages/numba/tests/__pycache__/test_datamodel.cpython-36.pyc",
    "Lib/site-packages/numba/tests/__pycache__/test_debug.cpython-36.pyc",
    "Lib/site-packages/numba/tests/__pycache__/test_debuginfo.cpython-36.pyc",
    "Lib/site-packages/numba/tests/__pycache__/test_del.cpython-36.pyc",
    "Lib/site-packages/numba/tests/__pycache__/test_deprecations.cpython-36.pyc",
    "Lib/site-packages/numba/tests/__pycache__/test_dicts.cpython-36.pyc",
    "Lib/site-packages/numba/tests/__pycache__/test_dispatcher.cpython-36.pyc",
    "Lib/site-packages/numba/tests/__pycache__/test_dummyarray.cpython-36.pyc",
    "Lib/site-packages/numba/tests/__pycache__/test_dyn_array.cpython-36.pyc",
    "Lib/site-packages/numba/tests/__pycache__/test_dyn_func.cpython-36.pyc",
    "Lib/site-packages/numba/tests/__pycache__/test_enums.cpython-36.pyc",
    "Lib/site-packages/numba/tests/__pycache__/test_errormodels.cpython-36.pyc",
    "Lib/site-packages/numba/tests/__pycache__/test_exceptions.cpython-36.pyc",
    "Lib/site-packages/numba/tests/__pycache__/test_extended_arg.cpython-36.pyc",
    "Lib/site-packages/numba/tests/__pycache__/test_extending.cpython-36.pyc",
    "Lib/site-packages/numba/tests/__pycache__/test_fancy_indexing.cpython-36.pyc",
    "Lib/site-packages/numba/tests/__pycache__/test_fastmath.cpython-36.pyc",
    "Lib/site-packages/numba/tests/__pycache__/test_flow_control.cpython-36.pyc",
    "Lib/site-packages/numba/tests/__pycache__/test_func_interface.cpython-36.pyc",
    "Lib/site-packages/numba/tests/__pycache__/test_func_lifetime.cpython-36.pyc",
    "Lib/site-packages/numba/tests/__pycache__/test_generators.cpython-36.pyc",
    "Lib/site-packages/numba/tests/__pycache__/test_gil.cpython-36.pyc",
    "Lib/site-packages/numba/tests/__pycache__/test_globals.cpython-36.pyc",
    "Lib/site-packages/numba/tests/__pycache__/test_hashing.cpython-36.pyc",
    "Lib/site-packages/numba/tests/__pycache__/test_import.cpython-36.pyc",
    "Lib/site-packages/numba/tests/__pycache__/test_indexing.cpython-36.pyc",
    "Lib/site-packages/numba/tests/__pycache__/test_inlining.cpython-36.pyc",
    "Lib/site-packages/numba/tests/__pycache__/test_interproc.cpython-36.pyc",
    "Lib/site-packages/numba/tests/__pycache__/test_intwidth.cpython-36.pyc",
    "Lib/site-packages/numba/tests/__pycache__/test_ir.cpython-36.pyc",
    "Lib/site-packages/numba/tests/__pycache__/test_itanium_mangler.cpython-36.pyc",
    "Lib/site-packages/numba/tests/__pycache__/test_iteration.cpython-36.pyc",
    "Lib/site-packages/numba/tests/__pycache__/test_jitclasses.cpython-36.pyc",
    "Lib/site-packages/numba/tests/__pycache__/test_jitmethod.cpython-36.pyc",
    "Lib/site-packages/numba/tests/__pycache__/test_linalg.cpython-36.pyc",
    "Lib/site-packages/numba/tests/__pycache__/test_lists.cpython-36.pyc",
    "Lib/site-packages/numba/tests/__pycache__/test_llvm_version_check.cpython-36.pyc",
    "Lib/site-packages/numba/tests/__pycache__/test_locals.cpython-36.pyc",
    "Lib/site-packages/numba/tests/__pycache__/test_looplifting.cpython-36.pyc",
    "Lib/site-packages/numba/tests/__pycache__/test_mandelbrot.cpython-36.pyc",
    "Lib/site-packages/numba/tests/__pycache__/test_mangling.cpython-36.pyc",
    "Lib/site-packages/numba/tests/__pycache__/test_mathlib.cpython-36.pyc",
    "Lib/site-packages/numba/tests/__pycache__/test_maxmin.cpython-36.pyc",
    "Lib/site-packages/numba/tests/__pycache__/test_multi3.cpython-36.pyc",
    "Lib/site-packages/numba/tests/__pycache__/test_nan.cpython-36.pyc",
    "Lib/site-packages/numba/tests/__pycache__/test_nested_calls.cpython-36.pyc",
    "Lib/site-packages/numba/tests/__pycache__/test_np_functions.cpython-36.pyc",
    "Lib/site-packages/numba/tests/__pycache__/test_npdatetime.cpython-36.pyc",
    "Lib/site-packages/numba/tests/__pycache__/test_nrt.cpython-36.pyc",
    "Lib/site-packages/numba/tests/__pycache__/test_nrt_refct.cpython-36.pyc",
    "Lib/site-packages/numba/tests/__pycache__/test_numberctor.cpython-36.pyc",
    "Lib/site-packages/numba/tests/__pycache__/test_numconv.cpython-36.pyc",
    "Lib/site-packages/numba/tests/__pycache__/test_numpy_support.cpython-36.pyc",
    "Lib/site-packages/numba/tests/__pycache__/test_numpyadapt.cpython-36.pyc",
    "Lib/site-packages/numba/tests/__pycache__/test_obj_lifetime.cpython-36.pyc",
    "Lib/site-packages/numba/tests/__pycache__/test_object_mode.cpython-36.pyc",
    "Lib/site-packages/numba/tests/__pycache__/test_objects.cpython-36.pyc",
    "Lib/site-packages/numba/tests/__pycache__/test_operators.cpython-36.pyc",
    "Lib/site-packages/numba/tests/__pycache__/test_optional.cpython-36.pyc",
    "Lib/site-packages/numba/tests/__pycache__/test_overlap.cpython-36.pyc",
    "Lib/site-packages/numba/tests/__pycache__/test_parfors.cpython-36.pyc",
    "Lib/site-packages/numba/tests/__pycache__/test_polynomial.cpython-36.pyc",
    "Lib/site-packages/numba/tests/__pycache__/test_print.cpython-36.pyc",
    "Lib/site-packages/numba/tests/__pycache__/test_profiler.cpython-36.pyc",
    "Lib/site-packages/numba/tests/__pycache__/test_pycc.cpython-36.pyc",
    "Lib/site-packages/numba/tests/__pycache__/test_python_int.cpython-36.pyc",
    "Lib/site-packages/numba/tests/__pycache__/test_random.cpython-36.pyc",
    "Lib/site-packages/numba/tests/__pycache__/test_range.cpython-36.pyc",
    "Lib/site-packages/numba/tests/__pycache__/test_recarray_usecases.cpython-36.pyc",
    "Lib/site-packages/numba/tests/__pycache__/test_record_dtype.cpython-36.pyc",
    "Lib/site-packages/numba/tests/__pycache__/test_recursion.cpython-36.pyc",
    "Lib/site-packages/numba/tests/__pycache__/test_remove_dead.cpython-36.pyc",
    "Lib/site-packages/numba/tests/__pycache__/test_return_values.cpython-36.pyc",
    "Lib/site-packages/numba/tests/__pycache__/test_runtests.cpython-36.pyc",
    "Lib/site-packages/numba/tests/__pycache__/test_serialize.cpython-36.pyc",
    "Lib/site-packages/numba/tests/__pycache__/test_sets.cpython-36.pyc",
    "Lib/site-packages/numba/tests/__pycache__/test_slices.cpython-36.pyc",
    "Lib/site-packages/numba/tests/__pycache__/test_smart_array.cpython-36.pyc",
    "Lib/site-packages/numba/tests/__pycache__/test_sort.cpython-36.pyc",
    "Lib/site-packages/numba/tests/__pycache__/test_storeslice.cpython-36.pyc",
    "Lib/site-packages/numba/tests/__pycache__/test_support.cpython-36.pyc",
    "Lib/site-packages/numba/tests/__pycache__/test_target_overloadselector.cpython-36.pyc",
    "Lib/site-packages/numba/tests/__pycache__/test_threadsafety.cpython-36.pyc",
    "Lib/site-packages/numba/tests/__pycache__/test_tracing.cpython-36.pyc",
    "Lib/site-packages/numba/tests/__pycache__/test_tuples.cpython-36.pyc",
    "Lib/site-packages/numba/tests/__pycache__/test_typeconv.cpython-36.pyc",
    "Lib/site-packages/numba/tests/__pycache__/test_typeinfer.cpython-36.pyc",
    "Lib/site-packages/numba/tests/__pycache__/test_typenames.cpython-36.pyc",
    "Lib/site-packages/numba/tests/__pycache__/test_typeof.cpython-36.pyc",
    "Lib/site-packages/numba/tests/__pycache__/test_types.cpython-36.pyc",
    "Lib/site-packages/numba/tests/__pycache__/test_typingerror.cpython-36.pyc",
    "Lib/site-packages/numba/tests/__pycache__/test_ufuncs.cpython-36.pyc",
    "Lib/site-packages/numba/tests/__pycache__/test_unicode_literals.cpython-36.pyc",
    "Lib/site-packages/numba/tests/__pycache__/test_unicode_names.cpython-36.pyc",
    "Lib/site-packages/numba/tests/__pycache__/test_unpack_sequence.cpython-36.pyc",
    "Lib/site-packages/numba/tests/__pycache__/test_usecases.cpython-36.pyc",
    "Lib/site-packages/numba/tests/__pycache__/test_utils.cpython-36.pyc",
    "Lib/site-packages/numba/tests/__pycache__/test_vectorization_type_inference.cpython-36.pyc",
    "Lib/site-packages/numba/tests/__pycache__/test_warnings.cpython-36.pyc",
    "Lib/site-packages/numba/tests/__pycache__/test_wrapper.cpython-36.pyc",
    "Lib/site-packages/numba/tests/__pycache__/timsort.cpython-36.pyc",
    "Lib/site-packages/numba/tests/__pycache__/true_div_usecase.cpython-36.pyc",
    "Lib/site-packages/numba/tests/__pycache__/usecases.cpython-36.pyc",
    "Lib/site-packages/numba/tests/annotation_usecases.py",
    "Lib/site-packages/numba/tests/cache_usecases.py",
    "Lib/site-packages/numba/tests/cffi_usecases.py",
    "Lib/site-packages/numba/tests/cfunc_cache_usecases.py",
    "Lib/site-packages/numba/tests/compile_with_pycc.py",
    "Lib/site-packages/numba/tests/complex_usecases.py",
    "Lib/site-packages/numba/tests/ctypes_usecases.py",
    "Lib/site-packages/numba/tests/enum_usecases.py",
    "Lib/site-packages/numba/tests/matmul_usecase.py",
    "Lib/site-packages/numba/tests/npyufunc/__init__.py",
    "Lib/site-packages/numba/tests/npyufunc/__pycache__/__init__.cpython-36.pyc",
    "Lib/site-packages/numba/tests/npyufunc/__pycache__/cache_usecases.cpython-36.pyc",
    "Lib/site-packages/numba/tests/npyufunc/__pycache__/test_caching.cpython-36.pyc",
    "Lib/site-packages/numba/tests/npyufunc/__pycache__/test_dufunc.cpython-36.pyc",
    "Lib/site-packages/numba/tests/npyufunc/__pycache__/test_errors.cpython-36.pyc",
    "Lib/site-packages/numba/tests/npyufunc/__pycache__/test_gufunc.cpython-36.pyc",
    "Lib/site-packages/numba/tests/npyufunc/__pycache__/test_parallel_env_variable.cpython-36.pyc",
    "Lib/site-packages/numba/tests/npyufunc/__pycache__/test_parallel_low_work.cpython-36.pyc",
    "Lib/site-packages/numba/tests/npyufunc/__pycache__/test_parallel_ufunc_issues.cpython-36.pyc",
    "Lib/site-packages/numba/tests/npyufunc/__pycache__/test_ufunc.cpython-36.pyc",
    "Lib/site-packages/numba/tests/npyufunc/__pycache__/test_ufuncbuilding.cpython-36.pyc",
    "Lib/site-packages/numba/tests/npyufunc/__pycache__/test_vectorize_decor.cpython-36.pyc",
    "Lib/site-packages/numba/tests/npyufunc/cache_usecases.py",
    "Lib/site-packages/numba/tests/npyufunc/test_caching.py",
    "Lib/site-packages/numba/tests/npyufunc/test_dufunc.py",
    "Lib/site-packages/numba/tests/npyufunc/test_errors.py",
    "Lib/site-packages/numba/tests/npyufunc/test_gufunc.py",
    "Lib/site-packages/numba/tests/npyufunc/test_parallel_env_variable.py",
    "Lib/site-packages/numba/tests/npyufunc/test_parallel_low_work.py",
    "Lib/site-packages/numba/tests/npyufunc/test_parallel_ufunc_issues.py",
    "Lib/site-packages/numba/tests/npyufunc/test_ufunc.py",
    "Lib/site-packages/numba/tests/npyufunc/test_ufuncbuilding.py",
    "Lib/site-packages/numba/tests/npyufunc/test_vectorize_decor.py",
    "Lib/site-packages/numba/tests/pdlike_usecase.py",
    "Lib/site-packages/numba/tests/pycc_distutils_usecase/__pycache__/setup_distutils.cpython-36.pyc",
    "Lib/site-packages/numba/tests/pycc_distutils_usecase/__pycache__/setup_setuptools.cpython-36.pyc",
    "Lib/site-packages/numba/tests/pycc_distutils_usecase/__pycache__/source_module.cpython-36.pyc",
    "Lib/site-packages/numba/tests/pycc_distutils_usecase/setup_distutils.py",
    "Lib/site-packages/numba/tests/pycc_distutils_usecase/setup_setuptools.py",
    "Lib/site-packages/numba/tests/pycc_distutils_usecase/source_module.py",
    "Lib/site-packages/numba/tests/recursion_usecases.py",
    "Lib/site-packages/numba/tests/serialize_usecases.py",
    "Lib/site-packages/numba/tests/support.py",
    "Lib/site-packages/numba/tests/test_alignment.py",
    "Lib/site-packages/numba/tests/test_annotations.py",
    "Lib/site-packages/numba/tests/test_api.py",
    "Lib/site-packages/numba/tests/test_array_analysis.py",
    "Lib/site-packages/numba/tests/test_array_attr.py",
    "Lib/site-packages/numba/tests/test_array_constants.py",
    "Lib/site-packages/numba/tests/test_array_exprs.py",
    "Lib/site-packages/numba/tests/test_array_iterators.py",
    "Lib/site-packages/numba/tests/test_array_manipulation.py",
    "Lib/site-packages/numba/tests/test_array_methods.py",
    "Lib/site-packages/numba/tests/test_array_reductions.py",
    "Lib/site-packages/numba/tests/test_array_return.py",
    "Lib/site-packages/numba/tests/test_auto_constants.py",
    "Lib/site-packages/numba/tests/test_blackscholes.py",
    "Lib/site-packages/numba/tests/test_buffer_protocol.py",
    "Lib/site-packages/numba/tests/test_builtins.py",
    "Lib/site-packages/numba/tests/test_casting.py",
    "Lib/site-packages/numba/tests/test_cffi.py",
    "Lib/site-packages/numba/tests/test_cfunc.py",
    "Lib/site-packages/numba/tests/test_cgutils.py",
    "Lib/site-packages/numba/tests/test_chained_assign.py",
    "Lib/site-packages/numba/tests/test_closure.py",
    "Lib/site-packages/numba/tests/test_codegen.py",
    "Lib/site-packages/numba/tests/test_compile_cache.py",
    "Lib/site-packages/numba/tests/test_complex.py",
    "Lib/site-packages/numba/tests/test_comprehension.py",
    "Lib/site-packages/numba/tests/test_conversion.py",
    "Lib/site-packages/numba/tests/test_copy_propagate.py",
    "Lib/site-packages/numba/tests/test_ctypes.py",
    "Lib/site-packages/numba/tests/test_dataflow.py",
    "Lib/site-packages/numba/tests/test_datamodel.py",
    "Lib/site-packages/numba/tests/test_debug.py",
    "Lib/site-packages/numba/tests/test_debuginfo.py",
    "Lib/site-packages/numba/tests/test_del.py",
    "Lib/site-packages/numba/tests/test_deprecations.py",
    "Lib/site-packages/numba/tests/test_dicts.py",
    "Lib/site-packages/numba/tests/test_dispatcher.py",
    "Lib/site-packages/numba/tests/test_dummyarray.py",
    "Lib/site-packages/numba/tests/test_dyn_array.py",
    "Lib/site-packages/numba/tests/test_dyn_func.py",
    "Lib/site-packages/numba/tests/test_enums.py",
    "Lib/site-packages/numba/tests/test_errormodels.py",
    "Lib/site-packages/numba/tests/test_exceptions.py",
    "Lib/site-packages/numba/tests/test_extended_arg.py",
    "Lib/site-packages/numba/tests/test_extending.py",
    "Lib/site-packages/numba/tests/test_fancy_indexing.py",
    "Lib/site-packages/numba/tests/test_fastmath.py",
    "Lib/site-packages/numba/tests/test_flow_control.py",
    "Lib/site-packages/numba/tests/test_func_interface.py",
    "Lib/site-packages/numba/tests/test_func_lifetime.py",
    "Lib/site-packages/numba/tests/test_generators.py",
    "Lib/site-packages/numba/tests/test_gil.py",
    "Lib/site-packages/numba/tests/test_globals.py",
    "Lib/site-packages/numba/tests/test_hashing.py",
    "Lib/site-packages/numba/tests/test_import.py",
    "Lib/site-packages/numba/tests/test_indexing.py",
    "Lib/site-packages/numba/tests/test_inlining.py",
    "Lib/site-packages/numba/tests/test_interproc.py",
    "Lib/site-packages/numba/tests/test_intwidth.py",
    "Lib/site-packages/numba/tests/test_ir.py",
    "Lib/site-packages/numba/tests/test_itanium_mangler.py",
    "Lib/site-packages/numba/tests/test_iteration.py",
    "Lib/site-packages/numba/tests/test_jitclasses.py",
    "Lib/site-packages/numba/tests/test_jitmethod.py",
    "Lib/site-packages/numba/tests/test_linalg.py",
    "Lib/site-packages/numba/tests/test_lists.py",
    "Lib/site-packages/numba/tests/test_llvm_version_check.py",
    "Lib/site-packages/numba/tests/test_locals.py",
    "Lib/site-packages/numba/tests/test_looplifting.py",
    "Lib/site-packages/numba/tests/test_mandelbrot.py",
    "Lib/site-packages/numba/tests/test_mangling.py",
    "Lib/site-packages/numba/tests/test_mathlib.py",
    "Lib/site-packages/numba/tests/test_maxmin.py",
    "Lib/site-packages/numba/tests/test_multi3.py",
    "Lib/site-packages/numba/tests/test_nan.py",
    "Lib/site-packages/numba/tests/test_nested_calls.py",
    "Lib/site-packages/numba/tests/test_np_functions.py",
    "Lib/site-packages/numba/tests/test_npdatetime.py",
    "Lib/site-packages/numba/tests/test_nrt.py",
    "Lib/site-packages/numba/tests/test_nrt_refct.py",
    "Lib/site-packages/numba/tests/test_numberctor.py",
    "Lib/site-packages/numba/tests/test_numconv.py",
    "Lib/site-packages/numba/tests/test_numpy_support.py",
    "Lib/site-packages/numba/tests/test_numpyadapt.py",
    "Lib/site-packages/numba/tests/test_obj_lifetime.py",
    "Lib/site-packages/numba/tests/test_object_mode.py",
    "Lib/site-packages/numba/tests/test_objects.py",
    "Lib/site-packages/numba/tests/test_operators.py",
    "Lib/site-packages/numba/tests/test_optional.py",
    "Lib/site-packages/numba/tests/test_overlap.py",
    "Lib/site-packages/numba/tests/test_parfors.py",
    "Lib/site-packages/numba/tests/test_polynomial.py",
    "Lib/site-packages/numba/tests/test_print.py",
    "Lib/site-packages/numba/tests/test_profiler.py",
    "Lib/site-packages/numba/tests/test_pycc.py",
    "Lib/site-packages/numba/tests/test_python_int.py",
    "Lib/site-packages/numba/tests/test_random.py",
    "Lib/site-packages/numba/tests/test_range.py",
    "Lib/site-packages/numba/tests/test_recarray_usecases.py",
    "Lib/site-packages/numba/tests/test_record_dtype.py",
    "Lib/site-packages/numba/tests/test_recursion.py",
    "Lib/site-packages/numba/tests/test_remove_dead.py",
    "Lib/site-packages/numba/tests/test_return_values.py",
    "Lib/site-packages/numba/tests/test_runtests.py",
    "Lib/site-packages/numba/tests/test_serialize.py",
    "Lib/site-packages/numba/tests/test_sets.py",
    "Lib/site-packages/numba/tests/test_slices.py",
    "Lib/site-packages/numba/tests/test_smart_array.py",
    "Lib/site-packages/numba/tests/test_sort.py",
    "Lib/site-packages/numba/tests/test_storeslice.py",
    "Lib/site-packages/numba/tests/test_support.py",
    "Lib/site-packages/numba/tests/test_target_overloadselector.py",
    "Lib/site-packages/numba/tests/test_threadsafety.py",
    "Lib/site-packages/numba/tests/test_tracing.py",
    "Lib/site-packages/numba/tests/test_tuples.py",
    "Lib/site-packages/numba/tests/test_typeconv.py",
    "Lib/site-packages/numba/tests/test_typeinfer.py",
    "Lib/site-packages/numba/tests/test_typenames.py",
    "Lib/site-packages/numba/tests/test_typeof.py",
    "Lib/site-packages/numba/tests/test_types.py",
    "Lib/site-packages/numba/tests/test_typingerror.py",
    "Lib/site-packages/numba/tests/test_ufuncs.py",
    "Lib/site-packages/numba/tests/test_unicode_literals.py",
    "Lib/site-packages/numba/tests/test_unicode_names.py",
    "Lib/site-packages/numba/tests/test_unpack_sequence.py",
    "Lib/site-packages/numba/tests/test_usecases.py",
    "Lib/site-packages/numba/tests/test_utils.py",
    "Lib/site-packages/numba/tests/test_vectorization_type_inference.py",
    "Lib/site-packages/numba/tests/test_warnings.py",
    "Lib/site-packages/numba/tests/test_wrapper.py",
    "Lib/site-packages/numba/tests/timsort.py",
    "Lib/site-packages/numba/tests/true_div_usecase.py",
    "Lib/site-packages/numba/tests/usecases.py",
    "Lib/site-packages/numba/tracing.py",
    "Lib/site-packages/numba/transforms.py",
    "Lib/site-packages/numba/typeconv/__init__.py",
    "Lib/site-packages/numba/typeconv/__pycache__/__init__.cpython-36.pyc",
    "Lib/site-packages/numba/typeconv/__pycache__/_typeconv.cpython-36.pyc",
    "Lib/site-packages/numba/typeconv/__pycache__/castgraph.cpython-36.pyc",
    "Lib/site-packages/numba/typeconv/__pycache__/rules.cpython-36.pyc",
    "Lib/site-packages/numba/typeconv/__pycache__/typeconv.cpython-36.pyc",
    "Lib/site-packages/numba/typeconv/_typeconv.cp36-win_amd64.pyd",
    "Lib/site-packages/numba/typeconv/_typeconv.py",
    "Lib/site-packages/numba/typeconv/castgraph.py",
    "Lib/site-packages/numba/typeconv/rules.py",
    "Lib/site-packages/numba/typeconv/typeconv.py",
    "Lib/site-packages/numba/typeinfer.py",
    "Lib/site-packages/numba/types/__init__.py",
    "Lib/site-packages/numba/types/__pycache__/__init__.cpython-36.pyc",
    "Lib/site-packages/numba/types/__pycache__/abstract.cpython-36.pyc",
    "Lib/site-packages/numba/types/__pycache__/common.cpython-36.pyc",
    "Lib/site-packages/numba/types/__pycache__/containers.cpython-36.pyc",
    "Lib/site-packages/numba/types/__pycache__/functions.cpython-36.pyc",
    "Lib/site-packages/numba/types/__pycache__/iterators.cpython-36.pyc",
    "Lib/site-packages/numba/types/__pycache__/misc.cpython-36.pyc",
    "Lib/site-packages/numba/types/__pycache__/npytypes.cpython-36.pyc",
    "Lib/site-packages/numba/types/__pycache__/scalars.cpython-36.pyc",
    "Lib/site-packages/numba/types/abstract.py",
    "Lib/site-packages/numba/types/common.py",
    "Lib/site-packages/numba/types/containers.py",
    "Lib/site-packages/numba/types/functions.py",
    "Lib/site-packages/numba/types/iterators.py",
    "Lib/site-packages/numba/types/misc.py",
    "Lib/site-packages/numba/types/npytypes.py",
    "Lib/site-packages/numba/types/scalars.py",
    "Lib/site-packages/numba/typing/__init__.py",
    "Lib/site-packages/numba/typing/__pycache__/__init__.cpython-36.pyc",
    "Lib/site-packages/numba/typing/__pycache__/arraydecl.cpython-36.pyc",
    "Lib/site-packages/numba/typing/__pycache__/bufproto.cpython-36.pyc",
    "Lib/site-packages/numba/typing/__pycache__/builtins.cpython-36.pyc",
    "Lib/site-packages/numba/typing/__pycache__/cffi_utils.cpython-36.pyc",
    "Lib/site-packages/numba/typing/__pycache__/cmathdecl.cpython-36.pyc",
    "Lib/site-packages/numba/typing/__pycache__/collections.cpython-36.pyc",
    "Lib/site-packages/numba/typing/__pycache__/context.cpython-36.pyc",
    "Lib/site-packages/numba/typing/__pycache__/ctypes_utils.cpython-36.pyc",
    "Lib/site-packages/numba/typing/__pycache__/enumdecl.cpython-36.pyc",
    "Lib/site-packages/numba/typing/__pycache__/listdecl.cpython-36.pyc",
    "Lib/site-packages/numba/typing/__pycache__/mathdecl.cpython-36.pyc",
    "Lib/site-packages/numba/typing/__pycache__/npdatetime.cpython-36.pyc",
    "Lib/site-packages/numba/typing/__pycache__/npydecl.cpython-36.pyc",
    "Lib/site-packages/numba/typing/__pycache__/operatordecl.cpython-36.pyc",
    "Lib/site-packages/numba/typing/__pycache__/randomdecl.cpython-36.pyc",
    "Lib/site-packages/numba/typing/__pycache__/setdecl.cpython-36.pyc",
    "Lib/site-packages/numba/typing/__pycache__/templates.cpython-36.pyc",
    "Lib/site-packages/numba/typing/__pycache__/typeof.cpython-36.pyc",
    "Lib/site-packages/numba/typing/arraydecl.py",
    "Lib/site-packages/numba/typing/bufproto.py",
    "Lib/site-packages/numba/typing/builtins.py",
    "Lib/site-packages/numba/typing/cffi_utils.py",
    "Lib/site-packages/numba/typing/cmathdecl.py",
    "Lib/site-packages/numba/typing/collections.py",
    "Lib/site-packages/numba/typing/context.py",
    "Lib/site-packages/numba/typing/ctypes_utils.py",
    "Lib/site-packages/numba/typing/enumdecl.py",
    "Lib/site-packages/numba/typing/listdecl.py",
    "Lib/site-packages/numba/typing/mathdecl.py",
    "Lib/site-packages/numba/typing/npdatetime.py",
    "Lib/site-packages/numba/typing/npydecl.py",
    "Lib/site-packages/numba/typing/operatordecl.py",
    "Lib/site-packages/numba/typing/randomdecl.py",
    "Lib/site-packages/numba/typing/setdecl.py",
    "Lib/site-packages/numba/typing/templates.py",
    "Lib/site-packages/numba/typing/typeof.py",
    "Lib/site-packages/numba/unittest_support.py",
    "Lib/site-packages/numba/unsafe/__init__.py",
    "Lib/site-packages/numba/unsafe/__pycache__/__init__.cpython-36.pyc",
    "Lib/site-packages/numba/unsafe/__pycache__/ndarray.cpython-36.pyc",
    "Lib/site-packages/numba/unsafe/ndarray.py",
    "Lib/site-packages/numba/utils.py",
    "Scripts/numba-script.py",
    "Scripts/numba.exe",
    "Scripts/pycc-script.py",
    "Scripts/pycc.exe"
  ],
  "fn": "numba-0.35.0-np113py36_10.tar.bz2",
  "license": "BSD",
  "link": {
    "source": "C:\\Program Files\\Anaconda3\\pkgs\\numba-0.35.0-np113py36_10",
    "type": 1
  },
  "md5": null,
  "name": "numba",
  "noarch": null,
  "platform": "win32",
  "preferred_env": null,
  "priority": 1,
  "schannel": "defaults",
  "subdir": "win-64",
  "url": "https://repo.continuum.io/pkgs/main/win-64/numba-0.35.0-np113py36_10.tar.bz2",
  "version": "0.35.0",
  "with_features_depends": {}
}