{
  "arch": "x86_64",
  "auth": null,
  "build": "py36hae3edee_0",
  "build_number": 0,
  "channel": "https://repo.continuum.io/pkgs/main/win-64",
  "depends": [
    "python >=3.6,<3.7.0a0"
  ],
  "files": [
    "Lib/site-packages/parso-0.1.1-py3.6.egg-info/PKG-INFO",
    "Lib/site-packages/parso-0.1.1-py3.6.egg-info/SOURCES.txt",
    "Lib/site-packages/parso-0.1.1-py3.6.egg-info/dependency_links.txt",
    "Lib/site-packages/parso-0.1.1-py3.6.egg-info/top_level.txt",
    "Lib/site-packages/parso/__init__.py",
    "Lib/site-packages/parso/__pycache__/__init__.cpython-36.pyc",
    "Lib/site-packages/parso/__pycache__/_compatibility.cpython-36.pyc",
    "Lib/site-packages/parso/__pycache__/cache.cpython-36.pyc",
    "Lib/site-packages/parso/__pycache__/grammar.cpython-36.pyc",
    "Lib/site-packages/parso/__pycache__/normalizer.cpython-36.pyc",
    "Lib/site-packages/parso/__pycache__/parser.cpython-36.pyc",
    "Lib/site-packages/parso/__pycache__/tree.cpython-36.pyc",
    "Lib/site-packages/parso/__pycache__/utils.cpython-36.pyc",
    "Lib/site-packages/parso/_compatibility.py",
    "Lib/site-packages/parso/cache.py",
    "Lib/site-packages/parso/grammar.py",
    "Lib/site-packages/parso/normalizer.py",
    "Lib/site-packages/parso/parser.py",
    "Lib/site-packages/parso/pgen2/__init__.py",
    "Lib/site-packages/parso/pgen2/__pycache__/__init__.cpython-36.pyc",
    "Lib/site-packages/parso/pgen2/__pycache__/grammar.cpython-36.pyc",
    "Lib/site-packages/parso/pgen2/__pycache__/parse.cpython-36.pyc",
    "Lib/site-packages/parso/pgen2/__pycache__/pgen.cpython-36.pyc",
    "Lib/site-packages/parso/pgen2/grammar.py",
    "Lib/site-packages/parso/pgen2/parse.py",
    "Lib/site-packages/parso/pgen2/pgen.py",
    "Lib/site-packages/parso/python/__init__.py",
    "Lib/site-packages/parso/python/__pycache__/__init__.cpython-36.pyc",
    "Lib/site-packages/parso/python/__pycache__/diff.cpython-36.pyc",
    "Lib/site-packages/parso/python/__pycache__/errors.cpython-36.pyc",
    "Lib/site-packages/parso/python/__pycache__/fstring.cpython-36.pyc",
    "Lib/site-packages/parso/python/__pycache__/parser.cpython-36.pyc",
    "Lib/site-packages/parso/python/__pycache__/pep8.cpython-36.pyc",
    "Lib/site-packages/parso/python/__pycache__/prefix.cpython-36.pyc",
    "Lib/site-packages/parso/python/__pycache__/token.cpython-36.pyc",
    "Lib/site-packages/parso/python/__pycache__/tokenize.cpython-36.pyc",
    "Lib/site-packages/parso/python/__pycache__/tree.cpython-36.pyc",
    "Lib/site-packages/parso/python/diff.py",
    "Lib/site-packages/parso/python/errors.py",
    "Lib/site-packages/parso/python/fstring.py",
    "Lib/site-packages/parso/python/grammar26.txt",
    "Lib/site-packages/parso/python/grammar27.txt",
    "Lib/site-packages/parso/python/grammar33.txt",
    "Lib/site-packages/parso/python/grammar34.txt",
    "Lib/site-packages/parso/python/grammar35.txt",
    "Lib/site-packages/parso/python/grammar36.txt",
    "Lib/site-packages/parso/python/grammar37.txt",
    "Lib/site-packages/parso/python/parser.py",
    "Lib/site-packages/parso/python/pep8.py",
    "Lib/site-packages/parso/python/prefix.py",
    "Lib/site-packages/parso/python/token.py",
    "Lib/site-packages/parso/python/tokenize.py",
    "Lib/site-packages/parso/python/tree.py",
    "Lib/site-packages/parso/tree.py",
    "Lib/site-packages/parso/utils.py"
  ],
  "fn": "parso-0.1.1-py36hae3edee_0.tar.bz2",
  "license": "MIT License",
  "license_family": "MIT",
  "link": {
    "source": "C:\\Program Files\\Anaconda3\\pkgs\\parso-0.1.1-py36hae3edee_0",
    "type": 1
  },
  "md5": "50319b422b030a1d1bc9bcd27145ea08",
  "name": "parso",
  "noarch": null,
  "platform": "win32",
  "preferred_env": null,
  "priority": 0,
  "schannel": "defaults",
  "size": 120687,
  "subdir": "win-64",
  "timestamp": 1512061131252,
  "url": "https://repo.continuum.io/pkgs/main/win-64/parso-0.1.1-py36hae3edee_0.tar.bz2",
  "version": "0.1.1",
  "with_features_depends": {}
}