{
  "arch": "x86_64",
  "auth": null,
  "build": "py36h3dd8b46_0",
  "build_number": 0,
  "channel": null,
  "depends": [
    "python >=3.6,<3.7.0a0"
  ],
  "files": [
    "Lib/site-packages/__pycache__/path.cpython-36.pyc",
    "Lib/site-packages/__pycache__/test_path.cpython-36.pyc",
    "Lib/site-packages/path.py",
    "Lib/site-packages/path.py-10.3.1-py3.6.egg-info/PKG-INFO",
    "Lib/site-packages/path.py-10.3.1-py3.6.egg-info/SOURCES.txt",
    "Lib/site-packages/path.py-10.3.1-py3.6.egg-info/dependency_links.txt",
    "Lib/site-packages/path.py-10.3.1-py3.6.egg-info/top_level.txt",
    "Lib/site-packages/test_path.py"
  ],
  "fn": "path.py-10.3.1-py36h3dd8b46_0.tar.bz2",
  "license": "MIT",
  "link": {
    "source": "C:\\Program Files\\Anaconda3\\pkgs\\path.py-10.3.1-py36h3dd8b46_0",
    "type": 1
  },
  "md5": null,
  "name": "path.py",
  "noarch": null,
  "platform": "win32",
  "preferred_env": null,
  "priority": 1,
  "schannel": "defaults",
  "subdir": "win-64",
  "timestamp": 1506048604710,
  "url": "https://repo.continuum.io/pkgs/main/win-64/path.py-10.3.1-py36h3dd8b46_0.tar.bz2",
  "version": "10.3.1",
  "with_features_depends": {}
}