{
  "arch": "x86_64",
  "auth": null,
  "build": "py36h9de030f_0",
  "build_number": 0,
  "channel": null,
  "depends": [
    "python >=3.6,<3.7.0a0"
  ],
  "files": [
    "Lib/site-packages/__pycache__/pickleshare.cpython-36.pyc",
    "Lib/site-packages/pickleshare-0.7.4-py3.6.egg-info/PKG-INFO",
    "Lib/site-packages/pickleshare-0.7.4-py3.6.egg-info/SOURCES.txt",
    "Lib/site-packages/pickleshare-0.7.4-py3.6.egg-info/dependency_links.txt",
    "Lib/site-packages/pickleshare-0.7.4-py3.6.egg-info/requires.txt",
    "Lib/site-packages/pickleshare-0.7.4-py3.6.egg-info/top_level.txt",
    "Lib/site-packages/pickleshare.py"
  ],
  "fn": "pickleshare-0.7.4-py36h9de030f_0.tar.bz2",
  "license": "MIT",
  "link": {
    "source": "C:\\Program Files\\Anaconda3\\pkgs\\pickleshare-0.7.4-py36h9de030f_0",
    "type": 1
  },
  "md5": null,
  "name": "pickleshare",
  "noarch": null,
  "platform": "win32",
  "preferred_env": null,
  "priority": 1,
  "schannel": "defaults",
  "subdir": "win-64",
  "timestamp": 1505852943463,
  "url": "https://repo.continuum.io/pkgs/main/win-64/pickleshare-0.7.4-py36h9de030f_0.tar.bz2",
  "version": "0.7.4",
  "with_features_depends": {}
}