{
  "arch": "x86_64",
  "auth": null,
  "build": "py36h4e662fb_0",
  "build_number": 0,
  "channel": null,
  "depends": [
    "python >=3.6,<3.7.0a0",
    "vc 14.*"
  ],
  "files": [
    "Lib/site-packages/psutil-5.4.0-py3.6.egg-info/PKG-INFO",
    "Lib/site-packages/psutil-5.4.0-py3.6.egg-info/SOURCES.txt",
    "Lib/site-packages/psutil-5.4.0-py3.6.egg-info/dependency_links.txt",
    "Lib/site-packages/psutil-5.4.0-py3.6.egg-info/not-zip-safe",
    "Lib/site-packages/psutil-5.4.0-py3.6.egg-info/top_level.txt",
    "Lib/site-packages/psutil/__init__.py",
    "Lib/site-packages/psutil/__pycache__/__init__.cpython-36.pyc",
    "Lib/site-packages/psutil/__pycache__/_common.cpython-36.pyc",
    "Lib/site-packages/psutil/__pycache__/_compat.cpython-36.pyc",
    "Lib/site-packages/psutil/__pycache__/_psaix.cpython-36.pyc",
    "Lib/site-packages/psutil/__pycache__/_psbsd.cpython-36.pyc",
    "Lib/site-packages/psutil/__pycache__/_pslinux.cpython-36.pyc",
    "Lib/site-packages/psutil/__pycache__/_psosx.cpython-36.pyc",
    "Lib/site-packages/psutil/__pycache__/_psposix.cpython-36.pyc",
    "Lib/site-packages/psutil/__pycache__/_pssunos.cpython-36.pyc",
    "Lib/site-packages/psutil/__pycache__/_pswindows.cpython-36.pyc",
    "Lib/site-packages/psutil/_common.py",
    "Lib/site-packages/psutil/_compat.py",
    "Lib/site-packages/psutil/_psaix.py",
    "Lib/site-packages/psutil/_psbsd.py",
    "Lib/site-packages/psutil/_pslinux.py",
    "Lib/site-packages/psutil/_psosx.py",
    "Lib/site-packages/psutil/_psposix.py",
    "Lib/site-packages/psutil/_pssunos.py",
    "Lib/site-packages/psutil/_psutil_windows.cp36-win_amd64.pyd",
    "Lib/site-packages/psutil/_pswindows.py",
    "Lib/site-packages/psutil/tests/__init__.py",
    "Lib/site-packages/psutil/tests/__main__.py",
    "Lib/site-packages/psutil/tests/__pycache__/__init__.cpython-36.pyc",
    "Lib/site-packages/psutil/tests/__pycache__/__main__.cpython-36.pyc",
    "Lib/site-packages/psutil/tests/__pycache__/test_aix.cpython-36.pyc",
    "Lib/site-packages/psutil/tests/__pycache__/test_bsd.cpython-36.pyc",
    "Lib/site-packages/psutil/tests/__pycache__/test_connections.cpython-36.pyc",
    "Lib/site-packages/psutil/tests/__pycache__/test_contracts.cpython-36.pyc",
    "Lib/site-packages/psutil/tests/__pycache__/test_linux.cpython-36.pyc",
    "Lib/site-packages/psutil/tests/__pycache__/test_memory_leaks.cpython-36.pyc",
    "Lib/site-packages/psutil/tests/__pycache__/test_misc.cpython-36.pyc",
    "Lib/site-packages/psutil/tests/__pycache__/test_osx.cpython-36.pyc",
    "Lib/site-packages/psutil/tests/__pycache__/test_posix.cpython-36.pyc",
    "Lib/site-packages/psutil/tests/__pycache__/test_process.cpython-36.pyc",
    "Lib/site-packages/psutil/tests/__pycache__/test_sunos.cpython-36.pyc",
    "Lib/site-packages/psutil/tests/__pycache__/test_system.cpython-36.pyc",
    "Lib/site-packages/psutil/tests/__pycache__/test_unicode.cpython-36.pyc",
    "Lib/site-packages/psutil/tests/__pycache__/test_windows.cpython-36.pyc",
    "Lib/site-packages/psutil/tests/test_aix.py",
    "Lib/site-packages/psutil/tests/test_bsd.py",
    "Lib/site-packages/psutil/tests/test_connections.py",
    "Lib/site-packages/psutil/tests/test_contracts.py",
    "Lib/site-packages/psutil/tests/test_linux.py",
    "Lib/site-packages/psutil/tests/test_memory_leaks.py",
    "Lib/site-packages/psutil/tests/test_misc.py",
    "Lib/site-packages/psutil/tests/test_osx.py",
    "Lib/site-packages/psutil/tests/test_posix.py",
    "Lib/site-packages/psutil/tests/test_process.py",
    "Lib/site-packages/psutil/tests/test_sunos.py",
    "Lib/site-packages/psutil/tests/test_system.py",
    "Lib/site-packages/psutil/tests/test_unicode.py",
    "Lib/site-packages/psutil/tests/test_windows.py"
  ],
  "fn": "psutil-5.4.0-py36h4e662fb_0.tar.bz2",
  "license": "BSD 3-Clause",
  "link": {
    "source": "C:\\Program Files\\Anaconda3\\pkgs\\psutil-5.4.0-py36h4e662fb_0",
    "type": 1
  },
  "md5": null,
  "name": "psutil",
  "noarch": null,
  "platform": "win32",
  "preferred_env": null,
  "priority": 1,
  "schannel": "defaults",
  "subdir": "win-64",
  "timestamp": 1508449367507,
  "url": "https://repo.continuum.io/pkgs/main/win-64/psutil-5.4.0-py36h4e662fb_0.tar.bz2",
  "version": "5.4.0",
  "with_features_depends": {}
}