{
  "arch": "x86_64",
  "auth": null,
  "build": "py36hd053e01_1",
  "build_number": 1,
  "channel": null,
  "depends": [
    "python >=3.6,<3.7.0a0"
  ],
  "files": [
    "Lib/site-packages/pycparser-2.18-py3.6.egg-info/PKG-INFO",
    "Lib/site-packages/pycparser-2.18-py3.6.egg-info/SOURCES.txt",
    "Lib/site-packages/pycparser-2.18-py3.6.egg-info/dependency_links.txt",
    "Lib/site-packages/pycparser-2.18-py3.6.egg-info/top_level.txt",
    "Lib/site-packages/pycparser/__init__.py",
    "Lib/site-packages/pycparser/__pycache__/__init__.cpython-36.pyc",
    "Lib/site-packages/pycparser/__pycache__/_ast_gen.cpython-36.pyc",
    "Lib/site-packages/pycparser/__pycache__/_build_tables.cpython-36.pyc",
    "Lib/site-packages/pycparser/__pycache__/ast_transforms.cpython-36.pyc",
    "Lib/site-packages/pycparser/__pycache__/c_ast.cpython-36.pyc",
    "Lib/site-packages/pycparser/__pycache__/c_generator.cpython-36.pyc",
    "Lib/site-packages/pycparser/__pycache__/c_lexer.cpython-36.pyc",
    "Lib/site-packages/pycparser/__pycache__/c_parser.cpython-36.pyc",
    "Lib/site-packages/pycparser/__pycache__/lextab.cpython-36.pyc",
    "Lib/site-packages/pycparser/__pycache__/plyparser.cpython-36.pyc",
    "Lib/site-packages/pycparser/__pycache__/yacctab.cpython-36.pyc",
    "Lib/site-packages/pycparser/_ast_gen.py",
    "Lib/site-packages/pycparser/_build_tables.py",
    "Lib/site-packages/pycparser/_c_ast.cfg",
    "Lib/site-packages/pycparser/ast_transforms.py",
    "Lib/site-packages/pycparser/c_ast.py",
    "Lib/site-packages/pycparser/c_generator.py",
    "Lib/site-packages/pycparser/c_lexer.py",
    "Lib/site-packages/pycparser/c_parser.py",
    "Lib/site-packages/pycparser/lextab.py",
    "Lib/site-packages/pycparser/ply/__init__.py",
    "Lib/site-packages/pycparser/ply/__pycache__/__init__.cpython-36.pyc",
    "Lib/site-packages/pycparser/ply/__pycache__/cpp.cpython-36.pyc",
    "Lib/site-packages/pycparser/ply/__pycache__/ctokens.cpython-36.pyc",
    "Lib/site-packages/pycparser/ply/__pycache__/lex.cpython-36.pyc",
    "Lib/site-packages/pycparser/ply/__pycache__/yacc.cpython-36.pyc",
    "Lib/site-packages/pycparser/ply/__pycache__/ygen.cpython-36.pyc",
    "Lib/site-packages/pycparser/ply/cpp.py",
    "Lib/site-packages/pycparser/ply/ctokens.py",
    "Lib/site-packages/pycparser/ply/lex.py",
    "Lib/site-packages/pycparser/ply/yacc.py",
    "Lib/site-packages/pycparser/ply/ygen.py",
    "Lib/site-packages/pycparser/plyparser.py",
    "Lib/site-packages/pycparser/yacctab.py"
  ],
  "fn": "pycparser-2.18-py36hd053e01_1.tar.bz2",
  "license": "BSD 3-clause",
  "license_family": "BSD",
  "link": {
    "source": "C:\\Program Files\\Anaconda3\\pkgs\\pycparser-2.18-py36hd053e01_1",
    "type": 1
  },
  "md5": null,
  "name": "pycparser",
  "noarch": null,
  "platform": "win32",
  "preferred_env": null,
  "priority": 1,
  "schannel": "defaults",
  "subdir": "win-64",
  "timestamp": 1505867448678,
  "url": "https://repo.continuum.io/pkgs/main/win-64/pycparser-2.18-py36hd053e01_1.tar.bz2",
  "version": "2.18",
  "with_features_depends": {}
}