{
  "arch": "x86_64",
  "auth": null,
  "build": "py36_0",
  "build_number": 0,
  "channel": null,
  "depends": [
    "python 3.6*"
  ],
  "files": [
    "Lib/site-packages/bson/__init__.py",
    "Lib/site-packages/bson/__pycache__/__init__.cpython-36.pyc",
    "Lib/site-packages/bson/__pycache__/binary.cpython-36.pyc",
    "Lib/site-packages/bson/__pycache__/code.cpython-36.pyc",
    "Lib/site-packages/bson/__pycache__/codec_options.cpython-36.pyc",
    "Lib/site-packages/bson/__pycache__/dbref.cpython-36.pyc",
    "Lib/site-packages/bson/__pycache__/decimal128.cpython-36.pyc",
    "Lib/site-packages/bson/__pycache__/errors.cpython-36.pyc",
    "Lib/site-packages/bson/__pycache__/int64.cpython-36.pyc",
    "Lib/site-packages/bson/__pycache__/json_util.cpython-36.pyc",
    "Lib/site-packages/bson/__pycache__/max_key.cpython-36.pyc",
    "Lib/site-packages/bson/__pycache__/min_key.cpython-36.pyc",
    "Lib/site-packages/bson/__pycache__/objectid.cpython-36.pyc",
    "Lib/site-packages/bson/__pycache__/py3compat.cpython-36.pyc",
    "Lib/site-packages/bson/__pycache__/raw_bson.cpython-36.pyc",
    "Lib/site-packages/bson/__pycache__/regex.cpython-36.pyc",
    "Lib/site-packages/bson/__pycache__/son.cpython-36.pyc",
    "Lib/site-packages/bson/__pycache__/timestamp.cpython-36.pyc",
    "Lib/site-packages/bson/__pycache__/tz_util.cpython-36.pyc",
    "Lib/site-packages/bson/_cbson.cp36-win_amd64.pyd",
    "Lib/site-packages/bson/binary.py",
    "Lib/site-packages/bson/code.py",
    "Lib/site-packages/bson/codec_options.py",
    "Lib/site-packages/bson/dbref.py",
    "Lib/site-packages/bson/decimal128.py",
    "Lib/site-packages/bson/errors.py",
    "Lib/site-packages/bson/int64.py",
    "Lib/site-packages/bson/json_util.py",
    "Lib/site-packages/bson/max_key.py",
    "Lib/site-packages/bson/min_key.py",
    "Lib/site-packages/bson/objectid.py",
    "Lib/site-packages/bson/py3compat.py",
    "Lib/site-packages/bson/raw_bson.py",
    "Lib/site-packages/bson/regex.py",
    "Lib/site-packages/bson/son.py",
    "Lib/site-packages/bson/timestamp.py",
    "Lib/site-packages/bson/tz_util.py",
    "Lib/site-packages/gridfs/__init__.py",
    "Lib/site-packages/gridfs/__pycache__/__init__.cpython-36.pyc",
    "Lib/site-packages/gridfs/__pycache__/errors.cpython-36.pyc",
    "Lib/site-packages/gridfs/__pycache__/grid_file.cpython-36.pyc",
    "Lib/site-packages/gridfs/errors.py",
    "Lib/site-packages/gridfs/grid_file.py",
    "Lib/site-packages/pymongo-3.4.0-py3.6.egg-info/PKG-INFO",
    "Lib/site-packages/pymongo-3.4.0-py3.6.egg-info/SOURCES.txt",
    "Lib/site-packages/pymongo-3.4.0-py3.6.egg-info/dependency_links.txt",
    "Lib/site-packages/pymongo-3.4.0-py3.6.egg-info/requires.txt",
    "Lib/site-packages/pymongo-3.4.0-py3.6.egg-info/top_level.txt",
    "Lib/site-packages/pymongo/__init__.py",
    "Lib/site-packages/pymongo/__pycache__/__init__.cpython-36.pyc",
    "Lib/site-packages/pymongo/__pycache__/auth.cpython-36.pyc",
    "Lib/site-packages/pymongo/__pycache__/bulk.cpython-36.pyc",
    "Lib/site-packages/pymongo/__pycache__/client_options.cpython-36.pyc",
    "Lib/site-packages/pymongo/__pycache__/collation.cpython-36.pyc",
    "Lib/site-packages/pymongo/__pycache__/collection.cpython-36.pyc",
    "Lib/site-packages/pymongo/__pycache__/command_cursor.cpython-36.pyc",
    "Lib/site-packages/pymongo/__pycache__/common.cpython-36.pyc",
    "Lib/site-packages/pymongo/__pycache__/cursor.cpython-36.pyc",
    "Lib/site-packages/pymongo/__pycache__/cursor_manager.cpython-36.pyc",
    "Lib/site-packages/pymongo/__pycache__/database.cpython-36.pyc",
    "Lib/site-packages/pymongo/__pycache__/errors.cpython-36.pyc",
    "Lib/site-packages/pymongo/__pycache__/helpers.cpython-36.pyc",
    "Lib/site-packages/pymongo/__pycache__/ismaster.cpython-36.pyc",
    "Lib/site-packages/pymongo/__pycache__/max_staleness_selectors.cpython-36.pyc",
    "Lib/site-packages/pymongo/__pycache__/message.cpython-36.pyc",
    "Lib/site-packages/pymongo/__pycache__/mongo_client.cpython-36.pyc",
    "Lib/site-packages/pymongo/__pycache__/mongo_replica_set_client.cpython-36.pyc",
    "Lib/site-packages/pymongo/__pycache__/monitor.cpython-36.pyc",
    "Lib/site-packages/pymongo/__pycache__/monitoring.cpython-36.pyc",
    "Lib/site-packages/pymongo/__pycache__/monotonic.cpython-36.pyc",
    "Lib/site-packages/pymongo/__pycache__/network.cpython-36.pyc",
    "Lib/site-packages/pymongo/__pycache__/operations.cpython-36.pyc",
    "Lib/site-packages/pymongo/__pycache__/periodic_executor.cpython-36.pyc",
    "Lib/site-packages/pymongo/__pycache__/pool.cpython-36.pyc",
    "Lib/site-packages/pymongo/__pycache__/read_concern.cpython-36.pyc",
    "Lib/site-packages/pymongo/__pycache__/read_preferences.cpython-36.pyc",
    "Lib/site-packages/pymongo/__pycache__/response.cpython-36.pyc",
    "Lib/site-packages/pymongo/__pycache__/results.cpython-36.pyc",
    "Lib/site-packages/pymongo/__pycache__/server.cpython-36.pyc",
    "Lib/site-packages/pymongo/__pycache__/server_description.cpython-36.pyc",
    "Lib/site-packages/pymongo/__pycache__/server_selectors.cpython-36.pyc",
    "Lib/site-packages/pymongo/__pycache__/server_type.cpython-36.pyc",
    "Lib/site-packages/pymongo/__pycache__/settings.cpython-36.pyc",
    "Lib/site-packages/pymongo/__pycache__/son_manipulator.cpython-36.pyc",
    "Lib/site-packages/pymongo/__pycache__/ssl_context.cpython-36.pyc",
    "Lib/site-packages/pymongo/__pycache__/ssl_match_hostname.cpython-36.pyc",
    "Lib/site-packages/pymongo/__pycache__/ssl_support.cpython-36.pyc",
    "Lib/site-packages/pymongo/__pycache__/thread_util.cpython-36.pyc",
    "Lib/site-packages/pymongo/__pycache__/topology.cpython-36.pyc",
    "Lib/site-packages/pymongo/__pycache__/topology_description.cpython-36.pyc",
    "Lib/site-packages/pymongo/__pycache__/uri_parser.cpython-36.pyc",
    "Lib/site-packages/pymongo/__pycache__/write_concern.cpython-36.pyc",
    "Lib/site-packages/pymongo/_cmessage.cp36-win_amd64.pyd",
    "Lib/site-packages/pymongo/auth.py",
    "Lib/site-packages/pymongo/bulk.py",
    "Lib/site-packages/pymongo/client_options.py",
    "Lib/site-packages/pymongo/collation.py",
    "Lib/site-packages/pymongo/collection.py",
    "Lib/site-packages/pymongo/command_cursor.py",
    "Lib/site-packages/pymongo/common.py",
    "Lib/site-packages/pymongo/cursor.py",
    "Lib/site-packages/pymongo/cursor_manager.py",
    "Lib/site-packages/pymongo/database.py",
    "Lib/site-packages/pymongo/errors.py",
    "Lib/site-packages/pymongo/helpers.py",
    "Lib/site-packages/pymongo/ismaster.py",
    "Lib/site-packages/pymongo/max_staleness_selectors.py",
    "Lib/site-packages/pymongo/message.py",
    "Lib/site-packages/pymongo/mongo_client.py",
    "Lib/site-packages/pymongo/mongo_replica_set_client.py",
    "Lib/site-packages/pymongo/monitor.py",
    "Lib/site-packages/pymongo/monitoring.py",
    "Lib/site-packages/pymongo/monotonic.py",
    "Lib/site-packages/pymongo/network.py",
    "Lib/site-packages/pymongo/operations.py",
    "Lib/site-packages/pymongo/periodic_executor.py",
    "Lib/site-packages/pymongo/pool.py",
    "Lib/site-packages/pymongo/read_concern.py",
    "Lib/site-packages/pymongo/read_preferences.py",
    "Lib/site-packages/pymongo/response.py",
    "Lib/site-packages/pymongo/results.py",
    "Lib/site-packages/pymongo/server.py",
    "Lib/site-packages/pymongo/server_description.py",
    "Lib/site-packages/pymongo/server_selectors.py",
    "Lib/site-packages/pymongo/server_type.py",
    "Lib/site-packages/pymongo/settings.py",
    "Lib/site-packages/pymongo/son_manipulator.py",
    "Lib/site-packages/pymongo/ssl_context.py",
    "Lib/site-packages/pymongo/ssl_match_hostname.py",
    "Lib/site-packages/pymongo/ssl_support.py",
    "Lib/site-packages/pymongo/thread_util.py",
    "Lib/site-packages/pymongo/topology.py",
    "Lib/site-packages/pymongo/topology_description.py",
    "Lib/site-packages/pymongo/uri_parser.py",
    "Lib/site-packages/pymongo/write_concern.py"
  ],
  "fn": "pymongo-3.4.0-py36_0.tar.bz2",
  "license": "Apache",
  "link": {
    "source": "C:\\Program Files\\Anaconda3\\pkgs\\pymongo-3.4.0-py36_0",
    "type": 1
  },
  "md5": null,
  "name": "pymongo",
  "noarch": null,
  "platform": "win32",
  "preferred_env": null,
  "priority": 1,
  "schannel": "defaults",
  "subdir": "win-64",
  "url": "https://repo.continuum.io/pkgs/free/win-64/pymongo-3.4.0-py36_0.tar.bz2",
  "version": "3.4.0",
  "with_features_depends": {}
}