{
  "arch": "x86_64",
  "auth": null,
  "build": "py36h5aa48f6_0",
  "build_number": 0,
  "channel": null,
  "depends": [
    "python >=3.6,<3.7.0a0",
    "qtpy",
    "six"
  ],
  "files": [
    "Lib/site-packages/QtAwesome-0.4.4-py3.6.egg-info/PKG-INFO",
    "Lib/site-packages/QtAwesome-0.4.4-py3.6.egg-info/SOURCES.txt",
    "Lib/site-packages/QtAwesome-0.4.4-py3.6.egg-info/dependency_links.txt",
    "Lib/site-packages/QtAwesome-0.4.4-py3.6.egg-info/requires.txt",
    "Lib/site-packages/QtAwesome-0.4.4-py3.6.egg-info/top_level.txt",
    "Lib/site-packages/qtawesome/__init__.py",
    "Lib/site-packages/qtawesome/__pycache__/__init__.cpython-36.pyc",
    "Lib/site-packages/qtawesome/__pycache__/_version.cpython-36.pyc",
    "Lib/site-packages/qtawesome/__pycache__/animation.cpython-36.pyc",
    "Lib/site-packages/qtawesome/__pycache__/iconic_font.cpython-36.pyc",
    "Lib/site-packages/qtawesome/_version.py",
    "Lib/site-packages/qtawesome/animation.py",
    "Lib/site-packages/qtawesome/fonts/elusiveicons-webfont-charmap.json",
    "Lib/site-packages/qtawesome/fonts/elusiveicons-webfont.ttf",
    "Lib/site-packages/qtawesome/fonts/fontawesome-webfont-charmap.json",
    "Lib/site-packages/qtawesome/fonts/fontawesome-webfont.ttf",
    "Lib/site-packages/qtawesome/iconic_font.py",
    "Lib/site-packages/qtawesome/tests/__pycache__/test_qtawesome.cpython-35-PYTEST.pyc",
    "Lib/site-packages/qtawesome/tests/__pycache__/test_qtawesome.cpython-36.pyc",
    "Lib/site-packages/qtawesome/tests/test_qtawesome.py"
  ],
  "fn": "qtawesome-0.4.4-py36h5aa48f6_0.tar.bz2",
  "license": "MIT",
  "link": {
    "source": "C:\\Program Files\\Anaconda3\\pkgs\\qtawesome-0.4.4-py36h5aa48f6_0",
    "type": 1
  },
  "md5": null,
  "name": "qtawesome",
  "noarch": null,
  "platform": "win32",
  "preferred_env": null,
  "priority": 1,
  "schannel": "defaults",
  "subdir": "win-64",
  "timestamp": 1506037664001,
  "url": "https://repo.continuum.io/pkgs/main/win-64/qtawesome-0.4.4-py36h5aa48f6_0.tar.bz2",
  "version": "0.4.4",
  "with_features_depends": {}
}