{
  "arch": "x86_64",
  "auth": null,
  "build": "py36h99a29a9_0",
  "build_number": 0,
  "channel": null,
  "depends": [
    "ipykernel >=4.1",
    "jupyter_client >=4.1",
    "jupyter_core",
    "pygments",
    "pyqt",
    "python >=3.6,<3.7.0a0",
    "traitlets"
  ],
  "files": [
    "Lib/site-packages/qtconsole-4.3.1-py3.6.egg-info",
    "Lib/site-packages/qtconsole/__init__.py",
    "Lib/site-packages/qtconsole/__main__.py",
    "Lib/site-packages/qtconsole/__pycache__/__init__.cpython-36.pyc",
    "Lib/site-packages/qtconsole/__pycache__/__main__.cpython-36.pyc",
    "Lib/site-packages/qtconsole/__pycache__/_version.cpython-36.pyc",
    "Lib/site-packages/qtconsole/__pycache__/ansi_code_processor.cpython-36.pyc",
    "Lib/site-packages/qtconsole/__pycache__/base_frontend_mixin.cpython-36.pyc",
    "Lib/site-packages/qtconsole/__pycache__/bracket_matcher.cpython-36.pyc",
    "Lib/site-packages/qtconsole/__pycache__/call_tip_widget.cpython-36.pyc",
    "Lib/site-packages/qtconsole/__pycache__/client.cpython-36.pyc",
    "Lib/site-packages/qtconsole/__pycache__/completion_html.cpython-36.pyc",
    "Lib/site-packages/qtconsole/__pycache__/completion_plain.cpython-36.pyc",
    "Lib/site-packages/qtconsole/__pycache__/completion_widget.cpython-36.pyc",
    "Lib/site-packages/qtconsole/__pycache__/console_widget.cpython-36.pyc",
    "Lib/site-packages/qtconsole/__pycache__/frontend_widget.cpython-36.pyc",
    "Lib/site-packages/qtconsole/__pycache__/history_console_widget.cpython-36.pyc",
    "Lib/site-packages/qtconsole/__pycache__/inprocess.cpython-36.pyc",
    "Lib/site-packages/qtconsole/__pycache__/ipython_widget.cpython-36.pyc",
    "Lib/site-packages/qtconsole/__pycache__/jupyter_widget.cpython-36.pyc",
    "Lib/site-packages/qtconsole/__pycache__/kernel_mixins.cpython-36.pyc",
    "Lib/site-packages/qtconsole/__pycache__/kill_ring.cpython-36.pyc",
    "Lib/site-packages/qtconsole/__pycache__/mainwindow.cpython-36.pyc",
    "Lib/site-packages/qtconsole/__pycache__/manager.cpython-36.pyc",
    "Lib/site-packages/qtconsole/__pycache__/pygments_highlighter.cpython-36.pyc",
    "Lib/site-packages/qtconsole/__pycache__/qt.cpython-36.pyc",
    "Lib/site-packages/qtconsole/__pycache__/qt_loaders.cpython-36.pyc",
    "Lib/site-packages/qtconsole/__pycache__/qtconsoleapp.cpython-36.pyc",
    "Lib/site-packages/qtconsole/__pycache__/rich_ipython_widget.cpython-36.pyc",
    "Lib/site-packages/qtconsole/__pycache__/rich_jupyter_widget.cpython-36.pyc",
    "Lib/site-packages/qtconsole/__pycache__/rich_text.cpython-36.pyc",
    "Lib/site-packages/qtconsole/__pycache__/styles.cpython-36.pyc",
    "Lib/site-packages/qtconsole/__pycache__/svg.cpython-36.pyc",
    "Lib/site-packages/qtconsole/__pycache__/usage.cpython-36.pyc",
    "Lib/site-packages/qtconsole/__pycache__/util.cpython-36.pyc",
    "Lib/site-packages/qtconsole/_version.py",
    "Lib/site-packages/qtconsole/ansi_code_processor.py",
    "Lib/site-packages/qtconsole/base_frontend_mixin.py",
    "Lib/site-packages/qtconsole/bracket_matcher.py",
    "Lib/site-packages/qtconsole/call_tip_widget.py",
    "Lib/site-packages/qtconsole/client.py",
    "Lib/site-packages/qtconsole/completion_html.py",
    "Lib/site-packages/qtconsole/completion_plain.py",
    "Lib/site-packages/qtconsole/completion_widget.py",
    "Lib/site-packages/qtconsole/console_widget.py",
    "Lib/site-packages/qtconsole/frontend_widget.py",
    "Lib/site-packages/qtconsole/history_console_widget.py",
    "Lib/site-packages/qtconsole/inprocess.py",
    "Lib/site-packages/qtconsole/ipython_widget.py",
    "Lib/site-packages/qtconsole/jupyter_widget.py",
    "Lib/site-packages/qtconsole/kernel_mixins.py",
    "Lib/site-packages/qtconsole/kill_ring.py",
    "Lib/site-packages/qtconsole/mainwindow.py",
    "Lib/site-packages/qtconsole/manager.py",
    "Lib/site-packages/qtconsole/pygments_highlighter.py",
    "Lib/site-packages/qtconsole/qt.py",
    "Lib/site-packages/qtconsole/qt_loaders.py",
    "Lib/site-packages/qtconsole/qtconsoleapp.py",
    "Lib/site-packages/qtconsole/resources/icon/JupyterConsole.svg",
    "Lib/site-packages/qtconsole/rich_ipython_widget.py",
    "Lib/site-packages/qtconsole/rich_jupyter_widget.py",
    "Lib/site-packages/qtconsole/rich_text.py",
    "Lib/site-packages/qtconsole/styles.py",
    "Lib/site-packages/qtconsole/svg.py",
    "Lib/site-packages/qtconsole/tests/__init__.py",
    "Lib/site-packages/qtconsole/tests/__pycache__/__init__.cpython-36.pyc",
    "Lib/site-packages/qtconsole/tests/__pycache__/test_ansi_code_processor.cpython-36.pyc",
    "Lib/site-packages/qtconsole/tests/__pycache__/test_app.cpython-36.pyc",
    "Lib/site-packages/qtconsole/tests/__pycache__/test_completion_widget.cpython-36.pyc",
    "Lib/site-packages/qtconsole/tests/__pycache__/test_console_widget.cpython-36.pyc",
    "Lib/site-packages/qtconsole/tests/__pycache__/test_jupyter_widget.cpython-36.pyc",
    "Lib/site-packages/qtconsole/tests/__pycache__/test_kill_ring.cpython-36.pyc",
    "Lib/site-packages/qtconsole/tests/__pycache__/test_styles.cpython-36.pyc",
    "Lib/site-packages/qtconsole/tests/test_ansi_code_processor.py",
    "Lib/site-packages/qtconsole/tests/test_app.py",
    "Lib/site-packages/qtconsole/tests/test_completion_widget.py",
    "Lib/site-packages/qtconsole/tests/test_console_widget.py",
    "Lib/site-packages/qtconsole/tests/test_jupyter_widget.py",
    "Lib/site-packages/qtconsole/tests/test_kill_ring.py",
    "Lib/site-packages/qtconsole/tests/test_styles.py",
    "Lib/site-packages/qtconsole/usage.py",
    "Lib/site-packages/qtconsole/util.py",
    "Scripts/jupyter-qtconsole-script.py",
    "Scripts/jupyter-qtconsole.exe"
  ],
  "fn": "qtconsole-4.3.1-py36h99a29a9_0.tar.bz2",
  "license": "BSD 3-Clause",
  "link": {
    "source": "C:\\Program Files\\Anaconda3\\pkgs\\qtconsole-4.3.1-py36h99a29a9_0",
    "type": 1
  },
  "md5": null,
  "name": "qtconsole",
  "noarch": null,
  "platform": "win32",
  "preferred_env": null,
  "priority": 1,
  "schannel": "defaults",
  "subdir": "win-64",
  "timestamp": 1506015185826,
  "url": "https://repo.continuum.io/pkgs/main/win-64/qtconsole-4.3.1-py36h99a29a9_0.tar.bz2",
  "version": "4.3.1",
  "with_features_depends": {}
}