{
  "arch": "x86_64",
  "auth": null,
  "build": "py36hcaf5641_0",
  "build_number": 0,
  "channel": null,
  "depends": [
    "python >=3.6,<3.7.0a0"
  ],
  "files": [
    "Lib/site-packages/rope-0.10.5-py3.6.egg-info/PKG-INFO",
    "Lib/site-packages/rope-0.10.5-py3.6.egg-info/SOURCES.txt",
    "Lib/site-packages/rope-0.10.5-py3.6.egg-info/dependency_links.txt",
    "Lib/site-packages/rope-0.10.5-py3.6.egg-info/top_level.txt",
    "Lib/site-packages/rope/__init__.py",
    "Lib/site-packages/rope/__pycache__/__init__.cpython-36.pyc",
    "Lib/site-packages/rope/base/__init__.py",
    "Lib/site-packages/rope/base/__pycache__/__init__.cpython-36.pyc",
    "Lib/site-packages/rope/base/__pycache__/arguments.cpython-36.pyc",
    "Lib/site-packages/rope/base/__pycache__/ast.cpython-36.pyc",
    "Lib/site-packages/rope/base/__pycache__/astutils.cpython-36.pyc",
    "Lib/site-packages/rope/base/__pycache__/builtins.cpython-36.pyc",
    "Lib/site-packages/rope/base/__pycache__/change.cpython-36.pyc",
    "Lib/site-packages/rope/base/__pycache__/codeanalyze.cpython-36.pyc",
    "Lib/site-packages/rope/base/__pycache__/default_config.cpython-36.pyc",
    "Lib/site-packages/rope/base/__pycache__/evaluate.cpython-36.pyc",
    "Lib/site-packages/rope/base/__pycache__/exceptions.cpython-36.pyc",
    "Lib/site-packages/rope/base/__pycache__/fscommands.cpython-36.pyc",
    "Lib/site-packages/rope/base/__pycache__/history.cpython-36.pyc",
    "Lib/site-packages/rope/base/__pycache__/libutils.cpython-36.pyc",
    "Lib/site-packages/rope/base/__pycache__/prefs.cpython-36.pyc",
    "Lib/site-packages/rope/base/__pycache__/project.cpython-36.pyc",
    "Lib/site-packages/rope/base/__pycache__/pycore.cpython-36.pyc",
    "Lib/site-packages/rope/base/__pycache__/pynames.cpython-36.pyc",
    "Lib/site-packages/rope/base/__pycache__/pynamesdef.cpython-36.pyc",
    "Lib/site-packages/rope/base/__pycache__/pyobjects.cpython-36.pyc",
    "Lib/site-packages/rope/base/__pycache__/pyobjectsdef.cpython-36.pyc",
    "Lib/site-packages/rope/base/__pycache__/pyscopes.cpython-36.pyc",
    "Lib/site-packages/rope/base/__pycache__/resourceobserver.cpython-36.pyc",
    "Lib/site-packages/rope/base/__pycache__/resources.cpython-36.pyc",
    "Lib/site-packages/rope/base/__pycache__/simplify.cpython-36.pyc",
    "Lib/site-packages/rope/base/__pycache__/stdmods.cpython-36.pyc",
    "Lib/site-packages/rope/base/__pycache__/taskhandle.cpython-36.pyc",
    "Lib/site-packages/rope/base/__pycache__/worder.cpython-36.pyc",
    "Lib/site-packages/rope/base/arguments.py",
    "Lib/site-packages/rope/base/ast.py",
    "Lib/site-packages/rope/base/astutils.py",
    "Lib/site-packages/rope/base/builtins.py",
    "Lib/site-packages/rope/base/change.py",
    "Lib/site-packages/rope/base/codeanalyze.py",
    "Lib/site-packages/rope/base/default_config.py",
    "Lib/site-packages/rope/base/evaluate.py",
    "Lib/site-packages/rope/base/exceptions.py",
    "Lib/site-packages/rope/base/fscommands.py",
    "Lib/site-packages/rope/base/history.py",
    "Lib/site-packages/rope/base/libutils.py",
    "Lib/site-packages/rope/base/oi/__init__.py",
    "Lib/site-packages/rope/base/oi/__pycache__/__init__.cpython-36.pyc",
    "Lib/site-packages/rope/base/oi/__pycache__/doa.cpython-36.pyc",
    "Lib/site-packages/rope/base/oi/__pycache__/memorydb.cpython-36.pyc",
    "Lib/site-packages/rope/base/oi/__pycache__/objectdb.cpython-36.pyc",
    "Lib/site-packages/rope/base/oi/__pycache__/objectinfo.cpython-36.pyc",
    "Lib/site-packages/rope/base/oi/__pycache__/runmod.cpython-36.pyc",
    "Lib/site-packages/rope/base/oi/__pycache__/soa.cpython-36.pyc",
    "Lib/site-packages/rope/base/oi/__pycache__/soi.cpython-36.pyc",
    "Lib/site-packages/rope/base/oi/__pycache__/transform.cpython-36.pyc",
    "Lib/site-packages/rope/base/oi/doa.py",
    "Lib/site-packages/rope/base/oi/memorydb.py",
    "Lib/site-packages/rope/base/oi/objectdb.py",
    "Lib/site-packages/rope/base/oi/objectinfo.py",
    "Lib/site-packages/rope/base/oi/runmod.py",
    "Lib/site-packages/rope/base/oi/soa.py",
    "Lib/site-packages/rope/base/oi/soi.py",
    "Lib/site-packages/rope/base/oi/transform.py",
    "Lib/site-packages/rope/base/oi/type_hinting/__init__.py",
    "Lib/site-packages/rope/base/oi/type_hinting/__pycache__/__init__.cpython-36.pyc",
    "Lib/site-packages/rope/base/oi/type_hinting/__pycache__/evaluate.cpython-36.pyc",
    "Lib/site-packages/rope/base/oi/type_hinting/__pycache__/factory.cpython-36.pyc",
    "Lib/site-packages/rope/base/oi/type_hinting/__pycache__/interfaces.cpython-36.pyc",
    "Lib/site-packages/rope/base/oi/type_hinting/__pycache__/utils.cpython-36.pyc",
    "Lib/site-packages/rope/base/oi/type_hinting/evaluate.py",
    "Lib/site-packages/rope/base/oi/type_hinting/factory.py",
    "Lib/site-packages/rope/base/oi/type_hinting/interfaces.py",
    "Lib/site-packages/rope/base/oi/type_hinting/providers/__init__.py",
    "Lib/site-packages/rope/base/oi/type_hinting/providers/__pycache__/__init__.cpython-36.pyc",
    "Lib/site-packages/rope/base/oi/type_hinting/providers/__pycache__/composite.cpython-36.pyc",
    "Lib/site-packages/rope/base/oi/type_hinting/providers/__pycache__/docstrings.cpython-36.pyc",
    "Lib/site-packages/rope/base/oi/type_hinting/providers/__pycache__/inheritance.cpython-36.pyc",
    "Lib/site-packages/rope/base/oi/type_hinting/providers/__pycache__/interfaces.cpython-36.pyc",
    "Lib/site-packages/rope/base/oi/type_hinting/providers/__pycache__/numpydocstrings.cpython-36.pyc",
    "Lib/site-packages/rope/base/oi/type_hinting/providers/__pycache__/pep0484_type_comments.cpython-36.pyc",
    "Lib/site-packages/rope/base/oi/type_hinting/providers/composite.py",
    "Lib/site-packages/rope/base/oi/type_hinting/providers/docstrings.py",
    "Lib/site-packages/rope/base/oi/type_hinting/providers/inheritance.py",
    "Lib/site-packages/rope/base/oi/type_hinting/providers/interfaces.py",
    "Lib/site-packages/rope/base/oi/type_hinting/providers/numpydocstrings.py",
    "Lib/site-packages/rope/base/oi/type_hinting/providers/pep0484_type_comments.py",
    "Lib/site-packages/rope/base/oi/type_hinting/resolvers/__init__.py",
    "Lib/site-packages/rope/base/oi/type_hinting/resolvers/__pycache__/__init__.cpython-36.pyc",
    "Lib/site-packages/rope/base/oi/type_hinting/resolvers/__pycache__/composite.cpython-36.pyc",
    "Lib/site-packages/rope/base/oi/type_hinting/resolvers/__pycache__/interfaces.cpython-36.pyc",
    "Lib/site-packages/rope/base/oi/type_hinting/resolvers/__pycache__/types.cpython-36.pyc",
    "Lib/site-packages/rope/base/oi/type_hinting/resolvers/composite.py",
    "Lib/site-packages/rope/base/oi/type_hinting/resolvers/interfaces.py",
    "Lib/site-packages/rope/base/oi/type_hinting/resolvers/types.py",
    "Lib/site-packages/rope/base/oi/type_hinting/utils.py",
    "Lib/site-packages/rope/base/prefs.py",
    "Lib/site-packages/rope/base/project.py",
    "Lib/site-packages/rope/base/pycore.py",
    "Lib/site-packages/rope/base/pynames.py",
    "Lib/site-packages/rope/base/pynamesdef.py",
    "Lib/site-packages/rope/base/pyobjects.py",
    "Lib/site-packages/rope/base/pyobjectsdef.py",
    "Lib/site-packages/rope/base/pyscopes.py",
    "Lib/site-packages/rope/base/resourceobserver.py",
    "Lib/site-packages/rope/base/resources.py",
    "Lib/site-packages/rope/base/simplify.py",
    "Lib/site-packages/rope/base/stdmods.py",
    "Lib/site-packages/rope/base/taskhandle.py",
    "Lib/site-packages/rope/base/utils/__init__.py",
    "Lib/site-packages/rope/base/utils/__pycache__/__init__.cpython-36.pyc",
    "Lib/site-packages/rope/base/utils/__pycache__/datastructures.cpython-36.pyc",
    "Lib/site-packages/rope/base/utils/__pycache__/pycompat.cpython-36.pyc",
    "Lib/site-packages/rope/base/utils/datastructures.py",
    "Lib/site-packages/rope/base/utils/pycompat.py",
    "Lib/site-packages/rope/base/worder.py",
    "Lib/site-packages/rope/contrib/__init__.py",
    "Lib/site-packages/rope/contrib/__pycache__/__init__.cpython-36.pyc",
    "Lib/site-packages/rope/contrib/__pycache__/autoimport.cpython-36.pyc",
    "Lib/site-packages/rope/contrib/__pycache__/changestack.cpython-36.pyc",
    "Lib/site-packages/rope/contrib/__pycache__/codeassist.cpython-36.pyc",
    "Lib/site-packages/rope/contrib/__pycache__/finderrors.cpython-36.pyc",
    "Lib/site-packages/rope/contrib/__pycache__/findit.cpython-36.pyc",
    "Lib/site-packages/rope/contrib/__pycache__/fixmodnames.cpython-36.pyc",
    "Lib/site-packages/rope/contrib/__pycache__/fixsyntax.cpython-36.pyc",
    "Lib/site-packages/rope/contrib/__pycache__/generate.cpython-36.pyc",
    "Lib/site-packages/rope/contrib/autoimport.py",
    "Lib/site-packages/rope/contrib/changestack.py",
    "Lib/site-packages/rope/contrib/codeassist.py",
    "Lib/site-packages/rope/contrib/finderrors.py",
    "Lib/site-packages/rope/contrib/findit.py",
    "Lib/site-packages/rope/contrib/fixmodnames.py",
    "Lib/site-packages/rope/contrib/fixsyntax.py",
    "Lib/site-packages/rope/contrib/generate.py",
    "Lib/site-packages/rope/refactor/__init__.py",
    "Lib/site-packages/rope/refactor/__pycache__/__init__.cpython-36.pyc",
    "Lib/site-packages/rope/refactor/__pycache__/change_signature.cpython-36.pyc",
    "Lib/site-packages/rope/refactor/__pycache__/encapsulate_field.cpython-36.pyc",
    "Lib/site-packages/rope/refactor/__pycache__/extract.cpython-36.pyc",
    "Lib/site-packages/rope/refactor/__pycache__/functionutils.cpython-36.pyc",
    "Lib/site-packages/rope/refactor/__pycache__/inline.cpython-36.pyc",
    "Lib/site-packages/rope/refactor/__pycache__/introduce_factory.cpython-36.pyc",
    "Lib/site-packages/rope/refactor/__pycache__/introduce_parameter.cpython-36.pyc",
    "Lib/site-packages/rope/refactor/__pycache__/localtofield.cpython-36.pyc",
    "Lib/site-packages/rope/refactor/__pycache__/method_object.cpython-36.pyc",
    "Lib/site-packages/rope/refactor/__pycache__/move.cpython-36.pyc",
    "Lib/site-packages/rope/refactor/__pycache__/multiproject.cpython-36.pyc",
    "Lib/site-packages/rope/refactor/__pycache__/occurrences.cpython-36.pyc",
    "Lib/site-packages/rope/refactor/__pycache__/patchedast.cpython-36.pyc",
    "Lib/site-packages/rope/refactor/__pycache__/rename.cpython-36.pyc",
    "Lib/site-packages/rope/refactor/__pycache__/restructure.cpython-36.pyc",
    "Lib/site-packages/rope/refactor/__pycache__/similarfinder.cpython-36.pyc",
    "Lib/site-packages/rope/refactor/__pycache__/sourceutils.cpython-36.pyc",
    "Lib/site-packages/rope/refactor/__pycache__/suites.cpython-36.pyc",
    "Lib/site-packages/rope/refactor/__pycache__/topackage.cpython-36.pyc",
    "Lib/site-packages/rope/refactor/__pycache__/usefunction.cpython-36.pyc",
    "Lib/site-packages/rope/refactor/__pycache__/wildcards.cpython-36.pyc",
    "Lib/site-packages/rope/refactor/change_signature.py",
    "Lib/site-packages/rope/refactor/encapsulate_field.py",
    "Lib/site-packages/rope/refactor/extract.py",
    "Lib/site-packages/rope/refactor/functionutils.py",
    "Lib/site-packages/rope/refactor/importutils/__init__.py",
    "Lib/site-packages/rope/refactor/importutils/__pycache__/__init__.cpython-36.pyc",
    "Lib/site-packages/rope/refactor/importutils/__pycache__/actions.cpython-36.pyc",
    "Lib/site-packages/rope/refactor/importutils/__pycache__/importinfo.cpython-36.pyc",
    "Lib/site-packages/rope/refactor/importutils/__pycache__/module_imports.cpython-36.pyc",
    "Lib/site-packages/rope/refactor/importutils/actions.py",
    "Lib/site-packages/rope/refactor/importutils/importinfo.py",
    "Lib/site-packages/rope/refactor/importutils/module_imports.py",
    "Lib/site-packages/rope/refactor/inline.py",
    "Lib/site-packages/rope/refactor/introduce_factory.py",
    "Lib/site-packages/rope/refactor/introduce_parameter.py",
    "Lib/site-packages/rope/refactor/localtofield.py",
    "Lib/site-packages/rope/refactor/method_object.py",
    "Lib/site-packages/rope/refactor/move.py",
    "Lib/site-packages/rope/refactor/multiproject.py",
    "Lib/site-packages/rope/refactor/occurrences.py",
    "Lib/site-packages/rope/refactor/patchedast.py",
    "Lib/site-packages/rope/refactor/rename.py",
    "Lib/site-packages/rope/refactor/restructure.py",
    "Lib/site-packages/rope/refactor/similarfinder.py",
    "Lib/site-packages/rope/refactor/sourceutils.py",
    "Lib/site-packages/rope/refactor/suites.py",
    "Lib/site-packages/rope/refactor/topackage.py",
    "Lib/site-packages/rope/refactor/usefunction.py",
    "Lib/site-packages/rope/refactor/wildcards.py"
  ],
  "fn": "rope-0.10.5-py36hcaf5641_0.tar.bz2",
  "license": "GPL 2.0",
  "link": {
    "source": "C:\\Program Files\\Anaconda3\\pkgs\\rope-0.10.5-py36hcaf5641_0",
    "type": 1
  },
  "md5": null,
  "name": "rope",
  "noarch": null,
  "platform": "win32",
  "preferred_env": null,
  "priority": 1,
  "schannel": "defaults",
  "subdir": "win-64",
  "timestamp": 1506038506443,
  "url": "https://repo.continuum.io/pkgs/main/win-64/rope-0.10.5-py36hcaf5641_0.tar.bz2",
  "version": "0.10.5",
  "with_features_depends": {}
}