{
  "arch": "x86_64",
  "auth": null,
  "build": "py36h9b16331_2",
  "build_number": 2,
  "channel": null,
  "depends": [
    "python >=3.6,<3.7.0a0",
    "vc 14.*",
    "yaml"
  ],
  "files": [
    "Lib/site-packages/ruamel_yaml-0.11.14-py3.6.egg-info",
    "Lib/site-packages/ruamel_yaml/__init__.py",
    "Lib/site-packages/ruamel_yaml/__pycache__/__init__.cpython-36.pyc",
    "Lib/site-packages/ruamel_yaml/__pycache__/comments.cpython-36.pyc",
    "Lib/site-packages/ruamel_yaml/__pycache__/compat.cpython-36.pyc",
    "Lib/site-packages/ruamel_yaml/__pycache__/composer.cpython-36.pyc",
    "Lib/site-packages/ruamel_yaml/__pycache__/configobjwalker.cpython-36.pyc",
    "Lib/site-packages/ruamel_yaml/__pycache__/constructor.cpython-36.pyc",
    "Lib/site-packages/ruamel_yaml/__pycache__/cyaml.cpython-36.pyc",
    "Lib/site-packages/ruamel_yaml/__pycache__/dumper.cpython-36.pyc",
    "Lib/site-packages/ruamel_yaml/__pycache__/emitter.cpython-36.pyc",
    "Lib/site-packages/ruamel_yaml/__pycache__/error.cpython-36.pyc",
    "Lib/site-packages/ruamel_yaml/__pycache__/events.cpython-36.pyc",
    "Lib/site-packages/ruamel_yaml/__pycache__/loader.cpython-36.pyc",
    "Lib/site-packages/ruamel_yaml/__pycache__/main.cpython-36.pyc",
    "Lib/site-packages/ruamel_yaml/__pycache__/nodes.cpython-36.pyc",
    "Lib/site-packages/ruamel_yaml/__pycache__/parser.cpython-36.pyc",
    "Lib/site-packages/ruamel_yaml/__pycache__/reader.cpython-36.pyc",
    "Lib/site-packages/ruamel_yaml/__pycache__/representer.cpython-36.pyc",
    "Lib/site-packages/ruamel_yaml/__pycache__/resolver.cpython-36.pyc",
    "Lib/site-packages/ruamel_yaml/__pycache__/scalarstring.cpython-36.pyc",
    "Lib/site-packages/ruamel_yaml/__pycache__/scanner.cpython-36.pyc",
    "Lib/site-packages/ruamel_yaml/__pycache__/serializer.cpython-36.pyc",
    "Lib/site-packages/ruamel_yaml/__pycache__/tokens.cpython-36.pyc",
    "Lib/site-packages/ruamel_yaml/__pycache__/util.cpython-36.pyc",
    "Lib/site-packages/ruamel_yaml/comments.py",
    "Lib/site-packages/ruamel_yaml/compat.py",
    "Lib/site-packages/ruamel_yaml/composer.py",
    "Lib/site-packages/ruamel_yaml/configobjwalker.py",
    "Lib/site-packages/ruamel_yaml/constructor.py",
    "Lib/site-packages/ruamel_yaml/cyaml.py",
    "Lib/site-packages/ruamel_yaml/dumper.py",
    "Lib/site-packages/ruamel_yaml/emitter.py",
    "Lib/site-packages/ruamel_yaml/error.py",
    "Lib/site-packages/ruamel_yaml/events.py",
    "Lib/site-packages/ruamel_yaml/ext/__init__.py",
    "Lib/site-packages/ruamel_yaml/ext/__pycache__/__init__.cpython-36.pyc",
    "Lib/site-packages/ruamel_yaml/ext/_ruamel_yaml.cp36-win_amd64.pyd",
    "Lib/site-packages/ruamel_yaml/ext/yaml.dll",
    "Lib/site-packages/ruamel_yaml/loader.py",
    "Lib/site-packages/ruamel_yaml/main.py",
    "Lib/site-packages/ruamel_yaml/nodes.py",
    "Lib/site-packages/ruamel_yaml/parser.py",
    "Lib/site-packages/ruamel_yaml/reader.py",
    "Lib/site-packages/ruamel_yaml/representer.py",
    "Lib/site-packages/ruamel_yaml/resolver.py",
    "Lib/site-packages/ruamel_yaml/scalarstring.py",
    "Lib/site-packages/ruamel_yaml/scanner.py",
    "Lib/site-packages/ruamel_yaml/serializer.py",
    "Lib/site-packages/ruamel_yaml/tokens.py",
    "Lib/site-packages/ruamel_yaml/util.py"
  ],
  "fn": "ruamel_yaml-0.11.14-py36h9b16331_2.tar.bz2",
  "license": "MIT",
  "license_family": "MIT",
  "link": {
    "source": "C:\\Program Files\\Anaconda3\\pkgs\\ruamel_yaml-0.11.14-py36h9b16331_2",
    "type": 1
  },
  "md5": null,
  "name": "ruamel_yaml",
  "noarch": null,
  "platform": "win32",
  "preferred_env": null,
  "priority": 1,
  "schannel": "defaults",
  "subdir": "win-64",
  "timestamp": 1506000419459,
  "url": "https://repo.continuum.io/pkgs/main/win-64/ruamel_yaml-0.11.14-py36h9b16331_2.tar.bz2",
  "version": "0.11.14",
  "with_features_depends": {}
}