{
  "arch": "x86_64",
  "auth": null,
  "build": "py36h9c25514_2",
  "build_number": 2,
  "channel": null,
  "depends": [
    "python >=3.6,<3.7.0a0",
    "vc 14.*"
  ],
  "files": [
    "Lib/site-packages/__pycache__/sipconfig.cpython-36.pyc",
    "Lib/site-packages/__pycache__/sipdistutils.cpython-36.pyc",
    "Lib/site-packages/sip.pyd",
    "Lib/site-packages/sip.pyi",
    "Lib/site-packages/sipconfig.py",
    "Lib/site-packages/sipdistutils.py",
    "Library/bin/sip.exe",
    "include/sip.h"
  ],
  "fn": "sip-4.18.1-py36h9c25514_2.tar.bz2",
  "license": "GPL-3.0",
  "link": {
    "source": "C:\\Program Files\\Anaconda3\\pkgs\\sip-4.18.1-py36h9c25514_2",
    "type": 1
  },
  "md5": null,
  "name": "sip",
  "noarch": null,
  "platform": "win32",
  "preferred_env": null,
  "priority": 1,
  "schannel": "defaults",
  "subdir": "win-64",
  "timestamp": 1505894961258,
  "url": "https://repo.continuum.io/pkgs/main/win-64/sip-4.18.1-py36h9c25514_2.tar.bz2",
  "version": "4.18.1",
  "with_features_depends": {}
}