{
  "arch": "x86_64",
  "auth": null,
  "build": "py36hbefa0ab_0",
  "build_number": 0,
  "channel": null,
  "depends": [
    "python >=3.6,<3.7.0a0",
    "sortedcontainers"
  ],
  "files": [
    "Lib/site-packages/sortedcollections-0.5.3-py3.6.egg-info/PKG-INFO",
    "Lib/site-packages/sortedcollections-0.5.3-py3.6.egg-info/SOURCES.txt",
    "Lib/site-packages/sortedcollections-0.5.3-py3.6.egg-info/dependency_links.txt",
    "Lib/site-packages/sortedcollections-0.5.3-py3.6.egg-info/requires.txt",
    "Lib/site-packages/sortedcollections-0.5.3-py3.6.egg-info/top_level.txt",
    "Lib/site-packages/sortedcollections/__init__.py",
    "Lib/site-packages/sortedcollections/__pycache__/__init__.cpython-36.pyc",
    "Lib/site-packages/sortedcollections/__pycache__/ordereddict.cpython-36.pyc",
    "Lib/site-packages/sortedcollections/__pycache__/recipes.cpython-36.pyc",
    "Lib/site-packages/sortedcollections/ordereddict.py",
    "Lib/site-packages/sortedcollections/recipes.py"
  ],
  "fn": "sortedcollections-0.5.3-py36hbefa0ab_0.tar.bz2",
  "license": "Apache-2.0",
  "license_family": "Apache",
  "link": {
    "source": "C:\\Program Files\\Anaconda3\\pkgs\\sortedcollections-0.5.3-py36hbefa0ab_0",
    "type": 1
  },
  "md5": null,
  "name": "sortedcollections",
  "noarch": null,
  "platform": "win32",
  "preferred_env": null,
  "priority": 1,
  "schannel": "defaults",
  "subdir": "win-64",
  "timestamp": 1506081348228,
  "url": "https://repo.continuum.io/pkgs/main/win-64/sortedcollections-0.5.3-py36hbefa0ab_0.tar.bz2",
  "version": "0.5.3",
  "with_features_depends": {}
}