{
  "arch": "x86_64",
  "auth": null,
  "build": "py36h30f5020_0",
  "build_number": 0,
  "channel": null,
  "depends": [
    "python >=3.6,<3.7.0a0"
  ],
  "files": [
    "Lib/site-packages/tblib-1.3.2-py3.6.egg-info/PKG-INFO",
    "Lib/site-packages/tblib-1.3.2-py3.6.egg-info/SOURCES.txt",
    "Lib/site-packages/tblib-1.3.2-py3.6.egg-info/dependency_links.txt",
    "Lib/site-packages/tblib-1.3.2-py3.6.egg-info/not-zip-safe",
    "Lib/site-packages/tblib-1.3.2-py3.6.egg-info/top_level.txt",
    "Lib/site-packages/tblib/__init__.py",
    "Lib/site-packages/tblib/__pycache__/__init__.cpython-36.pyc",
    "Lib/site-packages/tblib/__pycache__/cpython.cpython-36.pyc",
    "Lib/site-packages/tblib/__pycache__/decorators.cpython-36.pyc",
    "Lib/site-packages/tblib/__pycache__/pickling_support.cpython-36.pyc",
    "Lib/site-packages/tblib/cpython.py",
    "Lib/site-packages/tblib/decorators.py",
    "Lib/site-packages/tblib/pickling_support.py"
  ],
  "fn": "tblib-1.3.2-py36h30f5020_0.tar.bz2",
  "license": "BSD 2-Clause",
  "license_family": "BSD",
  "link": {
    "source": "C:\\Program Files\\Anaconda3\\pkgs\\tblib-1.3.2-py36h30f5020_0",
    "type": 1
  },
  "md5": null,
  "name": "tblib",
  "noarch": null,
  "platform": "win32",
  "preferred_env": null,
  "priority": 1,
  "schannel": "defaults",
  "subdir": "win-64",
  "timestamp": 1506005463025,
  "url": "https://repo.continuum.io/pkgs/main/win-64/tblib-1.3.2-py36h30f5020_0.tar.bz2",
  "version": "1.3.2",
  "with_features_depends": {}
}