{
  "arch": "x86_64",
  "auth": null,
  "build": "py36hb035bda_0",
  "build_number": 0,
  "channel": null,
  "depends": [
    "python >=3.6,<3.7.0a0"
  ],
  "files": [
    "Lib/site-packages/__pycache__/typing.cpython-36.pyc",
    "Lib/site-packages/typing-3.6.2-py3.6.egg-info/PKG-INFO",
    "Lib/site-packages/typing-3.6.2-py3.6.egg-info/SOURCES.txt",
    "Lib/site-packages/typing-3.6.2-py3.6.egg-info/dependency_links.txt",
    "Lib/site-packages/typing-3.6.2-py3.6.egg-info/top_level.txt",
    "Lib/site-packages/typing.py"
  ],
  "fn": "typing-3.6.2-py36hb035bda_0.tar.bz2",
  "license": "PSF",
  "link": {
    "source": "C:\\Program Files\\Anaconda3\\pkgs\\typing-3.6.2-py36hb035bda_0",
    "type": 1
  },
  "md5": null,
  "name": "typing",
  "noarch": null,
  "platform": "win32",
  "preferred_env": null,
  "priority": 1,
  "schannel": "defaults",
  "subdir": "win-64",
  "timestamp": 1506038608990,
  "url": "https://repo.continuum.io/pkgs/main/win-64/typing-3.6.2-py36hb035bda_0.tar.bz2",
  "version": "3.6.2",
  "with_features_depends": {}
}