{
  "arch": "x86_64",
  "auth": null,
  "build": "py36h1cb58dc_1",
  "build_number": 1,
  "channel": null,
  "depends": [
    "python >=3.6,<3.7.0a0"
  ],
  "files": [
    "Lib/site-packages/xlrd-1.1.0-py3.6.egg-info/PKG-INFO",
    "Lib/site-packages/xlrd-1.1.0-py3.6.egg-info/SOURCES.txt",
    "Lib/site-packages/xlrd-1.1.0-py3.6.egg-info/dependency_links.txt",
    "Lib/site-packages/xlrd-1.1.0-py3.6.egg-info/not-zip-safe",
    "Lib/site-packages/xlrd-1.1.0-py3.6.egg-info/top_level.txt",
    "Lib/site-packages/xlrd/__init__.py",
    "Lib/site-packages/xlrd/__pycache__/__init__.cpython-36.pyc",
    "Lib/site-packages/xlrd/__pycache__/biffh.cpython-36.pyc",
    "Lib/site-packages/xlrd/__pycache__/book.cpython-36.pyc",
    "Lib/site-packages/xlrd/__pycache__/compdoc.cpython-36.pyc",
    "Lib/site-packages/xlrd/__pycache__/formatting.cpython-36.pyc",
    "Lib/site-packages/xlrd/__pycache__/formula.cpython-36.pyc",
    "Lib/site-packages/xlrd/__pycache__/info.cpython-36.pyc",
    "Lib/site-packages/xlrd/__pycache__/sheet.cpython-36.pyc",
    "Lib/site-packages/xlrd/__pycache__/timemachine.cpython-36.pyc",
    "Lib/site-packages/xlrd/__pycache__/xldate.cpython-36.pyc",
    "Lib/site-packages/xlrd/__pycache__/xlsx.cpython-36.pyc",
    "Lib/site-packages/xlrd/biffh.py",
    "Lib/site-packages/xlrd/book.py",
    "Lib/site-packages/xlrd/compdoc.py",
    "Lib/site-packages/xlrd/examples/__pycache__/xlrdnameAPIdemo.cpython-36.pyc",
    "Lib/site-packages/xlrd/examples/namesdemo.xls",
    "Lib/site-packages/xlrd/examples/xlrdnameAPIdemo.py",
    "Lib/site-packages/xlrd/formatting.py",
    "Lib/site-packages/xlrd/formula.py",
    "Lib/site-packages/xlrd/info.py",
    "Lib/site-packages/xlrd/sheet.py",
    "Lib/site-packages/xlrd/timemachine.py",
    "Lib/site-packages/xlrd/xldate.py",
    "Lib/site-packages/xlrd/xlsx.py",
    "Scripts/runxlrd.py"
  ],
  "fn": "xlrd-1.1.0-py36h1cb58dc_1.tar.bz2",
  "license": "BSD 3-Clause and BSD with advertising",
  "license_family": "BSD",
  "link": {
    "source": "C:\\Program Files\\Anaconda3\\pkgs\\xlrd-1.1.0-py36h1cb58dc_1",
    "type": 1
  },
  "md5": null,
  "name": "xlrd",
  "noarch": null,
  "platform": "win32",
  "preferred_env": null,
  "priority": 1,
  "schannel": "defaults",
  "subdir": "win-64",
  "timestamp": 1506083912768,
  "url": "https://repo.continuum.io/pkgs/main/win-64/xlrd-1.1.0-py36h1cb58dc_1.tar.bz2",
  "version": "1.1.0",
  "with_features_depends": {}
}